%!PS-Adobe-3.0 EPSF-3.0
%%Title: ../../moc-output/sim-dshad4/memcached/random-2012-04-05-19:31:38/plots/sim-utility-avg.eps
%%Creator: matplotlib version 1.0.1, http://matplotlib.sourceforge.net/
%%CreationDate: Mon Apr 16 18:33:28 2012
%%Orientation: portrait
%%BoundingBox: 126 252 486 540
%%EndComments
%%BeginProlog
/mpldict 8 dict def
mpldict begin
/m { moveto } bind def
/l { lineto } bind def
/r { rlineto } bind def
/c { curveto } bind def
/cl { closepath } bind def
/box {
m
1 index 0 r
0 exch r
neg 0 r
cl
} bind def
/clipbox {
box
clip
newpath
} bind def
%!PS-Adobe-3.0 Resource-Font
%%Title: DejaVu Sans
%%Copyright: Copyright (c) 2003 by Bitstream, Inc. All Rights Reserved. Copyright (c) 2006 by Tavmjong Bah. All Rights Reserved. DejaVu changes are in public domain 
%%Creator: Converted from TrueType to type 3 by PPR
25 dict begin
/_d{bind def}bind def
/_m{moveto}_d
/_l{lineto}_d
/_cl{closepath eofill}_d
/_c{curveto}_d
/_sc{7 -1 roll{setcachedevice}{pop pop pop pop pop pop}ifelse}_d
/_e{exec}_d
/FontName /DejaVuSans def
/PaintType 0 def
/FontMatrix[.001 0 0 .001 0 0]def
/FontBBox[-1020 -414 1681 1167]def
/FontType 3 def
/Encoding [ /space /percent /hyphen /period /zero /one /two /three /four /five /six /seven /eight /nine /a /e /g /h /i /l /m /o /p /r /t /u /v /x /y ] def
/FontInfo 10 dict dup begin
/FamilyName (DejaVu Sans) def
/FullName (DejaVu Sans) def
/Notice (Copyright (c) 2003 by Bitstream, Inc. All Rights Reserved. Copyright (c) 2006 by Tavmjong Bah. All Rights Reserved. DejaVu changes are in public domain ) def
/Weight (Book) def
/Version (Version 2.33) def
/ItalicAngle 0.0 def
/isFixedPitch false def
/UnderlinePosition -130 def
/UnderlineThickness 90 def
end readonly def
/CharStrings 29 dict dup begin
/space{318 0 0 0 0 0 _sc
}_d
/percent{{950 0 55 -13 895 742 _sc
727 321 _m
699 321 676 309 660 285 _c
644 261 636 227 636 184 _c
636 142 644 108 660 84 _c
676 60 699 48 727 48 _c
755 48 777 60 793 84 _c
809 108 817 142 817 184 _c
817 226 809 260 793 284 _c
777 308 755 321 727 321 _c
727 383 _m
778 383 819 365 849 329 _c
879 293 895 244 895 184 _c
895 123 879 75 849 40 _c
819 4 778 -13 727 -13 _c
675 -13 633 4 603 40 _c
573 75 558 123 558 184 _c
558 245 573 293 603 329 _c
633 365 675 383 727 383 _c
664 742 _m
742 742 _l
286 -13 _l
208 -13 _l
664 742 _l
223 742 _m
274 742 315 724 346 688 _c
376 652 392 604 392 544 _c
}_e{392 482 376 434 346 398 _c
316 362 275 345 223 345 _c
171 345 130 362 100 398 _c
70 434 55 482 55 544 _c
55 604 70 652 100 688 _c
130 724 171 742 223 742 _c
223 680 _m
195 680 173 667 157 643 _c
141 619 133 586 133 544 _c
133 500 141 467 157 443 _c
173 419 195 407 223 407 _c
251 407 274 419 290 443 _c
306 467 314 500 314 544 _c
314 586 305 619 289 643 _c
273 667 251 680 223 680 _c
_cl}_e}_d
/hyphen{361 0 49 234 312 314 _sc
49 314 _m
312 314 _l
312 234 _l
49 234 _l
49 314 _l
_cl}_d
/period{318 0 107 0 210 124 _sc
107 124 _m
210 124 _l
210 0 _l
107 0 _l
107 124 _l
_cl}_d
/zero{636 0 66 -13 570 742 _sc
318 664 _m
267 664 229 639 203 589 _c
177 539 165 464 165 364 _c
165 264 177 189 203 139 _c
229 89 267 64 318 64 _c
369 64 407 89 433 139 _c
458 189 471 264 471 364 _c
471 464 458 539 433 589 _c
407 639 369 664 318 664 _c
318 742 _m
399 742 461 709 505 645 _c
548 580 570 486 570 364 _c
570 241 548 147 505 83 _c
461 19 399 -13 318 -13 _c
236 -13 173 19 130 83 _c
87 147 66 241 66 364 _c
66 486 87 580 130 645 _c
173 709 236 742 318 742 _c
_cl}_d
/one{636 0 110 0 544 729 _sc
124 83 _m
285 83 _l
285 639 _l
110 604 _l
110 694 _l
284 729 _l
383 729 _l
383 83 _l
544 83 _l
544 0 _l
124 0 _l
124 83 _l
_cl}_d
/two{{636 0 73 0 536 742 _sc
192 83 _m
536 83 _l
536 0 _l
73 0 _l
73 83 _l
110 121 161 173 226 239 _c
290 304 331 346 348 365 _c
380 400 402 430 414 455 _c
426 479 433 504 433 528 _c
433 566 419 598 392 622 _c
365 646 330 659 286 659 _c
255 659 222 653 188 643 _c
154 632 117 616 78 594 _c
78 694 _l
118 710 155 722 189 730 _c
223 738 255 742 284 742 _c
359 742 419 723 464 685 _c
509 647 532 597 532 534 _c
532 504 526 475 515 449 _c
504 422 484 390 454 354 _c
446 344 420 317 376 272 _c
332 227 271 164 192 83 _c
_cl}_e}_d
/three{{636 0 76 -13 556 742 _sc
406 393 _m
453 383 490 362 516 330 _c
542 298 556 258 556 212 _c
556 140 531 84 482 45 _c
432 6 362 -13 271 -13 _c
240 -13 208 -10 176 -4 _c
144 1 110 10 76 22 _c
76 117 _l
103 101 133 89 166 81 _c
198 73 232 69 268 69 _c
330 69 377 81 409 105 _c
441 129 458 165 458 212 _c
458 254 443 288 413 312 _c
383 336 341 349 287 349 _c
202 349 _l
202 430 _l
291 430 _l
339 430 376 439 402 459 _c
428 478 441 506 441 543 _c
441 580 427 609 401 629 _c
374 649 336 659 287 659 _c
260 659 231 656 200 650 _c
169 644 135 635 98 623 _c
98 711 _l
135 721 170 729 203 734 _c
235 739 266 742 296 742 _c
}_e{370 742 429 725 473 691 _c
517 657 539 611 539 553 _c
539 513 527 479 504 451 _c
481 423 448 403 406 393 _c
_cl}_e}_d
/four{636 0 49 0 580 729 _sc
378 643 _m
129 254 _l
378 254 _l
378 643 _l
352 729 _m
476 729 _l
476 254 _l
580 254 _l
580 172 _l
476 172 _l
476 0 _l
378 0 _l
378 172 _l
49 172 _l
49 267 _l
352 729 _l
_cl}_d
/five{{636 0 77 -13 549 729 _sc
108 729 _m
495 729 _l
495 646 _l
198 646 _l
198 467 _l
212 472 227 476 241 478 _c
255 480 270 482 284 482 _c
365 482 429 459 477 415 _c
525 370 549 310 549 234 _c
549 155 524 94 475 51 _c
426 8 357 -13 269 -13 _c
238 -13 207 -10 175 -6 _c
143 -1 111 6 77 17 _c
77 116 _l
106 100 136 88 168 80 _c
199 72 232 69 267 69 _c
323 69 368 83 401 113 _c
433 143 450 183 450 234 _c
450 284 433 324 401 354 _c
368 384 323 399 267 399 _c
241 399 214 396 188 390 _c
162 384 135 375 108 363 _c
108 729 _l
_cl}_e}_d
/six{{636 0 70 -13 573 742 _sc
330 404 _m
286 404 251 388 225 358 _c
199 328 186 286 186 234 _c
186 181 199 139 225 109 _c
251 79 286 64 330 64 _c
374 64 409 79 435 109 _c
461 139 474 181 474 234 _c
474 286 461 328 435 358 _c
409 388 374 404 330 404 _c
526 713 _m
526 623 _l
501 635 476 644 451 650 _c
425 656 400 659 376 659 _c
310 659 260 637 226 593 _c
192 549 172 482 168 394 _c
187 422 211 444 240 459 _c
269 474 301 482 336 482 _c
409 482 467 459 509 415 _c
551 371 573 310 573 234 _c
573 159 550 99 506 54 _c
462 9 403 -13 330 -13 _c
246 -13 181 19 137 83 _c
92 147 70 241 70 364 _c
70 479 97 571 152 639 _c
206 707 280 742 372 742 _c
}_e{396 742 421 739 447 735 _c
472 730 498 723 526 713 _c
_cl}_e}_d
/seven{636 0 82 0 551 729 _sc
82 729 _m
551 729 _l
551 687 _l
286 0 _l
183 0 _l
432 646 _l
82 646 _l
82 729 _l
_cl}_d
/eight{{636 0 68 -13 568 742 _sc
318 346 _m
271 346 234 333 207 308 _c
180 283 167 249 167 205 _c
167 161 180 126 207 101 _c
234 76 271 64 318 64 _c
364 64 401 76 428 102 _c
455 127 469 161 469 205 _c
469 249 455 283 429 308 _c
402 333 365 346 318 346 _c
219 388 _m
177 398 144 418 120 447 _c
96 476 85 511 85 553 _c
85 611 105 657 147 691 _c
188 725 245 742 318 742 _c
390 742 447 725 489 691 _c
530 657 551 611 551 553 _c
551 511 539 476 515 447 _c
491 418 459 398 417 388 _c
464 377 501 355 528 323 _c
554 291 568 251 568 205 _c
568 134 546 80 503 43 _c
459 5 398 -13 318 -13 _c
237 -13 175 5 132 43 _c
89 80 68 134 68 205 _c
68 251 81 291 108 323 _c
134 355 171 377 219 388 _c
}_e{183 544 _m
183 506 194 476 218 455 _c
242 434 275 424 318 424 _c
360 424 393 434 417 455 _c
441 476 453 506 453 544 _c
453 582 441 611 417 632 _c
393 653 360 664 318 664 _c
275 664 242 653 218 632 _c
194 611 183 582 183 544 _c
_cl}_e}_d
/nine{{636 0 63 -13 566 742 _sc
110 15 _m
110 105 _l
134 93 159 84 185 78 _c
210 72 235 69 260 69 _c
324 69 374 90 408 134 _c
442 178 462 244 468 334 _c
448 306 424 284 396 269 _c
367 254 335 247 300 247 _c
226 247 168 269 126 313 _c
84 357 63 417 63 494 _c
63 568 85 628 129 674 _c
173 719 232 742 306 742 _c
390 742 455 709 499 645 _c
543 580 566 486 566 364 _c
566 248 538 157 484 89 _c
429 21 356 -13 264 -13 _c
239 -13 214 -10 189 -6 _c
163 -2 137 5 110 15 _c
306 324 _m
350 324 385 339 411 369 _c
437 399 450 441 450 494 _c
450 546 437 588 411 618 _c
385 648 350 664 306 664 _c
262 664 227 648 201 618 _c
175 588 162 546 162 494 _c
}_e{162 441 175 399 201 369 _c
227 339 262 324 306 324 _c
_cl}_e}_d
/a{{613 0 60 -13 522 560 _sc
343 275 _m
270 275 220 266 192 250 _c
164 233 150 205 150 165 _c
150 133 160 107 181 89 _c
202 70 231 61 267 61 _c
317 61 357 78 387 114 _c
417 149 432 196 432 255 _c
432 275 _l
343 275 _l
522 312 _m
522 0 _l
432 0 _l
432 83 _l
411 49 385 25 355 10 _c
325 -5 287 -13 243 -13 _c
187 -13 142 2 109 33 _c
76 64 60 106 60 159 _c
60 220 80 266 122 298 _c
163 329 224 345 306 345 _c
432 345 _l
432 354 _l
432 395 418 427 391 450 _c
364 472 326 484 277 484 _c
245 484 215 480 185 472 _c
155 464 127 453 100 439 _c
100 522 _l
}_e{132 534 164 544 195 550 _c
226 556 256 560 286 560 _c
365 560 424 539 463 498 _c
502 457 522 395 522 312 _c
_cl}_e}_d
/e{{615 0 55 -13 562 560 _sc
562 296 _m
562 252 _l
149 252 _l
153 190 171 142 205 110 _c
238 78 284 62 344 62 _c
378 62 412 66 444 74 _c
476 82 509 95 541 113 _c
541 28 _l
509 14 476 3 442 -3 _c
408 -9 373 -13 339 -13 _c
251 -13 182 12 131 62 _c
80 112 55 181 55 268 _c
55 357 79 428 127 481 _c
175 533 241 560 323 560 _c
397 560 455 536 498 489 _c
540 441 562 377 562 296 _c
472 322 _m
471 371 457 410 431 440 _c
404 469 368 484 324 484 _c
274 484 234 469 204 441 _c
174 413 156 373 152 322 _c
472 322 _l
_cl}_e}_d
/g{{635 0 55 -207 544 560 _sc
454 280 _m
454 344 440 395 414 431 _c
387 467 349 485 301 485 _c
253 485 215 467 188 431 _c
161 395 148 344 148 280 _c
148 215 161 165 188 129 _c
215 93 253 75 301 75 _c
349 75 387 93 414 129 _c
440 165 454 215 454 280 _c
544 68 _m
544 -24 523 -93 482 -139 _c
440 -184 377 -207 292 -207 _c
260 -207 231 -204 203 -200 _c
175 -195 147 -188 121 -178 _c
121 -91 _l
147 -105 173 -115 199 -122 _c
225 -129 251 -133 278 -133 _c
336 -133 380 -117 410 -87 _c
439 -56 454 -10 454 52 _c
454 96 _l
435 64 411 40 382 24 _c
353 8 319 0 279 0 _c
211 0 157 25 116 76 _c
75 127 55 195 55 280 _c
55 364 75 432 116 483 _c
157 534 211 560 279 560 _c
}_e{319 560 353 552 382 536 _c
411 520 435 496 454 464 _c
454 547 _l
544 547 _l
544 68 _l
_cl}_e}_d
/h{634 0 91 0 549 760 _sc
549 330 _m
549 0 _l
459 0 _l
459 327 _l
459 379 448 417 428 443 _c
408 469 378 482 338 482 _c
289 482 251 466 223 435 _c
195 404 181 362 181 309 _c
181 0 _l
91 0 _l
91 760 _l
181 760 _l
181 462 _l
202 494 227 519 257 535 _c
286 551 320 560 358 560 _c
420 560 468 540 500 501 _c
532 462 549 405 549 330 _c
_cl}_d
/i{278 0 94 0 184 760 _sc
94 547 _m
184 547 _l
184 0 _l
94 0 _l
94 547 _l
94 760 _m
184 760 _l
184 646 _l
94 646 _l
94 760 _l
_cl}_d
/l{278 0 94 0 184 760 _sc
94 760 _m
184 760 _l
184 0 _l
94 0 _l
94 760 _l
_cl}_d
/m{{974 0 91 0 889 560 _sc
520 442 _m
542 482 569 511 600 531 _c
631 550 668 560 711 560 _c
767 560 811 540 842 500 _c
873 460 889 403 889 330 _c
889 0 _l
799 0 _l
799 327 _l
799 379 789 418 771 444 _c
752 469 724 482 686 482 _c
639 482 602 466 575 435 _c
548 404 535 362 535 309 _c
535 0 _l
445 0 _l
445 327 _l
445 379 435 418 417 444 _c
398 469 369 482 331 482 _c
285 482 248 466 221 435 _c
194 404 181 362 181 309 _c
181 0 _l
91 0 _l
91 547 _l
181 547 _l
181 462 _l
201 495 226 520 255 536 _c
283 552 317 560 357 560 _c
397 560 430 550 458 530 _c
486 510 506 480 520 442 _c
}_e{_cl}_e}_d
/o{612 0 55 -13 557 560 _sc
306 484 _m
258 484 220 465 192 427 _c
164 389 150 338 150 273 _c
150 207 163 156 191 118 _c
219 80 257 62 306 62 _c
354 62 392 80 420 118 _c
448 156 462 207 462 273 _c
462 337 448 389 420 427 _c
392 465 354 484 306 484 _c
306 560 _m
384 560 445 534 490 484 _c
534 433 557 363 557 273 _c
557 183 534 113 490 63 _c
445 12 384 -13 306 -13 _c
227 -13 165 12 121 63 _c
77 113 55 183 55 273 _c
55 363 77 433 121 484 _c
165 534 227 560 306 560 _c
_cl}_d
/p{{635 0 91 -207 580 560 _sc
181 82 _m
181 -207 _l
91 -207 _l
91 547 _l
181 547 _l
181 464 _l
199 496 223 520 252 536 _c
281 552 316 560 356 560 _c
422 560 476 533 518 481 _c
559 428 580 359 580 273 _c
580 187 559 117 518 65 _c
476 13 422 -13 356 -13 _c
316 -13 281 -5 252 10 _c
223 25 199 49 181 82 _c
487 273 _m
487 339 473 390 446 428 _c
418 466 381 485 334 485 _c
286 485 249 466 222 428 _c
194 390 181 339 181 273 _c
181 207 194 155 222 117 _c
249 79 286 61 334 61 _c
381 61 418 79 446 117 _c
473 155 487 207 487 273 _c
_cl}_e}_d
/r{411 0 91 0 411 560 _sc
411 463 _m
401 469 390 473 378 476 _c
366 478 353 480 339 480 _c
288 480 249 463 222 430 _c
194 397 181 350 181 288 _c
181 0 _l
91 0 _l
91 547 _l
181 547 _l
181 462 _l
199 495 224 520 254 536 _c
284 552 321 560 365 560 _c
371 560 378 559 386 559 _c
393 558 401 557 411 555 _c
411 463 _l
_cl}_d
/t{392 0 27 0 368 702 _sc
183 702 _m
183 547 _l
368 547 _l
368 477 _l
183 477 _l
183 180 _l
183 135 189 106 201 94 _c
213 81 238 75 276 75 _c
368 75 _l
368 0 _l
276 0 _l
206 0 158 13 132 39 _c
106 65 93 112 93 180 _c
93 477 _l
27 477 _l
27 547 _l
93 547 _l
93 702 _l
183 702 _l
_cl}_d
/u{634 0 85 -13 543 560 _sc
85 216 _m
85 547 _l
175 547 _l
175 219 _l
175 167 185 129 205 103 _c
225 77 255 64 296 64 _c
344 64 383 79 411 110 _c
439 141 453 183 453 237 _c
453 547 _l
543 547 _l
543 0 _l
453 0 _l
453 84 _l
431 50 405 26 377 10 _c
348 -5 315 -13 277 -13 _c
214 -13 166 6 134 45 _c
101 83 85 140 85 216 _c
_cl}_d
/v{592 0 30 0 562 547 _sc
30 547 _m
125 547 _l
296 88 _l
467 547 _l
562 547 _l
357 0 _l
235 0 _l
30 547 _l
_cl}_d
/x{592 0 29 0 559 547 _sc
549 547 _m
351 281 _l
559 0 _l
453 0 _l
294 215 _l
135 0 _l
29 0 _l
241 286 _l
47 547 _l
153 547 _l
298 352 _l
443 547 _l
549 547 _l
_cl}_d
/y{592 0 30 -207 562 547 _sc
322 -50 _m
296 -114 271 -157 247 -177 _c
223 -197 191 -207 151 -207 _c
79 -207 _l
79 -132 _l
132 -132 _l
156 -132 175 -126 189 -114 _c
203 -102 218 -75 235 -31 _c
251 9 _l
30 547 _l
125 547 _l
296 119 _l
467 547 _l
562 547 _l
322 -50 _l
_cl}_d
end readonly def

/BuildGlyph
 {exch begin
 CharStrings exch
 2 copy known not{pop /.notdef}if
 true 3 1 roll get exec
 end}_d

/BuildChar {
 1 index /Encoding get exch get
 1 index /BuildGlyph get exec
}_d

FontName currentdict end definefont pop
end
%%EndProlog
mpldict begin
126 252 translate
360 288 0 0 clipbox
1.000 setlinewidth
1 setlinejoin
2 setlinecap
[] 0 setdash
1.000 setgray
gsave
0 0 m
360 0 l
360 288 l
0 288 l
cl
gsave
fill
grestore
stroke
grestore
gsave
45 28.8 m
268.2 28.8 l
268.2 259.2 l
45 259.2 l
cl
fill
grestore
/p1_0 {
newpath
translate
57.4 77.4377 m
67.7748 86.4 l
57.4 94.0302 l
55.0883 86.4 l
57.4 77.4377 l
} bind def
gsave
223.2 230.4 45 28.8 clipbox
0 0 p1_0
0.117 0.117 0.162 setrgbcolor
fill
grestore
/p2_0 {
newpath
translate
57.4 68.4739 m
69.8 77.5725 l
80.3382 86.4 l
69.8 93.5433 l
57.4 101.662 l
52.7762 86.4 l
57.4 68.4739 l
57.4 77.4377 m
55.0883 86.4 l
57.4 94.0302 l
67.7748 86.4 l
57.4 77.4377 l
} bind def
gsave
223.2 230.4 45 28.8 clipbox
0 0 p2_0
0.196 0.196 0.272 setrgbcolor
fill
grestore
/p3_0 {
newpath
translate
57.4 59.5101 m
69.8 66.6043 l
82.2 71.2576 l
94.6 83.2603 l
98.9573 86.4 l
94.6 88.6828 l
82.2 95.4156 l
69.8 102.419 l
57.4 109.293 l
50.4642 86.4 l
57.4 59.5101 l
57.4 68.4739 m
52.7762 86.4 l
57.4 101.662 l
69.8 93.5433 l
80.3382 86.4 l
69.8 77.5725 l
57.4 68.4739 l
} bind def
gsave
223.2 230.4 45 28.8 clipbox
0 0 p3_0
0.275 0.275 0.382 setrgbcolor
fill
grestore
/p4_0 {
newpath
translate
57.4 49.0524 m
69.8 53.8081 l
82.2 50.6631 l
94.6 64.5202 l
107 71.3561 l
119.4 78.6092 l
131.8 85.9328 l
132.494 86.4 l
131.8 86.6563 l
119.4 90.3357 l
107 96.6414 l
94.6 102.308 l
82.2 107.677 l
69.8 112.774 l
57.4 118.196 l
47.7668 86.4 l
57.4 49.0524 l
57.4 59.5101 m
50.4642 86.4 l
57.4 109.293 l
69.8 102.419 l
82.2 95.4156 l
94.6 88.6828 l
98.9573 86.4 l
94.6 83.2603 l
82.2 71.2576 l
69.8 66.6043 l
57.4 59.5101 l
} bind def
gsave
223.2 230.4 45 28.8 clipbox
0 0 p4_0
0.360 0.376 0.485 setrgbcolor
fill
grestore
/p5_0 {
newpath
translate
57.4 40.0886 m
69.8 42.84 l
82.2 33.0107 l
94.6 48.4574 l
107 52.6883 l
119.4 49.7619 l
131.8 58.1465 l
144.2 64.8989 l
156.6 70.4141 l
169 78.203 l
181.297 86.4 l
169 89.958 l
156.6 93.8233 l
144.2 97.9901 l
131.8 101.899 l
119.4 104.909 l
107 109.35 l
94.6 113.987 l
82.2 118.187 l
69.8 121.649 l
57.4 125.828 l
45.4547 86.4 l
57.4 40.0886 l
57.4 49.0524 m
47.7668 86.4 l
57.4 118.196 l
69.8 112.774 l
82.2 107.677 l
94.6 102.308 l
107 96.6414 l
119.4 90.3357 l
131.8 86.6563 l
132.494 86.4 l
131.8 85.9328 l
119.4 78.6092 l
107 71.3561 l
94.6 64.5202 l
82.2 50.6631 l
69.8 53.8081 l
57.4 49.0524 l
} bind def
gsave
223.2 230.4 45 28.8 clipbox
0 0 p5_0
0.443 0.489 0.568 setrgbcolor
fill
grestore
/p6_0 {
newpath
translate
73.1343 28.8 m
82.2 28.8 l
91.7836 28.8 l
94.6 32.3945 l
107 34.0206 l
113.271 28.8 l
119.4 28.8 l
129.687 28.8 l
131.8 30.3602 l
144.2 34.8818 l
156.6 34.2571 l
169 37.7944 l
181.4 42.8484 l
193.8 46.2078 l
206.2 31.9793 l
218.6 57.2877 l
231 57.793 l
243.4 71.777 l
253.822 28.8 l
255.8 28.8 l
268.2 28.8 l
268.2 86.4 l
268.2 87.0109 l
255.8 88.8493 l
243.4 91.1935 l
231 93.0478 l
218.6 95.7038 l
206.2 98.7916 l
193.8 101.951 l
181.4 104.858 l
169 107.498 l
156.6 110.613 l
144.2 114.171 l
131.8 117.142 l
119.4 119.482 l
107 122.058 l
94.6 125.665 l
82.2 128.698 l
69.8 130.525 l
57.4 133.459 l
45 117.029 l
45 86.4 l
45 32.3248 l
57.4 31.1248 l
69.8 31.8718 l
73.1343 28.8 l
57.4 40.0886 m
45.4547 86.4 l
57.4 125.828 l
69.8 121.649 l
82.2 118.187 l
94.6 113.987 l
107 109.35 l
119.4 104.909 l
131.8 101.899 l
144.2 97.9901 l
156.6 93.8233 l
169 89.958 l
181.297 86.4 l
169 78.203 l
156.6 70.4141 l
144.2 64.8989 l
131.8 58.1465 l
119.4 49.7619 l
107 52.6883 l
94.6 48.4574 l
82.2 33.0107 l
69.8 42.84 l
57.4 40.0886 l
} bind def
gsave
223.2 230.4 45 28.8 clipbox
0 0 p6_0
0.522 0.597 0.647 setrgbcolor
fill
grestore
/p7_0 {
newpath
translate
45 28.8 m
57.4 28.8 l
69.8 28.8 l
73.1343 28.8 l
69.8 31.8718 l
57.4 31.1248 l
45 32.3248 l
45 28.8 l
} bind def
/p7_1 {
newpath
translate
91.7836 28.8 m
94.6 28.8 l
107 28.8 l
113.271 28.8 l
107 34.0206 l
94.6 32.3945 l
91.7836 28.8 l
} bind def
/p7_2 {
newpath
translate
129.687 28.8 m
131.8 28.8 l
144.2 28.8 l
156.6 28.8 l
169 28.8 l
181.4 28.8 l
193.8 28.8 l
206.2 28.8 l
218.6 28.8 l
231 28.8 l
243.4 28.8 l
253.822 28.8 l
243.4 71.777 l
231 57.793 l
218.6 57.2877 l
206.2 31.9793 l
193.8 46.2078 l
181.4 42.8484 l
169 37.7944 l
156.6 34.2571 l
144.2 34.8818 l
131.8 30.3602 l
129.687 28.8 l
} bind def
/p7_3 {
newpath
translate
45 144 m
45 117.029 l
57.4 133.459 l
69.8 130.525 l
82.2 128.698 l
94.6 125.665 l
107 122.058 l
119.4 119.482 l
131.8 117.142 l
144.2 114.171 l
156.6 110.613 l
169 107.498 l
181.4 104.858 l
193.8 101.951 l
206.2 98.7916 l
218.6 95.7038 l
231 93.0478 l
243.4 91.1935 l
255.8 88.8493 l
268.2 87.0109 l
268.2 107.199 l
255.8 109.076 l
243.4 111.257 l
231 112.948 l
218.6 115.003 l
206.2 118.384 l
193.8 120.992 l
181.4 123.348 l
169 125.038 l
156.6 127.403 l
144.2 130.351 l
131.8 132.385 l
119.4 134.055 l
107 134.767 l
94.6 137.344 l
82.2 139.208 l
69.8 139.4 l
57.4 141.09 l
50.3841 144 l
45 151.45 l
45 144 l
} bind def
gsave
223.2 230.4 45 28.8 clipbox
0 0 p7_0
0.600 0.706 0.725 setrgbcolor
fill
grestore
gsave
223.2 230.4 45 28.8 clipbox
0 0 p7_1
0.600 0.706 0.725 setrgbcolor
fill
grestore
gsave
223.2 230.4 45 28.8 clipbox
0 0 p7_2
0.600 0.706 0.725 setrgbcolor
fill
grestore
gsave
223.2 230.4 45 28.8 clipbox
0 0 p7_3
0.600 0.706 0.725 setrgbcolor
fill
grestore
/p8_0 {
newpath
translate
57.4 141.09 m
69.8 139.4 l
82.2 139.208 l
94.6 137.344 l
107 134.767 l
119.4 134.055 l
131.8 132.385 l
144.2 130.351 l
156.6 127.403 l
169 125.038 l
181.4 123.348 l
193.8 120.992 l
206.2 118.384 l
218.6 115.003 l
231 112.948 l
243.4 111.257 l
255.8 109.076 l
268.2 107.199 l
268.2 127.387 l
255.8 129.303 l
243.4 131.321 l
231 132.848 l
218.6 134.302 l
206.2 137.977 l
193.8 140.032 l
181.4 141.838 l
169 142.578 l
158.141 144 l
162.738 201.6 l
156.6 211.154 l
144.2 221.79 l
131.8 224.532 l
119.4 223.252 l
114.504 201.6 l
107 156.582 l
94.6 168.801 l
82.2 169.291 l
69.8 166.567 l
57.4 168.448 l
45 176.912 l
45 151.45 l
50.3841 144 l
57.4 141.09 l
} bind def
gsave
223.2 230.4 45 28.8 clipbox
0 0 p8_0
0.694 0.804 0.804 setrgbcolor
fill
grestore
/p9_0 {
newpath
translate
169 142.578 m
181.4 141.838 l
193.8 140.032 l
206.2 137.977 l
218.6 134.302 l
231 132.848 l
243.4 131.321 l
255.8 129.303 l
268.2 127.387 l
268.2 144 l
268.2 187.559 l
255.8 194.425 l
243.4 198.058 l
239.594 201.6 l
231 228.453 l
218.6 245.732 l
206.2 247.752 l
193.8 252.636 l
181.4 253.405 l
169 254.957 l
156.6 256.345 l
144.2 256.972 l
131.8 257.146 l
119.4 257.178 l
107 218.966 l
94.6 251.746 l
82.2 249.408 l
69.8 247.713 l
57.4 243.511 l
45 220.111 l
45 201.6 l
45 176.912 l
57.4 168.448 l
69.8 166.567 l
82.2 169.291 l
94.6 168.801 l
107 156.582 l
114.504 201.6 l
119.4 223.252 l
131.8 224.532 l
144.2 221.79 l
156.6 211.154 l
162.738 201.6 l
158.141 144 l
169 142.578 l
} bind def
gsave
223.2 230.4 45 28.8 clipbox
0 0 p9_0
0.818 0.883 0.883 setrgbcolor
fill
grestore
/pa_0 {
newpath
translate
243.4 198.058 m
255.8 194.425 l
268.2 187.559 l
268.2 201.6 l
268.2 259.2 l
255.8 259.2 l
243.4 259.2 l
231 259.2 l
218.6 259.2 l
206.2 259.2 l
193.8 259.2 l
181.4 259.2 l
169 259.2 l
156.6 259.2 l
144.2 259.2 l
131.8 259.2 l
119.4 259.2 l
107 259.2 l
94.6 259.2 l
82.2 259.2 l
69.8 259.2 l
57.4 259.2 l
45 259.2 l
45 220.111 l
57.4 243.511 l
69.8 247.713 l
82.2 249.408 l
94.6 251.746 l
107 218.966 l
119.4 257.178 l
131.8 257.146 l
144.2 256.972 l
156.6 256.345 l
169 254.957 l
181.4 253.405 l
193.8 252.636 l
206.2 247.752 l
218.6 245.732 l
231 228.453 l
239.594 201.6 l
243.4 198.058 l
} bind def
gsave
223.2 230.4 45 28.8 clipbox
0 0 pa_0
0.941 0.962 0.962 setrgbcolor
fill
grestore
/pc_0 {
newpath
translate
57.4 77.4377 m
55.0883 86.4 l
57.4 94.0302 l
67.7748 86.4 l
57.4 77.4377 l
} bind def
2.000 setlinewidth
0 setlinecap
0.000 0.206 1.000 setrgbcolor
gsave
223.2 230.4 45 28.8 clipbox
0 0 pc_0
stroke
grestore
/pd_0 {
newpath
translate
57.4 68.4739 m
52.7762 86.4 l
57.4 101.662 l
69.8 93.5433 l
80.3382 86.4 l
69.8 77.5725 l
57.4 68.4739 l
} bind def
0.000 0.567 1.000 setrgbcolor
gsave
223.2 230.4 45 28.8 clipbox
0 0 pd_0
stroke
grestore
/pe_0 {
newpath
translate
57.4 59.5101 m
50.4642 86.4 l
57.4 109.293 l
69.8 102.419 l
82.2 95.4156 l
94.6 88.6828 l
98.9573 86.4 l
94.6 83.2603 l
82.2 71.2576 l
69.8 66.6043 l
57.4 59.5101 l
} bind def
0.022 0.927 0.946 setrgbcolor
gsave
223.2 230.4 45 28.8 clipbox
0 0 pe_0
stroke
grestore
/pf_0 {
newpath
translate
57.4 49.0524 m
47.7668 86.4 l
57.4 118.196 l
69.8 112.774 l
82.2 107.677 l
94.6 102.308 l
107 96.6414 l
119.4 90.3357 l
131.8 86.6563 l
132.494 86.4 l
131.8 85.9328 l
119.4 78.6092 l
107 71.3561 l
94.6 64.5202 l
82.2 50.6631 l
69.8 53.8081 l
57.4 49.0524 l
} bind def
0.364 1.000 0.604 setrgbcolor
gsave
223.2 230.4 45 28.8 clipbox
0 0 pf_0
stroke
grestore
/p10_0 {
newpath
translate
57.4 40.0886 m
45.4547 86.4 l
57.4 125.828 l
69.8 121.649 l
82.2 118.187 l
94.6 113.987 l
107 109.35 l
119.4 104.909 l
131.8 101.899 l
144.2 97.9901 l
156.6 93.8233 l
169 89.958 l
181.297 86.4 l
169 78.203 l
156.6 70.4141 l
144.2 64.8989 l
131.8 58.1465 l
119.4 49.7619 l
107 52.6883 l
94.6 48.4574 l
82.2 33.0107 l
69.8 42.84 l
57.4 40.0886 l
} bind def
0.655 1.000 0.313 setrgbcolor
gsave
223.2 230.4 45 28.8 clipbox
0 0 p10_0
stroke
grestore
/p11_0 {
newpath
translate
73.1343 28.8 m
69.8 31.8718 l
57.4 31.1248 l
45 32.3248 l
} bind def
/p11_1 {
newpath
translate
91.7836 28.8 m
94.6 32.3945 l
107 34.0206 l
113.271 28.8 l
} bind def
/p11_2 {
newpath
translate
129.687 28.8 m
131.8 30.3602 l
144.2 34.8818 l
156.6 34.2571 l
169 37.7944 l
181.4 42.8484 l
193.8 46.2078 l
206.2 31.9793 l
218.6 57.2877 l
231 57.793 l
243.4 71.777 l
253.822 28.8 l
} bind def
/p11_3 {
newpath
translate
45 117.029 m
57.4 133.459 l
69.8 130.525 l
82.2 128.698 l
94.6 125.665 l
107 122.058 l
119.4 119.482 l
131.8 117.142 l
144.2 114.171 l
156.6 110.613 l
169 107.498 l
181.4 104.858 l
193.8 101.951 l
206.2 98.7916 l
218.6 95.7038 l
231 93.0478 l
243.4 91.1935 l
255.8 88.8493 l
268.2 87.0109 l
} bind def
0.946 0.988 0.022 setrgbcolor
gsave
223.2 230.4 45 28.8 clipbox
0 0 p11_0
stroke
grestore
gsave
223.2 230.4 45 28.8 clipbox
0 0 p11_1
stroke
grestore
gsave
223.2 230.4 45 28.8 clipbox
0 0 p11_2
stroke
grestore
gsave
223.2 230.4 45 28.8 clipbox
0 0 p11_3
stroke
grestore
/p12_0 {
newpath
translate
45 151.45 m
50.3841 144 l
57.4 141.09 l
69.8 139.4 l
82.2 139.208 l
94.6 137.344 l
107 134.767 l
119.4 134.055 l
131.8 132.385 l
144.2 130.351 l
156.6 127.403 l
169 125.038 l
181.4 123.348 l
193.8 120.992 l
206.2 118.384 l
218.6 115.003 l
231 112.948 l
243.4 111.257 l
255.8 109.076 l
268.2 107.199 l
} bind def
1.000 0.654 0.000 setrgbcolor
gsave
223.2 230.4 45 28.8 clipbox
0 0 p12_0
stroke
grestore
/p13_0 {
newpath
translate
45 176.912 m
57.4 168.448 l
69.8 166.567 l
82.2 169.291 l
94.6 168.801 l
107 156.582 l
114.504 201.6 l
119.4 223.252 l
131.8 224.532 l
144.2 221.79 l
156.6 211.154 l
162.738 201.6 l
158.141 144 l
169 142.578 l
181.4 141.838 l
193.8 140.032 l
206.2 137.977 l
218.6 134.302 l
231 132.848 l
243.4 131.321 l
255.8 129.303 l
268.2 127.387 l
} bind def
1.000 0.320 0.000 setrgbcolor
gsave
223.2 230.4 45 28.8 clipbox
0 0 p13_0
stroke
grestore
/p14_0 {
newpath
translate
45 220.111 m
57.4 243.511 l
69.8 247.713 l
82.2 249.408 l
94.6 251.746 l
107 218.966 l
119.4 257.178 l
131.8 257.146 l
144.2 256.972 l
156.6 256.345 l
169 254.957 l
181.4 253.405 l
193.8 252.636 l
206.2 247.752 l
218.6 245.732 l
231 228.453 l
239.594 201.6 l
243.4 198.058 l
255.8 194.425 l
268.2 187.559 l
} bind def
0.892 0.000 0.000 setrgbcolor
gsave
223.2 230.4 45 28.8 clipbox
0 0 p14_0
stroke
grestore
0.500 setlinewidth
[1 3] 0 setdash
0.000 setgray
gsave
223.2 230.4 45 28.8 clipbox
45 28.8 m
45 259.2 l
stroke
grestore
[] 0 setdash
gsave
/o {
gsave
newpath
translate
0 0 m
0 4 l
stroke
grestore
} bind def
45 28.8 o
grestore
gsave
/o {
gsave
newpath
translate
0 0 m
0 -4 l
stroke
grestore
} bind def
45 259.2 o
grestore
/DejaVuSans findfont
8.000 scalefont
setfont
gsave
39.265625 18.753125 translate
0.000000 rotate
0.000000 0.109375 m /zero glyphshow
5.089844 0.109375 m /period glyphshow
7.632812 0.109375 m /one glyphshow
grestore
[1 3] 0 setdash
gsave
223.2 230.4 45 28.8 clipbox
69.8 28.8 m
69.8 259.2 l
stroke
grestore
[] 0 setdash
gsave
/o {
gsave
newpath
translate
0 0 m
0 4 l
stroke
grestore
} bind def
69.8 28.8 o
grestore
gsave
/o {
gsave
newpath
translate
0 0 m
0 -4 l
stroke
grestore
} bind def
69.8 259.2 o
grestore
gsave
64.096875 18.753125 translate
0.000000 rotate
0.000000 0.109375 m /zero glyphshow
5.089844 0.109375 m /period glyphshow
7.632812 0.109375 m /two glyphshow
grestore
[1 3] 0 setdash
gsave
223.2 230.4 45 28.8 clipbox
94.6 28.8 m
94.6 259.2 l
stroke
grestore
[] 0 setdash
gsave
/o {
gsave
newpath
translate
0 0 m
0 4 l
stroke
grestore
} bind def
94.6 28.8 o
grestore
gsave
/o {
gsave
newpath
translate
0 0 m
0 -4 l
stroke
grestore
} bind def
94.6 259.2 o
grestore
gsave
88.818750 18.753125 translate
0.000000 rotate
0.000000 0.109375 m /zero glyphshow
5.089844 0.109375 m /period glyphshow
7.632812 0.109375 m /three glyphshow
grestore
[1 3] 0 setdash
gsave
223.2 230.4 45 28.8 clipbox
119.4 28.8 m
119.4 259.2 l
stroke
grestore
[] 0 setdash
gsave
/o {
gsave
newpath
translate
0 0 m
0 4 l
stroke
grestore
} bind def
119.4 28.8 o
grestore
gsave
/o {
gsave
newpath
translate
0 0 m
0 -4 l
stroke
grestore
} bind def
119.4 259.2 o
grestore
gsave
113.525000 18.753125 translate
0.000000 rotate
0.000000 0.109375 m /zero glyphshow
5.089844 0.109375 m /period glyphshow
7.632812 0.109375 m /four glyphshow
grestore
[1 3] 0 setdash
gsave
223.2 230.4 45 28.8 clipbox
144.2 28.8 m
144.2 259.2 l
stroke
grestore
[] 0 setdash
gsave
/o {
gsave
newpath
translate
0 0 m
0 4 l
stroke
grestore
} bind def
144.2 28.8 o
grestore
gsave
/o {
gsave
newpath
translate
0 0 m
0 -4 l
stroke
grestore
} bind def
144.2 259.2 o
grestore
gsave
138.450000 18.753125 translate
0.000000 rotate
0.000000 0.109375 m /zero glyphshow
5.089844 0.109375 m /period glyphshow
7.632812 0.109375 m /five glyphshow
grestore
[1 3] 0 setdash
gsave
223.2 230.4 45 28.8 clipbox
169 28.8 m
169 259.2 l
stroke
grestore
[] 0 setdash
gsave
/o {
gsave
newpath
translate
0 0 m
0 4 l
stroke
grestore
} bind def
169 28.8 o
grestore
gsave
/o {
gsave
newpath
translate
0 0 m
0 -4 l
stroke
grestore
} bind def
169 259.2 o
grestore
gsave
163.148437 18.753125 translate
0.000000 rotate
0.000000 0.109375 m /zero glyphshow
5.089844 0.109375 m /period glyphshow
7.632812 0.109375 m /six glyphshow
grestore
[1 3] 0 setdash
gsave
223.2 230.4 45 28.8 clipbox
193.8 28.8 m
193.8 259.2 l
stroke
grestore
[] 0 setdash
gsave
/o {
gsave
newpath
translate
0 0 m
0 4 l
stroke
grestore
} bind def
193.8 28.8 o
grestore
gsave
/o {
gsave
newpath
translate
0 0 m
0 -4 l
stroke
grestore
} bind def
193.8 259.2 o
grestore
gsave
188.042188 18.753125 translate
0.000000 rotate
0.000000 0.109375 m /zero glyphshow
5.089844 0.109375 m /period glyphshow
7.632812 0.109375 m /seven glyphshow
grestore
[1 3] 0 setdash
gsave
223.2 230.4 45 28.8 clipbox
218.6 28.8 m
218.6 259.2 l
stroke
grestore
[] 0 setdash
gsave
/o {
gsave
newpath
translate
0 0 m
0 4 l
stroke
grestore
} bind def
218.6 28.8 o
grestore
gsave
/o {
gsave
newpath
translate
0 0 m
0 -4 l
stroke
grestore
} bind def
218.6 259.2 o
grestore
gsave
212.771875 18.753125 translate
0.000000 rotate
0.000000 0.109375 m /zero glyphshow
5.089844 0.109375 m /period glyphshow
7.632812 0.109375 m /eight glyphshow
grestore
[1 3] 0 setdash
gsave
223.2 230.4 45 28.8 clipbox
243.4 28.8 m
243.4 259.2 l
stroke
grestore
[] 0 setdash
gsave
/o {
gsave
newpath
translate
0 0 m
0 4 l
stroke
grestore
} bind def
243.4 28.8 o
grestore
gsave
/o {
gsave
newpath
translate
0 0 m
0 -4 l
stroke
grestore
} bind def
243.4 259.2 o
grestore
gsave
237.579688 18.753125 translate
0.000000 rotate
0.000000 0.109375 m /zero glyphshow
5.089844 0.109375 m /period glyphshow
7.632812 0.109375 m /nine glyphshow
grestore
[1 3] 0 setdash
gsave
223.2 230.4 45 28.8 clipbox
268.2 28.8 m
268.2 259.2 l
stroke
grestore
[] 0 setdash
gsave
/o {
gsave
newpath
translate
0 0 m
0 4 l
stroke
grestore
} bind def
268.2 28.8 o
grestore
gsave
/o {
gsave
newpath
translate
0 0 m
0 -4 l
stroke
grestore
} bind def
268.2 259.2 o
grestore
gsave
262.535937 18.753125 translate
0.000000 rotate
0.000000 0.109375 m /one glyphshow
5.089844 0.109375 m /period glyphshow
7.632812 0.109375 m /zero glyphshow
grestore
gsave
146.115625 6.003125 translate
0.000000 rotate
0.000000 1.671875 m /a glyphshow
4.902344 1.671875 m /l glyphshow
7.125000 1.671875 m /p glyphshow
12.203125 1.671875 m /h glyphshow
17.273438 1.671875 m /a glyphshow
grestore
[1 3] 0 setdash
gsave
223.2 230.4 45 28.8 clipbox
45 28.8 m
268.2 28.8 l
stroke
grestore
[] 0 setdash
gsave
/o {
gsave
newpath
translate
0 0 m
4 0 l
stroke
grestore
} bind def
45 28.8 o
grestore
gsave
/o {
gsave
newpath
translate
0 0 m
-4 0 l
stroke
grestore
} bind def
268.2 28.8 o
grestore
gsave
24.234375 25.776562 translate
0.000000 rotate
0.000000 0.109375 m /zero glyphshow
5.089844 0.109375 m /period glyphshow
7.632812 0.109375 m /eight glyphshow
12.722656 0.109375 m /zero glyphshow
grestore
[1 3] 0 setdash
gsave
223.2 230.4 45 28.8 clipbox
45 86.4 m
268.2 86.4 l
stroke
grestore
[] 0 setdash
gsave
/o {
gsave
newpath
translate
0 0 m
4 0 l
stroke
grestore
} bind def
45 86.4 o
grestore
gsave
/o {
gsave
newpath
translate
0 0 m
-4 0 l
stroke
grestore
} bind def
268.2 86.4 o
grestore
gsave
24.406250 83.376562 translate
0.000000 rotate
0.000000 0.109375 m /zero glyphshow
5.089844 0.109375 m /period glyphshow
7.632812 0.109375 m /eight glyphshow
12.722656 0.109375 m /five glyphshow
grestore
[1 3] 0 setdash
gsave
223.2 230.4 45 28.8 clipbox
45 144 m
268.2 144 l
stroke
grestore
[] 0 setdash
gsave
/o {
gsave
newpath
translate
0 0 m
4 0 l
stroke
grestore
} bind def
45 144 o
grestore
gsave
/o {
gsave
newpath
translate
0 0 m
-4 0 l
stroke
grestore
} bind def
268.2 144 o
grestore
gsave
24.234375 140.976562 translate
0.000000 rotate
0.000000 0.109375 m /zero glyphshow
5.089844 0.109375 m /period glyphshow
7.632812 0.109375 m /nine glyphshow
12.722656 0.109375 m /zero glyphshow
grestore
[1 3] 0 setdash
gsave
223.2 230.4 45 28.8 clipbox
45 201.6 m
268.2 201.6 l
stroke
grestore
[] 0 setdash
gsave
/o {
gsave
newpath
translate
0 0 m
4 0 l
stroke
grestore
} bind def
45 201.6 o
grestore
gsave
/o {
gsave
newpath
translate
0 0 m
-4 0 l
stroke
grestore
} bind def
268.2 201.6 o
grestore
gsave
24.406250 198.576563 translate
0.000000 rotate
0.000000 0.109375 m /zero glyphshow
5.089844 0.109375 m /period glyphshow
7.632812 0.109375 m /nine glyphshow
12.722656 0.109375 m /five glyphshow
grestore
[1 3] 0 setdash
gsave
223.2 230.4 45 28.8 clipbox
45 259.2 m
268.2 259.2 l
stroke
grestore
[] 0 setdash
gsave
/o {
gsave
newpath
translate
0 0 m
4 0 l
stroke
grestore
} bind def
45 259.2 o
grestore
gsave
/o {
gsave
newpath
translate
0 0 m
-4 0 l
stroke
grestore
} bind def
268.2 259.2 o
grestore
gsave
24.578125 256.176562 translate
0.000000 rotate
0.000000 0.109375 m /one glyphshow
5.089844 0.109375 m /period glyphshow
7.632812 0.109375 m /zero glyphshow
12.722656 0.109375 m /zero glyphshow
grestore
gsave
19.234375 112.156250 translate
90.000000 rotate
0.000000 1.671875 m /percent glyphshow
7.601562 1.671875 m /space glyphshow
10.144531 1.671875 m /m glyphshow
17.937500 1.671875 m /a glyphshow
22.839844 1.671875 m /x glyphshow
27.574219 1.671875 m /hyphen glyphshow
30.460938 1.671875 m /m glyphshow
38.253906 1.671875 m /e glyphshow
43.175781 1.671875 m /m glyphshow
50.968750 1.671875 m /o glyphshow
55.863281 1.671875 m /r glyphshow
59.152344 1.671875 m /y glyphshow
grestore
1.000 setlinewidth
2 setlinecap
gsave
45 259.2 m
268.2 259.2 l
stroke
grestore
gsave
268.2 28.8 m
268.2 259.2 l
stroke
grestore
gsave
45 28.8 m
268.2 28.8 l
stroke
grestore
gsave
45 28.8 m
45 259.2 l
stroke
grestore
0.010 setlinewidth
1.000 setgray
gsave
16.76 184.3 282.1 51.84 clipbox
290.528 51.84 m
282.15 60.2182 l
282.15 227.782 l
290.528 236.16 l
290.528 236.16 l
298.906 227.782 l
298.906 60.2182 l
290.528 51.84 l
290.528 51.84 l
gsave
fill
grestore
stroke
grestore
/p15_0 {
newpath
translate
290.528 51.84 m
290.528 51.84 l
298.906 60.2182 l
282.15 60.2182 l
290.528 51.84 l
} bind def
/p15_1 {
newpath
translate
282.15 60.2182 m
298.906 60.2182 l
298.906 78.8364 l
282.15 78.8364 l
282.15 60.2182 l
} bind def
/p15_2 {
newpath
translate
282.15 78.8364 m
298.906 78.8364 l
298.906 97.4545 l
282.15 97.4545 l
282.15 78.8364 l
} bind def
/p15_3 {
newpath
translate
282.15 97.4545 m
298.906 97.4545 l
298.906 116.073 l
282.15 116.073 l
282.15 97.4545 l
} bind def
/p15_4 {
newpath
translate
282.15 116.073 m
298.906 116.073 l
298.906 134.691 l
282.15 134.691 l
282.15 116.073 l
} bind def
/p15_5 {
newpath
translate
282.15 134.691 m
298.906 134.691 l
298.906 153.309 l
282.15 153.309 l
282.15 134.691 l
} bind def
/p15_6 {
newpath
translate
282.15 153.309 m
298.906 153.309 l
298.906 171.927 l
282.15 171.927 l
282.15 153.309 l
} bind def
/p15_7 {
newpath
translate
282.15 171.927 m
298.906 171.927 l
298.906 190.545 l
282.15 190.545 l
282.15 171.927 l
} bind def
/p15_8 {
newpath
translate
282.15 190.545 m
298.906 190.545 l
298.906 209.164 l
282.15 209.164 l
282.15 190.545 l
} bind def
/p15_9 {
newpath
translate
282.15 209.164 m
298.906 209.164 l
298.906 227.782 l
282.15 227.782 l
282.15 209.164 l
} bind def
/p15_a {
newpath
translate
282.15 227.782 m
298.906 227.782 l
290.528 236.16 l
290.528 236.16 l
282.15 227.782 l
} bind def
1.000 setlinewidth
0 setlinecap
0.038 0.038 0.053 setrgbcolor
gsave
16.76 184.3 282.1 51.84 clipbox
0 0 p15_0
gsave
fill
grestore
stroke
grestore
0.117 0.117 0.162 setrgbcolor
gsave
16.76 184.3 282.1 51.84 clipbox
0 0 p15_1
gsave
fill
grestore
stroke
grestore
0.196 0.196 0.272 setrgbcolor
gsave
16.76 184.3 282.1 51.84 clipbox
0 0 p15_2
gsave
fill
grestore
stroke
grestore
0.275 0.275 0.382 setrgbcolor
gsave
16.76 184.3 282.1 51.84 clipbox
0 0 p15_3
gsave
fill
grestore
stroke
grestore
0.360 0.376 0.485 setrgbcolor
gsave
16.76 184.3 282.1 51.84 clipbox
0 0 p15_4
gsave
fill
grestore
stroke
grestore
0.443 0.489 0.568 setrgbcolor
gsave
16.76 184.3 282.1 51.84 clipbox
0 0 p15_5
gsave
fill
grestore
stroke
grestore
0.522 0.597 0.647 setrgbcolor
gsave
16.76 184.3 282.1 51.84 clipbox
0 0 p15_6
gsave
fill
grestore
stroke
grestore
0.600 0.706 0.725 setrgbcolor
gsave
16.76 184.3 282.1 51.84 clipbox
0 0 p15_7
gsave
fill
grestore
stroke
grestore
0.694 0.804 0.804 setrgbcolor
gsave
16.76 184.3 282.1 51.84 clipbox
0 0 p15_8
gsave
fill
grestore
stroke
grestore
0.818 0.883 0.883 setrgbcolor
gsave
16.76 184.3 282.1 51.84 clipbox
0 0 p15_9
gsave
fill
grestore
stroke
grestore
0.941 0.962 0.962 setrgbcolor
gsave
16.76 184.3 282.1 51.84 clipbox
0 0 p15_a
gsave
fill
grestore
stroke
grestore
/p16_0 {
newpath
translate
282.15 60.2182 m
298.906 60.2182 l
} bind def
/p16_1 {
newpath
translate
282.15 78.8364 m
298.906 78.8364 l
} bind def
/p16_2 {
newpath
translate
282.15 97.4545 m
298.906 97.4545 l
} bind def
/p16_3 {
newpath
translate
282.15 116.073 m
298.906 116.073 l
} bind def
/p16_4 {
newpath
translate
282.15 134.691 m
298.906 134.691 l
} bind def
/p16_5 {
newpath
translate
282.15 153.309 m
298.906 153.309 l
} bind def
/p16_6 {
newpath
translate
282.15 171.927 m
298.906 171.927 l
} bind def
/p16_7 {
newpath
translate
282.15 190.545 m
298.906 190.545 l
} bind def
/p16_8 {
newpath
translate
282.15 209.164 m
298.906 209.164 l
} bind def
/p16_9 {
newpath
translate
282.15 227.782 m
298.906 227.782 l
} bind def
2.000 setlinewidth
0.000 0.000 0.892 setrgbcolor
gsave
16.76 184.3 282.1 51.84 clipbox
0 0 p16_0
stroke
grestore
0.000 0.206 1.000 setrgbcolor
gsave
16.76 184.3 282.1 51.84 clipbox
0 0 p16_1
stroke
grestore
0.000 0.567 1.000 setrgbcolor
gsave
16.76 184.3 282.1 51.84 clipbox
0 0 p16_2
stroke
grestore
0.022 0.927 0.946 setrgbcolor
gsave
16.76 184.3 282.1 51.84 clipbox
0 0 p16_3
stroke
grestore
0.364 1.000 0.604 setrgbcolor
gsave
16.76 184.3 282.1 51.84 clipbox
0 0 p16_4
stroke
grestore
0.655 1.000 0.313 setrgbcolor
gsave
16.76 184.3 282.1 51.84 clipbox
0 0 p16_5
stroke
grestore
0.946 0.988 0.022 setrgbcolor
gsave
16.76 184.3 282.1 51.84 clipbox
0 0 p16_6
stroke
grestore
1.000 0.654 0.000 setrgbcolor
gsave
16.76 184.3 282.1 51.84 clipbox
0 0 p16_7
stroke
grestore
1.000 0.320 0.000 setrgbcolor
gsave
16.76 184.3 282.1 51.84 clipbox
0 0 p16_8
stroke
grestore
0.892 0.000 0.000 setrgbcolor
gsave
16.76 184.3 282.1 51.84 clipbox
0 0 p16_9
stroke
grestore
1.000 setlinewidth
2 setlinecap
0.000 setgray
gsave
290.528 51.84 m
282.15 60.2182 l
282.15 227.782 l
290.528 236.16 l
290.528 236.16 l
298.906 227.782 l
298.906 60.2182 l
290.528 51.84 l
290.528 51.84 l
stroke
grestore
0.500 setlinewidth
0 setlinecap
gsave
/o {
gsave
newpath
translate
0 0 m
-4 0 l
stroke
grestore
} bind def
298.906 60.2182 o
grestore
gsave
302.906364 57.194744 translate
0.000000 rotate
0.000000 0.109375 m /hyphen glyphshow
2.886719 0.109375 m /three glyphshow
7.976562 0.109375 m /five glyphshow
13.066406 0.109375 m /zero glyphshow
18.156250 0.109375 m /zero glyphshow
23.246094 0.109375 m /zero glyphshow
grestore
gsave
/o {
gsave
newpath
translate
0 0 m
-4 0 l
stroke
grestore
} bind def
298.906 78.8364 o
grestore
gsave
302.906364 75.812926 translate
0.000000 rotate
0.000000 0.109375 m /hyphen glyphshow
2.886719 0.109375 m /two glyphshow
7.976562 0.109375 m /nine glyphshow
13.066406 0.109375 m /zero glyphshow
18.156250 0.109375 m /zero glyphshow
23.246094 0.109375 m /zero glyphshow
grestore
gsave
/o {
gsave
newpath
translate
0 0 m
-4 0 l
stroke
grestore
} bind def
298.906 97.4545 o
grestore
gsave
302.906364 94.431108 translate
0.000000 rotate
0.000000 0.109375 m /hyphen glyphshow
2.886719 0.109375 m /two glyphshow
7.976562 0.109375 m /three glyphshow
13.066406 0.109375 m /zero glyphshow
18.156250 0.109375 m /zero glyphshow
23.246094 0.109375 m /zero glyphshow
grestore
gsave
/o {
gsave
newpath
translate
0 0 m
-4 0 l
stroke
grestore
} bind def
298.906 116.073 o
grestore
gsave
302.906364 113.049290 translate
0.000000 rotate
0.000000 0.109375 m /hyphen glyphshow
2.886719 0.109375 m /one glyphshow
7.976562 0.109375 m /seven glyphshow
13.066406 0.109375 m /zero glyphshow
18.156250 0.109375 m /zero glyphshow
23.246094 0.109375 m /zero glyphshow
grestore
gsave
/o {
gsave
newpath
translate
0 0 m
-4 0 l
stroke
grestore
} bind def
298.906 134.691 o
grestore
gsave
302.906364 131.667472 translate
0.000000 rotate
0.000000 0.109375 m /hyphen glyphshow
2.886719 0.109375 m /one glyphshow
7.976562 0.109375 m /zero glyphshow
13.066406 0.109375 m /zero glyphshow
18.156250 0.109375 m /zero glyphshow
23.246094 0.109375 m /zero glyphshow
grestore
gsave
/o {
gsave
newpath
translate
0 0 m
-4 0 l
stroke
grestore
} bind def
298.906 153.309 o
grestore
gsave
302.906364 150.285653 translate
0.000000 rotate
0.000000 0.109375 m /hyphen glyphshow
2.886719 0.109375 m /four glyphshow
7.976562 0.109375 m /zero glyphshow
13.066406 0.109375 m /zero glyphshow
18.156250 0.109375 m /zero glyphshow
grestore
gsave
/o {
gsave
newpath
translate
0 0 m
-4 0 l
stroke
grestore
} bind def
298.906 171.927 o
grestore
gsave
302.906364 168.903835 translate
0.000000 rotate
0.000000 0.109375 m /two glyphshow
5.089844 0.109375 m /zero glyphshow
10.179688 0.109375 m /zero glyphshow
15.269531 0.109375 m /zero glyphshow
grestore
gsave
/o {
gsave
newpath
translate
0 0 m
-4 0 l
stroke
grestore
} bind def
298.906 190.545 o
grestore
gsave
302.906364 187.522017 translate
0.000000 rotate
0.000000 0.109375 m /eight glyphshow
5.089844 0.109375 m /zero glyphshow
10.179688 0.109375 m /zero glyphshow
15.269531 0.109375 m /zero glyphshow
grestore
gsave
/o {
gsave
newpath
translate
0 0 m
-4 0 l
stroke
grestore
} bind def
298.906 209.164 o
grestore
gsave
302.906364 206.140199 translate
0.000000 rotate
0.000000 0.109375 m /one glyphshow
5.089844 0.109375 m /four glyphshow
10.179688 0.109375 m /zero glyphshow
15.269531 0.109375 m /zero glyphshow
20.359375 0.109375 m /zero glyphshow
grestore
gsave
/o {
gsave
newpath
translate
0 0 m
-4 0 l
stroke
grestore
} bind def
298.906 227.782 o
grestore
gsave
302.906364 224.758381 translate
0.000000 rotate
0.000000 0.109375 m /two glyphshow
5.089844 0.109375 m /zero glyphshow
10.179688 0.109375 m /zero glyphshow
15.269531 0.109375 m /zero glyphshow
20.359375 0.109375 m /zero glyphshow
grestore
gsave
343.093864 124.585938 translate
90.000000 rotate
0.000000 1.671875 m /u glyphshow
5.070312 1.671875 m /t glyphshow
8.207031 1.671875 m /i glyphshow
10.429688 1.671875 m /l glyphshow
12.652344 1.671875 m /i glyphshow
14.875000 1.671875 m /t glyphshow
18.011719 1.671875 m /y glyphshow
22.621094 1.671875 m /hyphen glyphshow
25.507812 1.671875 m /a glyphshow
30.410156 1.671875 m /v glyphshow
35.144531 1.671875 m /g glyphshow
grestore

end
showpage
