%!PS-Adobe-3.0 EPSF-3.0
%%Title: ../../moc-output/sim-dshad4/memcached/random-2012-04-05-19:31:38/plots/sim-poa-avg.eps
%%Creator: matplotlib version 1.0.1, http://matplotlib.sourceforge.net/
%%CreationDate: Mon Apr 16 18:33:23 2012
%%Orientation: portrait
%%BoundingBox: 126 252 486 540
%%EndComments
%%BeginProlog
/mpldict 8 dict def
mpldict begin
/m { moveto } bind def
/l { lineto } bind def
/r { rlineto } bind def
/c { curveto } bind def
/cl { closepath } bind def
/box {
m
1 index 0 r
0 exch r
neg 0 r
cl
} bind def
/clipbox {
box
clip
newpath
} bind def
%!PS-Adobe-3.0 Resource-Font
%%Title: DejaVu Sans
%%Copyright: Copyright (c) 2003 by Bitstream, Inc. All Rights Reserved. Copyright (c) 2006 by Tavmjong Bah. All Rights Reserved. DejaVu changes are in public domain 
%%Creator: Converted from TrueType to type 3 by PPR
25 dict begin
/_d{bind def}bind def
/_m{moveto}_d
/_l{lineto}_d
/_cl{closepath eofill}_d
/_c{curveto}_d
/_sc{7 -1 roll{setcachedevice}{pop pop pop pop pop pop}ifelse}_d
/_e{exec}_d
/FontName /DejaVuSans def
/PaintType 0 def
/FontMatrix[.001 0 0 .001 0 0]def
/FontBBox[-1020 -414 1681 1167]def
/FontType 3 def
/Encoding [ /space /percent /hyphen /period /zero /one /two /three /four /five /six /seven /eight /nine /a /e /g /h /l /m /o /p /r /v /x /y ] def
/FontInfo 10 dict dup begin
/FamilyName (DejaVu Sans) def
/FullName (DejaVu Sans) def
/Notice (Copyright (c) 2003 by Bitstream, Inc. All Rights Reserved. Copyright (c) 2006 by Tavmjong Bah. All Rights Reserved. DejaVu changes are in public domain ) def
/Weight (Book) def
/Version (Version 2.33) def
/ItalicAngle 0.0 def
/isFixedPitch false def
/UnderlinePosition -130 def
/UnderlineThickness 90 def
end readonly def
/CharStrings 26 dict dup begin
/space{318 0 0 0 0 0 _sc
}_d
/percent{{950 0 55 -13 895 742 _sc
727 321 _m
699 321 676 309 660 285 _c
644 261 636 227 636 184 _c
636 142 644 108 660 84 _c
676 60 699 48 727 48 _c
755 48 777 60 793 84 _c
809 108 817 142 817 184 _c
817 226 809 260 793 284 _c
777 308 755 321 727 321 _c
727 383 _m
778 383 819 365 849 329 _c
879 293 895 244 895 184 _c
895 123 879 75 849 40 _c
819 4 778 -13 727 -13 _c
675 -13 633 4 603 40 _c
573 75 558 123 558 184 _c
558 245 573 293 603 329 _c
633 365 675 383 727 383 _c
664 742 _m
742 742 _l
286 -13 _l
208 -13 _l
664 742 _l
223 742 _m
274 742 315 724 346 688 _c
376 652 392 604 392 544 _c
}_e{392 482 376 434 346 398 _c
316 362 275 345 223 345 _c
171 345 130 362 100 398 _c
70 434 55 482 55 544 _c
55 604 70 652 100 688 _c
130 724 171 742 223 742 _c
223 680 _m
195 680 173 667 157 643 _c
141 619 133 586 133 544 _c
133 500 141 467 157 443 _c
173 419 195 407 223 407 _c
251 407 274 419 290 443 _c
306 467 314 500 314 544 _c
314 586 305 619 289 643 _c
273 667 251 680 223 680 _c
_cl}_e}_d
/hyphen{361 0 49 234 312 314 _sc
49 314 _m
312 314 _l
312 234 _l
49 234 _l
49 314 _l
_cl}_d
/period{318 0 107 0 210 124 _sc
107 124 _m
210 124 _l
210 0 _l
107 0 _l
107 124 _l
_cl}_d
/zero{636 0 66 -13 570 742 _sc
318 664 _m
267 664 229 639 203 589 _c
177 539 165 464 165 364 _c
165 264 177 189 203 139 _c
229 89 267 64 318 64 _c
369 64 407 89 433 139 _c
458 189 471 264 471 364 _c
471 464 458 539 433 589 _c
407 639 369 664 318 664 _c
318 742 _m
399 742 461 709 505 645 _c
548 580 570 486 570 364 _c
570 241 548 147 505 83 _c
461 19 399 -13 318 -13 _c
236 -13 173 19 130 83 _c
87 147 66 241 66 364 _c
66 486 87 580 130 645 _c
173 709 236 742 318 742 _c
_cl}_d
/one{636 0 110 0 544 729 _sc
124 83 _m
285 83 _l
285 639 _l
110 604 _l
110 694 _l
284 729 _l
383 729 _l
383 83 _l
544 83 _l
544 0 _l
124 0 _l
124 83 _l
_cl}_d
/two{{636 0 73 0 536 742 _sc
192 83 _m
536 83 _l
536 0 _l
73 0 _l
73 83 _l
110 121 161 173 226 239 _c
290 304 331 346 348 365 _c
380 400 402 430 414 455 _c
426 479 433 504 433 528 _c
433 566 419 598 392 622 _c
365 646 330 659 286 659 _c
255 659 222 653 188 643 _c
154 632 117 616 78 594 _c
78 694 _l
118 710 155 722 189 730 _c
223 738 255 742 284 742 _c
359 742 419 723 464 685 _c
509 647 532 597 532 534 _c
532 504 526 475 515 449 _c
504 422 484 390 454 354 _c
446 344 420 317 376 272 _c
332 227 271 164 192 83 _c
_cl}_e}_d
/three{{636 0 76 -13 556 742 _sc
406 393 _m
453 383 490 362 516 330 _c
542 298 556 258 556 212 _c
556 140 531 84 482 45 _c
432 6 362 -13 271 -13 _c
240 -13 208 -10 176 -4 _c
144 1 110 10 76 22 _c
76 117 _l
103 101 133 89 166 81 _c
198 73 232 69 268 69 _c
330 69 377 81 409 105 _c
441 129 458 165 458 212 _c
458 254 443 288 413 312 _c
383 336 341 349 287 349 _c
202 349 _l
202 430 _l
291 430 _l
339 430 376 439 402 459 _c
428 478 441 506 441 543 _c
441 580 427 609 401 629 _c
374 649 336 659 287 659 _c
260 659 231 656 200 650 _c
169 644 135 635 98 623 _c
98 711 _l
135 721 170 729 203 734 _c
235 739 266 742 296 742 _c
}_e{370 742 429 725 473 691 _c
517 657 539 611 539 553 _c
539 513 527 479 504 451 _c
481 423 448 403 406 393 _c
_cl}_e}_d
/four{636 0 49 0 580 729 _sc
378 643 _m
129 254 _l
378 254 _l
378 643 _l
352 729 _m
476 729 _l
476 254 _l
580 254 _l
580 172 _l
476 172 _l
476 0 _l
378 0 _l
378 172 _l
49 172 _l
49 267 _l
352 729 _l
_cl}_d
/five{{636 0 77 -13 549 729 _sc
108 729 _m
495 729 _l
495 646 _l
198 646 _l
198 467 _l
212 472 227 476 241 478 _c
255 480 270 482 284 482 _c
365 482 429 459 477 415 _c
525 370 549 310 549 234 _c
549 155 524 94 475 51 _c
426 8 357 -13 269 -13 _c
238 -13 207 -10 175 -6 _c
143 -1 111 6 77 17 _c
77 116 _l
106 100 136 88 168 80 _c
199 72 232 69 267 69 _c
323 69 368 83 401 113 _c
433 143 450 183 450 234 _c
450 284 433 324 401 354 _c
368 384 323 399 267 399 _c
241 399 214 396 188 390 _c
162 384 135 375 108 363 _c
108 729 _l
_cl}_e}_d
/six{{636 0 70 -13 573 742 _sc
330 404 _m
286 404 251 388 225 358 _c
199 328 186 286 186 234 _c
186 181 199 139 225 109 _c
251 79 286 64 330 64 _c
374 64 409 79 435 109 _c
461 139 474 181 474 234 _c
474 286 461 328 435 358 _c
409 388 374 404 330 404 _c
526 713 _m
526 623 _l
501 635 476 644 451 650 _c
425 656 400 659 376 659 _c
310 659 260 637 226 593 _c
192 549 172 482 168 394 _c
187 422 211 444 240 459 _c
269 474 301 482 336 482 _c
409 482 467 459 509 415 _c
551 371 573 310 573 234 _c
573 159 550 99 506 54 _c
462 9 403 -13 330 -13 _c
246 -13 181 19 137 83 _c
92 147 70 241 70 364 _c
70 479 97 571 152 639 _c
206 707 280 742 372 742 _c
}_e{396 742 421 739 447 735 _c
472 730 498 723 526 713 _c
_cl}_e}_d
/seven{636 0 82 0 551 729 _sc
82 729 _m
551 729 _l
551 687 _l
286 0 _l
183 0 _l
432 646 _l
82 646 _l
82 729 _l
_cl}_d
/eight{{636 0 68 -13 568 742 _sc
318 346 _m
271 346 234 333 207 308 _c
180 283 167 249 167 205 _c
167 161 180 126 207 101 _c
234 76 271 64 318 64 _c
364 64 401 76 428 102 _c
455 127 469 161 469 205 _c
469 249 455 283 429 308 _c
402 333 365 346 318 346 _c
219 388 _m
177 398 144 418 120 447 _c
96 476 85 511 85 553 _c
85 611 105 657 147 691 _c
188 725 245 742 318 742 _c
390 742 447 725 489 691 _c
530 657 551 611 551 553 _c
551 511 539 476 515 447 _c
491 418 459 398 417 388 _c
464 377 501 355 528 323 _c
554 291 568 251 568 205 _c
568 134 546 80 503 43 _c
459 5 398 -13 318 -13 _c
237 -13 175 5 132 43 _c
89 80 68 134 68 205 _c
68 251 81 291 108 323 _c
134 355 171 377 219 388 _c
}_e{183 544 _m
183 506 194 476 218 455 _c
242 434 275 424 318 424 _c
360 424 393 434 417 455 _c
441 476 453 506 453 544 _c
453 582 441 611 417 632 _c
393 653 360 664 318 664 _c
275 664 242 653 218 632 _c
194 611 183 582 183 544 _c
_cl}_e}_d
/nine{{636 0 63 -13 566 742 _sc
110 15 _m
110 105 _l
134 93 159 84 185 78 _c
210 72 235 69 260 69 _c
324 69 374 90 408 134 _c
442 178 462 244 468 334 _c
448 306 424 284 396 269 _c
367 254 335 247 300 247 _c
226 247 168 269 126 313 _c
84 357 63 417 63 494 _c
63 568 85 628 129 674 _c
173 719 232 742 306 742 _c
390 742 455 709 499 645 _c
543 580 566 486 566 364 _c
566 248 538 157 484 89 _c
429 21 356 -13 264 -13 _c
239 -13 214 -10 189 -6 _c
163 -2 137 5 110 15 _c
306 324 _m
350 324 385 339 411 369 _c
437 399 450 441 450 494 _c
450 546 437 588 411 618 _c
385 648 350 664 306 664 _c
262 664 227 648 201 618 _c
175 588 162 546 162 494 _c
}_e{162 441 175 399 201 369 _c
227 339 262 324 306 324 _c
_cl}_e}_d
/a{{613 0 60 -13 522 560 _sc
343 275 _m
270 275 220 266 192 250 _c
164 233 150 205 150 165 _c
150 133 160 107 181 89 _c
202 70 231 61 267 61 _c
317 61 357 78 387 114 _c
417 149 432 196 432 255 _c
432 275 _l
343 275 _l
522 312 _m
522 0 _l
432 0 _l
432 83 _l
411 49 385 25 355 10 _c
325 -5 287 -13 243 -13 _c
187 -13 142 2 109 33 _c
76 64 60 106 60 159 _c
60 220 80 266 122 298 _c
163 329 224 345 306 345 _c
432 345 _l
432 354 _l
432 395 418 427 391 450 _c
364 472 326 484 277 484 _c
245 484 215 480 185 472 _c
155 464 127 453 100 439 _c
100 522 _l
}_e{132 534 164 544 195 550 _c
226 556 256 560 286 560 _c
365 560 424 539 463 498 _c
502 457 522 395 522 312 _c
_cl}_e}_d
/e{{615 0 55 -13 562 560 _sc
562 296 _m
562 252 _l
149 252 _l
153 190 171 142 205 110 _c
238 78 284 62 344 62 _c
378 62 412 66 444 74 _c
476 82 509 95 541 113 _c
541 28 _l
509 14 476 3 442 -3 _c
408 -9 373 -13 339 -13 _c
251 -13 182 12 131 62 _c
80 112 55 181 55 268 _c
55 357 79 428 127 481 _c
175 533 241 560 323 560 _c
397 560 455 536 498 489 _c
540 441 562 377 562 296 _c
472 322 _m
471 371 457 410 431 440 _c
404 469 368 484 324 484 _c
274 484 234 469 204 441 _c
174 413 156 373 152 322 _c
472 322 _l
_cl}_e}_d
/g{{635 0 55 -207 544 560 _sc
454 280 _m
454 344 440 395 414 431 _c
387 467 349 485 301 485 _c
253 485 215 467 188 431 _c
161 395 148 344 148 280 _c
148 215 161 165 188 129 _c
215 93 253 75 301 75 _c
349 75 387 93 414 129 _c
440 165 454 215 454 280 _c
544 68 _m
544 -24 523 -93 482 -139 _c
440 -184 377 -207 292 -207 _c
260 -207 231 -204 203 -200 _c
175 -195 147 -188 121 -178 _c
121 -91 _l
147 -105 173 -115 199 -122 _c
225 -129 251 -133 278 -133 _c
336 -133 380 -117 410 -87 _c
439 -56 454 -10 454 52 _c
454 96 _l
435 64 411 40 382 24 _c
353 8 319 0 279 0 _c
211 0 157 25 116 76 _c
75 127 55 195 55 280 _c
55 364 75 432 116 483 _c
157 534 211 560 279 560 _c
}_e{319 560 353 552 382 536 _c
411 520 435 496 454 464 _c
454 547 _l
544 547 _l
544 68 _l
_cl}_e}_d
/h{634 0 91 0 549 760 _sc
549 330 _m
549 0 _l
459 0 _l
459 327 _l
459 379 448 417 428 443 _c
408 469 378 482 338 482 _c
289 482 251 466 223 435 _c
195 404 181 362 181 309 _c
181 0 _l
91 0 _l
91 760 _l
181 760 _l
181 462 _l
202 494 227 519 257 535 _c
286 551 320 560 358 560 _c
420 560 468 540 500 501 _c
532 462 549 405 549 330 _c
_cl}_d
/l{278 0 94 0 184 760 _sc
94 760 _m
184 760 _l
184 0 _l
94 0 _l
94 760 _l
_cl}_d
/m{{974 0 91 0 889 560 _sc
520 442 _m
542 482 569 511 600 531 _c
631 550 668 560 711 560 _c
767 560 811 540 842 500 _c
873 460 889 403 889 330 _c
889 0 _l
799 0 _l
799 327 _l
799 379 789 418 771 444 _c
752 469 724 482 686 482 _c
639 482 602 466 575 435 _c
548 404 535 362 535 309 _c
535 0 _l
445 0 _l
445 327 _l
445 379 435 418 417 444 _c
398 469 369 482 331 482 _c
285 482 248 466 221 435 _c
194 404 181 362 181 309 _c
181 0 _l
91 0 _l
91 547 _l
181 547 _l
181 462 _l
201 495 226 520 255 536 _c
283 552 317 560 357 560 _c
397 560 430 550 458 530 _c
486 510 506 480 520 442 _c
}_e{_cl}_e}_d
/o{612 0 55 -13 557 560 _sc
306 484 _m
258 484 220 465 192 427 _c
164 389 150 338 150 273 _c
150 207 163 156 191 118 _c
219 80 257 62 306 62 _c
354 62 392 80 420 118 _c
448 156 462 207 462 273 _c
462 337 448 389 420 427 _c
392 465 354 484 306 484 _c
306 560 _m
384 560 445 534 490 484 _c
534 433 557 363 557 273 _c
557 183 534 113 490 63 _c
445 12 384 -13 306 -13 _c
227 -13 165 12 121 63 _c
77 113 55 183 55 273 _c
55 363 77 433 121 484 _c
165 534 227 560 306 560 _c
_cl}_d
/p{{635 0 91 -207 580 560 _sc
181 82 _m
181 -207 _l
91 -207 _l
91 547 _l
181 547 _l
181 464 _l
199 496 223 520 252 536 _c
281 552 316 560 356 560 _c
422 560 476 533 518 481 _c
559 428 580 359 580 273 _c
580 187 559 117 518 65 _c
476 13 422 -13 356 -13 _c
316 -13 281 -5 252 10 _c
223 25 199 49 181 82 _c
487 273 _m
487 339 473 390 446 428 _c
418 466 381 485 334 485 _c
286 485 249 466 222 428 _c
194 390 181 339 181 273 _c
181 207 194 155 222 117 _c
249 79 286 61 334 61 _c
381 61 418 79 446 117 _c
473 155 487 207 487 273 _c
_cl}_e}_d
/r{411 0 91 0 411 560 _sc
411 463 _m
401 469 390 473 378 476 _c
366 478 353 480 339 480 _c
288 480 249 463 222 430 _c
194 397 181 350 181 288 _c
181 0 _l
91 0 _l
91 547 _l
181 547 _l
181 462 _l
199 495 224 520 254 536 _c
284 552 321 560 365 560 _c
371 560 378 559 386 559 _c
393 558 401 557 411 555 _c
411 463 _l
_cl}_d
/v{592 0 30 0 562 547 _sc
30 547 _m
125 547 _l
296 88 _l
467 547 _l
562 547 _l
357 0 _l
235 0 _l
30 547 _l
_cl}_d
/x{592 0 29 0 559 547 _sc
549 547 _m
351 281 _l
559 0 _l
453 0 _l
294 215 _l
135 0 _l
29 0 _l
241 286 _l
47 547 _l
153 547 _l
298 352 _l
443 547 _l
549 547 _l
_cl}_d
/y{592 0 30 -207 562 547 _sc
322 -50 _m
296 -114 271 -157 247 -177 _c
223 -197 191 -207 151 -207 _c
79 -207 _l
79 -132 _l
132 -132 _l
156 -132 175 -126 189 -114 _c
203 -102 218 -75 235 -31 _c
251 9 _l
30 547 _l
125 547 _l
296 119 _l
467 547 _l
562 547 _l
322 -50 _l
_cl}_d
end readonly def

/BuildGlyph
 {exch begin
 CharStrings exch
 2 copy known not{pop /.notdef}if
 true 3 1 roll get exec
 end}_d

/BuildChar {
 1 index /Encoding get exch get
 1 index /BuildGlyph get exec
}_d

FontName currentdict end definefont pop
end
%%EndProlog
mpldict begin
126 252 translate
360 288 0 0 clipbox
1.000 setlinewidth
1 setlinejoin
2 setlinecap
[] 0 setdash
1.000 setgray
gsave
0 0 m
360 0 l
360 288 l
0 288 l
cl
gsave
fill
grestore
stroke
grestore
gsave
45 28.8 m
268.2 28.8 l
268.2 259.2 l
45 259.2 l
cl
fill
grestore
/p0_0 {
newpath
translate
45 259.2 m
45 259.2 l
45 259.2 l
45 259.2 l
} bind def
gsave
223.2 230.4 45 28.8 clipbox
0 0 p0_0
0.027 0.027 0.038 setrgbcolor
fill
grestore
/p1_0 {
newpath
translate
45 201.6 m
45 187.563 l
57.4 175.935 l
69.8 174.949 l
82.2 173.686 l
94.6 184.324 l
107 174.854 l
119.4 173.542 l
131.8 173.206 l
144.2 173.291 l
156.6 172.899 l
169 172.595 l
181.4 172.295 l
193.8 171.933 l
206.2 170.955 l
218.6 168.482 l
231 159.742 l
243.4 152.36 l
255.8 147.116 l
268.2 147.221 l
268.2 201.6 l
268.2 259.2 l
255.8 259.2 l
243.4 259.2 l
231 259.2 l
218.6 259.2 l
206.2 259.2 l
193.8 259.2 l
181.4 259.2 l
169 259.2 l
156.6 259.2 l
144.2 259.2 l
131.8 259.2 l
119.4 259.2 l
107 259.2 l
94.6 259.2 l
82.2 259.2 l
69.8 259.2 l
57.4 259.2 l
45 259.2 l
45 259.2 l
45 201.6 l
} bind def
gsave
223.2 230.4 45 28.8 clipbox
0 0 p1_0
0.086 0.086 0.119 setrgbcolor
fill
grestore
/p2_0 {
newpath
translate
156.6 143.876 m
169 143.707 l
181.4 143.556 l
193.8 143.298 l
206.2 142.749 l
218.6 140.246 l
231 138.146 l
243.4 136.736 l
255.8 135.824 l
268.2 135.838 l
268.2 144 l
268.2 147.221 l
255.8 147.116 l
243.4 152.36 l
231 159.742 l
218.6 168.482 l
206.2 170.955 l
193.8 171.933 l
181.4 172.295 l
169 172.595 l
156.6 172.899 l
144.2 173.291 l
131.8 173.206 l
119.4 173.542 l
107 174.854 l
94.6 184.324 l
82.2 173.686 l
69.8 174.949 l
57.4 175.935 l
45 187.563 l
45 173.376 l
57.4 149.453 l
69.8 147.603 l
82.2 145.406 l
94.6 145.787 l
107 145.627 l
119.4 144.655 l
131.8 144.422 l
144.2 144.326 l
149.904 144 l
156.6 143.876 l
} bind def
gsave
223.2 230.4 45 28.8 clipbox
0 0 p2_0
0.144 0.144 0.201 setrgbcolor
fill
grestore
/p3_0 {
newpath
translate
57.4 135.814 m
69.8 135.267 l
82.2 134.631 l
94.6 134.613 l
107 134.911 l
119.4 134.771 l
131.8 134.745 l
144.2 134.71 l
156.6 134.484 l
169 134.403 l
181.4 134.264 l
193.8 133.961 l
206.2 133.529 l
218.6 131.232 l
231 129.324 l
243.4 128.032 l
255.8 127.17 l
268.2 127.184 l
268.2 135.838 l
255.8 135.824 l
243.4 136.736 l
231 138.146 l
218.6 140.246 l
206.2 142.749 l
193.8 143.298 l
181.4 143.556 l
169 143.707 l
156.6 143.876 l
149.904 144 l
144.2 144.326 l
131.8 144.422 l
119.4 144.655 l
107 145.627 l
94.6 145.787 l
82.2 145.406 l
69.8 147.603 l
57.4 149.453 l
45 173.376 l
45 159.189 l
52.1195 144 l
57.4 135.814 l
} bind def
gsave
223.2 230.4 45 28.8 clipbox
0 0 p3_0
0.202 0.202 0.282 setrgbcolor
fill
grestore
/p4_0 {
newpath
translate
57.4 125.504 m
69.8 125.209 l
82.2 124.772 l
94.6 124.77 l
107 125.286 l
119.4 125.328 l
131.8 125.351 l
144.2 125.314 l
156.6 125.092 l
169 125.099 l
181.4 124.971 l
193.8 124.623 l
206.2 124.309 l
218.6 122.217 l
231 120.503 l
243.4 119.328 l
255.8 118.516 l
268.2 118.53 l
268.2 127.184 l
255.8 127.17 l
243.4 128.032 l
231 129.324 l
218.6 131.232 l
206.2 133.529 l
193.8 133.961 l
181.4 134.264 l
169 134.403 l
156.6 134.484 l
144.2 134.71 l
131.8 134.745 l
119.4 134.771 l
107 134.911 l
94.6 134.613 l
82.2 134.631 l
69.8 135.267 l
57.4 135.814 l
52.1195 144 l
45 159.189 l
45 145.003 l
45.4699 144 l
57.4 125.504 l
} bind def
gsave
223.2 230.4 45 28.8 clipbox
0 0 p4_0
0.261 0.261 0.363 setrgbcolor
fill
grestore
/p5_0 {
newpath
translate
45 144 m
45 129.15 l
57.4 115.195 l
69.8 115.151 l
82.2 114.914 l
94.6 114.926 l
107 115.661 l
119.4 115.885 l
131.8 115.958 l
144.2 115.919 l
156.6 115.701 l
169 115.795 l
181.4 115.679 l
193.8 115.286 l
206.2 115.088 l
218.6 113.203 l
231 111.682 l
243.4 110.624 l
255.8 109.861 l
268.2 109.876 l
268.2 118.53 l
255.8 118.516 l
243.4 119.328 l
231 120.503 l
218.6 122.217 l
206.2 124.309 l
193.8 124.623 l
181.4 124.971 l
169 125.099 l
156.6 125.092 l
144.2 125.314 l
131.8 125.351 l
119.4 125.328 l
107 125.286 l
94.6 124.77 l
82.2 124.772 l
69.8 125.209 l
57.4 125.504 l
45.4699 144 l
45 145.003 l
45 144 l
} bind def
gsave
223.2 230.4 45 28.8 clipbox
0 0 p5_0
0.319 0.319 0.444 setrgbcolor
fill
grestore
/p6_0 {
newpath
translate
45 129.15 m
45 113.171 l
57.4 104.886 l
69.8 105.092 l
82.2 105.055 l
94.6 105.083 l
107 106.037 l
119.4 106.441 l
131.8 106.565 l
144.2 106.523 l
156.6 106.309 l
169 106.491 l
181.4 106.387 l
193.8 105.949 l
206.2 105.868 l
218.6 104.189 l
231 102.861 l
243.4 101.921 l
255.8 101.207 l
268.2 101.222 l
268.2 109.876 l
255.8 109.861 l
243.4 110.624 l
231 111.682 l
218.6 113.203 l
206.2 115.088 l
193.8 115.286 l
181.4 115.679 l
169 115.795 l
156.6 115.701 l
144.2 115.919 l
131.8 115.958 l
119.4 115.885 l
107 115.661 l
94.6 114.926 l
82.2 114.914 l
69.8 115.151 l
57.4 115.195 l
45 129.15 l
} bind def
gsave
223.2 230.4 45 28.8 clipbox
0 0 p6_0
0.377 0.399 0.502 setrgbcolor
fill
grestore
/p7_0 {
newpath
translate
45 113.171 m
45 97.1913 l
57.4 94.5772 l
69.8 95.034 l
82.2 95.1958 l
94.6 95.2398 l
107 96.412 l
119.4 96.9983 l
131.8 97.1723 l
144.2 97.1273 l
156.6 96.9172 l
169 97.1875 l
181.4 97.0947 l
193.8 96.6119 l
206.2 96.6478 l
218.6 95.1744 l
231 94.0396 l
243.4 93.2169 l
255.8 92.5526 l
268.2 92.568 l
268.2 101.222 l
255.8 101.207 l
243.4 101.921 l
231 102.861 l
218.6 104.189 l
206.2 105.868 l
193.8 105.949 l
181.4 106.387 l
169 106.491 l
156.6 106.309 l
144.2 106.523 l
131.8 106.565 l
119.4 106.441 l
107 106.037 l
94.6 105.083 l
82.2 105.055 l
69.8 105.092 l
57.4 104.886 l
45 113.171 l
} bind def
gsave
223.2 230.4 45 28.8 clipbox
0 0 p7_0
0.439 0.484 0.564 setrgbcolor
fill
grestore
/p8_0 {
newpath
translate
45 86.4 m
45 82.9583 l
57.4 83.9686 l
69.8 84.6631 l
82.2 85.0618 l
94.6 85.1299 l
103.491 86.4 l
107 86.7873 l
119.4 87.5551 l
131.8 87.7792 l
144.2 87.7316 l
156.6 87.5255 l
169 87.8836 l
181.4 87.8025 l
193.8 87.2747 l
206.2 87.4275 l
216.21 86.4 l
218.6 86.0587 l
231 84.6277 l
243.4 83.5444 l
255.8 82.5911 l
268.2 82.6143 l
268.2 86.4 l
268.2 92.568 l
255.8 92.5526 l
243.4 93.2169 l
231 94.0396 l
218.6 95.1744 l
206.2 96.6478 l
193.8 96.6119 l
181.4 97.0947 l
169 97.1875 l
156.6 96.9172 l
144.2 97.1273 l
131.8 97.1723 l
119.4 96.9983 l
107 96.412 l
94.6 95.2398 l
82.2 95.1958 l
69.8 95.034 l
57.4 94.5772 l
45 97.1913 l
45 86.4 l
} bind def
gsave
223.2 230.4 45 28.8 clipbox
0 0 p8_0
0.498 0.564 0.623 setrgbcolor
fill
grestore
/p9_0 {
newpath
translate
45 82.9583 m
45 72.3576 l
57.4 72.2115 l
69.8 72.3965 l
82.2 72.651 l
94.6 72.6723 l
107 74.0583 l
119.4 74.9406 l
131.8 75.1743 l
144.2 75.0669 l
156.6 74.9453 l
169 75.227 l
181.4 75.1595 l
193.8 74.4711 l
206.2 74.6602 l
218.6 73.2325 l
231 71.3966 l
243.4 70.3718 l
255.8 69.4149 l
268.2 69.4359 l
268.2 82.6143 l
255.8 82.5911 l
243.4 83.5444 l
231 84.6277 l
218.6 86.0587 l
216.21 86.4 l
206.2 87.4275 l
193.8 87.2747 l
181.4 87.8025 l
169 87.8836 l
156.6 87.5255 l
144.2 87.7316 l
131.8 87.7792 l
119.4 87.5551 l
107 86.7873 l
103.491 86.4 l
94.6 85.1299 l
82.2 85.0618 l
69.8 84.6631 l
57.4 83.9686 l
45 82.9583 l
} bind def
gsave
223.2 230.4 45 28.8 clipbox
0 0 p9_0
0.556 0.645 0.681 setrgbcolor
fill
grestore
/pa_0 {
newpath
translate
45 72.3576 m
45 61.7569 l
57.4 60.4544 l
69.8 60.1299 l
82.2 60.2401 l
94.6 60.2147 l
107 61.1991 l
119.4 61.884 l
131.8 62.0168 l
144.2 61.8624 l
156.6 61.931 l
169 61.9342 l
181.4 61.9208 l
193.8 61.3091 l
206.2 61.448 l
218.6 60.4063 l
231 58.1655 l
243.4 57.1993 l
255.8 56.2388 l
268.2 56.2575 l
268.2 69.4359 l
255.8 69.4149 l
243.4 70.3718 l
231 71.3966 l
218.6 73.2325 l
206.2 74.6602 l
193.8 74.4711 l
181.4 75.1595 l
169 75.227 l
156.6 74.9453 l
144.2 75.0669 l
131.8 75.1743 l
119.4 74.9406 l
107 74.0583 l
94.6 72.6723 l
82.2 72.651 l
69.8 72.3965 l
57.4 72.2115 l
45 72.3576 l
} bind def
gsave
223.2 230.4 45 28.8 clipbox
0 0 pa_0
0.614 0.725 0.739 setrgbcolor
fill
grestore
/pb_0 {
newpath
translate
45 61.7569 m
45 51.1562 l
57.4 48.6973 l
69.8 47.8633 l
82.2 47.8293 l
94.6 47.757 l
107 48.3399 l
119.4 48.8275 l
131.8 48.8592 l
144.2 48.6579 l
156.6 48.9167 l
169 48.6415 l
181.4 48.6822 l
193.8 48.1472 l
206.2 48.2358 l
218.6 47.5801 l
231 44.9344 l
243.4 44.0267 l
255.8 43.0627 l
268.2 43.0791 l
268.2 56.2575 l
255.8 56.2388 l
243.4 57.1993 l
231 58.1655 l
218.6 60.4063 l
206.2 61.448 l
193.8 61.3091 l
181.4 61.9208 l
169 61.9342 l
156.6 61.931 l
144.2 61.8624 l
131.8 62.0168 l
119.4 61.884 l
107 61.1991 l
94.6 60.2147 l
82.2 60.2401 l
69.8 60.1299 l
57.4 60.4544 l
45 61.7569 l
} bind def
gsave
223.2 230.4 45 28.8 clipbox
0 0 pb_0
0.684 0.798 0.798 setrgbcolor
fill
grestore
/pc_0 {
newpath
translate
45 51.1562 m
45 40.5555 l
57.4 36.9402 l
69.8 35.5967 l
82.2 35.4184 l
94.6 35.2994 l
107 35.4808 l
119.4 35.7709 l
131.8 35.7016 l
144.2 35.4534 l
156.6 35.9024 l
169 35.3488 l
181.4 35.4435 l
193.8 34.9852 l
206.2 35.0236 l
218.6 34.7539 l
231 31.7033 l
243.4 30.8542 l
255.8 29.8866 l
268.2 29.9007 l
268.2 43.0791 l
255.8 43.0627 l
243.4 44.0267 l
231 44.9344 l
218.6 47.5801 l
206.2 48.2358 l
193.8 48.1472 l
181.4 48.6822 l
169 48.6415 l
156.6 48.9167 l
144.2 48.6579 l
131.8 48.8592 l
119.4 48.8275 l
107 48.3399 l
94.6 47.757 l
82.2 47.8293 l
69.8 47.8633 l
57.4 48.6973 l
45 51.1562 l
} bind def
gsave
223.2 230.4 45 28.8 clipbox
0 0 pc_0
0.775 0.856 0.856 setrgbcolor
fill
grestore
/pd_0 {
newpath
translate
48.2428 28.8 m
57.4 28.8 l
69.8 28.8 l
82.2 28.8 l
94.6 28.8 l
107 28.8 l
119.4 28.8 l
131.8 28.8 l
144.2 28.8 l
156.6 28.8 l
169 28.8 l
181.4 28.8 l
193.8 28.8 l
206.2 28.8 l
218.6 28.8 l
231 28.8 l
243.4 28.8 l
255.8 28.8 l
268.2 28.8 l
268.2 29.9007 l
255.8 29.8866 l
243.4 30.8542 l
231 31.7033 l
218.6 34.7539 l
206.2 35.0236 l
193.8 34.9852 l
181.4 35.4435 l
169 35.3488 l
156.6 35.9024 l
144.2 35.4534 l
131.8 35.7016 l
119.4 35.7709 l
107 35.4808 l
94.6 35.2994 l
82.2 35.4184 l
69.8 35.5967 l
57.4 36.9402 l
45 40.5555 l
45 29.9549 l
48.2428 28.8 l
} bind def
gsave
223.2 230.4 45 28.8 clipbox
0 0 pd_0
0.866 0.914 0.914 setrgbcolor
fill
grestore
/pe_0 {
newpath
translate
45 28.8 m
48.2428 28.8 l
45 29.9549 l
45 28.8 l
} bind def
gsave
223.2 230.4 45 28.8 clipbox
0 0 pe_0
0.957 0.973 0.973 setrgbcolor
fill
grestore
/pf_0 {
newpath
translate
45 259.2 m
45 259.2 l
} bind def
2.000 setlinewidth
0 setlinecap
0.000 0.000 0.803 setrgbcolor
gsave
223.2 230.4 45 28.8 clipbox
0 0 pf_0
stroke
grestore
/p10_0 {
newpath
translate
45 187.563 m
57.4 175.935 l
69.8 174.949 l
82.2 173.686 l
94.6 184.324 l
107 174.854 l
119.4 173.542 l
131.8 173.206 l
144.2 173.291 l
156.6 172.899 l
169 172.595 l
181.4 172.295 l
193.8 171.933 l
206.2 170.955 l
218.6 168.482 l
231 159.742 l
243.4 152.36 l
255.8 147.116 l
268.2 147.221 l
} bind def
0.000 0.033 1.000 setrgbcolor
gsave
223.2 230.4 45 28.8 clipbox
0 0 p10_0
stroke
grestore
/p11_0 {
newpath
translate
268.2 135.838 m
255.8 135.824 l
243.4 136.736 l
231 138.146 l
218.6 140.246 l
206.2 142.749 l
193.8 143.298 l
181.4 143.556 l
169 143.707 l
156.6 143.876 l
149.904 144 l
144.2 144.326 l
131.8 144.422 l
119.4 144.655 l
107 145.627 l
94.6 145.787 l
82.2 145.406 l
69.8 147.603 l
57.4 149.453 l
45 173.376 l
} bind def
0.000 0.300 1.000 setrgbcolor
gsave
223.2 230.4 45 28.8 clipbox
0 0 p11_0
stroke
grestore
/p12_0 {
newpath
translate
268.2 127.184 m
255.8 127.17 l
243.4 128.032 l
231 129.324 l
218.6 131.232 l
206.2 133.529 l
193.8 133.961 l
181.4 134.264 l
169 134.403 l
156.6 134.484 l
144.2 134.71 l
131.8 134.745 l
119.4 134.771 l
107 134.911 l
94.6 134.613 l
82.2 134.631 l
69.8 135.267 l
57.4 135.814 l
52.1195 144 l
45 159.189 l
} bind def
0.000 0.567 1.000 setrgbcolor
gsave
223.2 230.4 45 28.8 clipbox
0 0 p12_0
stroke
grestore
/p13_0 {
newpath
translate
268.2 118.53 m
255.8 118.516 l
243.4 119.328 l
231 120.503 l
218.6 122.217 l
206.2 124.309 l
193.8 124.623 l
181.4 124.971 l
169 125.099 l
156.6 125.092 l
144.2 125.314 l
131.8 125.351 l
119.4 125.328 l
107 125.286 l
94.6 124.77 l
82.2 124.772 l
69.8 125.209 l
57.4 125.504 l
45.4699 144 l
45 145.003 l
} bind def
0.000 0.833 1.000 setrgbcolor
gsave
223.2 230.4 45 28.8 clipbox
0 0 p13_0
stroke
grestore
/p14_0 {
newpath
translate
45 129.15 m
57.4 115.195 l
69.8 115.151 l
82.2 114.914 l
94.6 114.926 l
107 115.661 l
119.4 115.885 l
131.8 115.958 l
144.2 115.919 l
156.6 115.701 l
169 115.795 l
181.4 115.679 l
193.8 115.286 l
206.2 115.088 l
218.6 113.203 l
231 111.682 l
243.4 110.624 l
255.8 109.861 l
268.2 109.876 l
} bind def
0.161 1.000 0.806 setrgbcolor
gsave
223.2 230.4 45 28.8 clipbox
0 0 p14_0
stroke
grestore
/p15_0 {
newpath
translate
45 113.171 m
57.4 104.886 l
69.8 105.092 l
82.2 105.055 l
94.6 105.083 l
107 106.037 l
119.4 106.441 l
131.8 106.565 l
144.2 106.523 l
156.6 106.309 l
169 106.491 l
181.4 106.387 l
193.8 105.949 l
206.2 105.868 l
218.6 104.189 l
231 102.861 l
243.4 101.921 l
255.8 101.207 l
268.2 101.222 l
} bind def
0.376 1.000 0.591 setrgbcolor
gsave
223.2 230.4 45 28.8 clipbox
0 0 p15_0
stroke
grestore
/p16_0 {
newpath
translate
45 97.1913 m
57.4 94.5772 l
69.8 95.034 l
82.2 95.1958 l
94.6 95.2398 l
107 96.412 l
119.4 96.9983 l
131.8 97.1723 l
144.2 97.1273 l
156.6 96.9172 l
169 97.1875 l
181.4 97.0947 l
193.8 96.6119 l
206.2 96.6478 l
218.6 95.1744 l
231 94.0396 l
243.4 93.2169 l
255.8 92.5526 l
268.2 92.568 l
} bind def
0.591 1.000 0.376 setrgbcolor
gsave
223.2 230.4 45 28.8 clipbox
0 0 p16_0
stroke
grestore
/p17_0 {
newpath
translate
45 82.9583 m
57.4 83.9686 l
69.8 84.6631 l
82.2 85.0618 l
94.6 85.1299 l
103.491 86.4 l
107 86.7873 l
119.4 87.5551 l
131.8 87.7792 l
144.2 87.7316 l
156.6 87.5255 l
169 87.8836 l
181.4 87.8025 l
193.8 87.2747 l
206.2 87.4275 l
216.21 86.4 l
218.6 86.0587 l
231 84.6277 l
243.4 83.5444 l
255.8 82.5911 l
268.2 82.6143 l
} bind def
0.806 1.000 0.161 setrgbcolor
gsave
223.2 230.4 45 28.8 clipbox
0 0 p17_0
stroke
grestore
/p18_0 {
newpath
translate
45 72.3576 m
57.4 72.2115 l
69.8 72.3965 l
82.2 72.651 l
94.6 72.6723 l
107 74.0583 l
119.4 74.9406 l
131.8 75.1743 l
144.2 75.0669 l
156.6 74.9453 l
169 75.227 l
181.4 75.1595 l
193.8 74.4711 l
206.2 74.6602 l
218.6 73.2325 l
231 71.3966 l
243.4 70.3718 l
255.8 69.4149 l
268.2 69.4359 l
} bind def
1.000 0.901 0.000 setrgbcolor
gsave
223.2 230.4 45 28.8 clipbox
0 0 p18_0
stroke
grestore
/p19_0 {
newpath
translate
45 61.7569 m
57.4 60.4544 l
69.8 60.1299 l
82.2 60.2401 l
94.6 60.2147 l
107 61.1991 l
119.4 61.884 l
131.8 62.0168 l
144.2 61.8624 l
156.6 61.931 l
169 61.9342 l
181.4 61.9208 l
193.8 61.3091 l
206.2 61.448 l
218.6 60.4063 l
231 58.1655 l
243.4 57.1993 l
255.8 56.2388 l
268.2 56.2575 l
} bind def
1.000 0.654 0.000 setrgbcolor
gsave
223.2 230.4 45 28.8 clipbox
0 0 p19_0
stroke
grestore
/p1a_0 {
newpath
translate
45 51.1562 m
57.4 48.6973 l
69.8 47.8633 l
82.2 47.8293 l
94.6 47.757 l
107 48.3399 l
119.4 48.8275 l
131.8 48.8592 l
144.2 48.6579 l
156.6 48.9167 l
169 48.6415 l
181.4 48.6822 l
193.8 48.1472 l
206.2 48.2358 l
218.6 47.5801 l
231 44.9344 l
243.4 44.0267 l
255.8 43.0627 l
268.2 43.0791 l
} bind def
1.000 0.407 0.000 setrgbcolor
gsave
223.2 230.4 45 28.8 clipbox
0 0 p1a_0
stroke
grestore
/p1b_0 {
newpath
translate
45 40.5555 m
57.4 36.9402 l
69.8 35.5967 l
82.2 35.4184 l
94.6 35.2994 l
107 35.4808 l
119.4 35.7709 l
131.8 35.7016 l
144.2 35.4534 l
156.6 35.9024 l
169 35.3488 l
181.4 35.4435 l
193.8 34.9852 l
206.2 35.0236 l
218.6 34.7539 l
231 31.7033 l
243.4 30.8542 l
255.8 29.8866 l
268.2 29.9007 l
} bind def
1.000 0.160 0.000 setrgbcolor
gsave
223.2 230.4 45 28.8 clipbox
0 0 p1b_0
stroke
grestore
/p1c_0 {
newpath
translate
48.2428 28.8 m
45 29.9549 l
} bind def
0.803 0.000 0.000 setrgbcolor
gsave
223.2 230.4 45 28.8 clipbox
0 0 p1c_0
stroke
grestore
0.500 setlinewidth
[1 3] 0 setdash
0.000 setgray
gsave
223.2 230.4 45 28.8 clipbox
45 28.8 m
45 259.2 l
stroke
grestore
[] 0 setdash
gsave
/o {
gsave
newpath
translate
0 0 m
0 4 l
stroke
grestore
} bind def
45 28.8 o
grestore
gsave
/o {
gsave
newpath
translate
0 0 m
0 -4 l
stroke
grestore
} bind def
45 259.2 o
grestore
/DejaVuSans findfont
8.000 scalefont
setfont
gsave
39.265625 18.753125 translate
0.000000 rotate
0.000000 0.109375 m /zero glyphshow
5.089844 0.109375 m /period glyphshow
7.632812 0.109375 m /one glyphshow
grestore
[1 3] 0 setdash
gsave
223.2 230.4 45 28.8 clipbox
69.8 28.8 m
69.8 259.2 l
stroke
grestore
[] 0 setdash
gsave
/o {
gsave
newpath
translate
0 0 m
0 4 l
stroke
grestore
} bind def
69.8 28.8 o
grestore
gsave
/o {
gsave
newpath
translate
0 0 m
0 -4 l
stroke
grestore
} bind def
69.8 259.2 o
grestore
gsave
64.096875 18.753125 translate
0.000000 rotate
0.000000 0.109375 m /zero glyphshow
5.089844 0.109375 m /period glyphshow
7.632812 0.109375 m /two glyphshow
grestore
[1 3] 0 setdash
gsave
223.2 230.4 45 28.8 clipbox
94.6 28.8 m
94.6 259.2 l
stroke
grestore
[] 0 setdash
gsave
/o {
gsave
newpath
translate
0 0 m
0 4 l
stroke
grestore
} bind def
94.6 28.8 o
grestore
gsave
/o {
gsave
newpath
translate
0 0 m
0 -4 l
stroke
grestore
} bind def
94.6 259.2 o
grestore
gsave
88.818750 18.753125 translate
0.000000 rotate
0.000000 0.109375 m /zero glyphshow
5.089844 0.109375 m /period glyphshow
7.632812 0.109375 m /three glyphshow
grestore
[1 3] 0 setdash
gsave
223.2 230.4 45 28.8 clipbox
119.4 28.8 m
119.4 259.2 l
stroke
grestore
[] 0 setdash
gsave
/o {
gsave
newpath
translate
0 0 m
0 4 l
stroke
grestore
} bind def
119.4 28.8 o
grestore
gsave
/o {
gsave
newpath
translate
0 0 m
0 -4 l
stroke
grestore
} bind def
119.4 259.2 o
grestore
gsave
113.525000 18.753125 translate
0.000000 rotate
0.000000 0.109375 m /zero glyphshow
5.089844 0.109375 m /period glyphshow
7.632812 0.109375 m /four glyphshow
grestore
[1 3] 0 setdash
gsave
223.2 230.4 45 28.8 clipbox
144.2 28.8 m
144.2 259.2 l
stroke
grestore
[] 0 setdash
gsave
/o {
gsave
newpath
translate
0 0 m
0 4 l
stroke
grestore
} bind def
144.2 28.8 o
grestore
gsave
/o {
gsave
newpath
translate
0 0 m
0 -4 l
stroke
grestore
} bind def
144.2 259.2 o
grestore
gsave
138.450000 18.753125 translate
0.000000 rotate
0.000000 0.109375 m /zero glyphshow
5.089844 0.109375 m /period glyphshow
7.632812 0.109375 m /five glyphshow
grestore
[1 3] 0 setdash
gsave
223.2 230.4 45 28.8 clipbox
169 28.8 m
169 259.2 l
stroke
grestore
[] 0 setdash
gsave
/o {
gsave
newpath
translate
0 0 m
0 4 l
stroke
grestore
} bind def
169 28.8 o
grestore
gsave
/o {
gsave
newpath
translate
0 0 m
0 -4 l
stroke
grestore
} bind def
169 259.2 o
grestore
gsave
163.148437 18.753125 translate
0.000000 rotate
0.000000 0.109375 m /zero glyphshow
5.089844 0.109375 m /period glyphshow
7.632812 0.109375 m /six glyphshow
grestore
[1 3] 0 setdash
gsave
223.2 230.4 45 28.8 clipbox
193.8 28.8 m
193.8 259.2 l
stroke
grestore
[] 0 setdash
gsave
/o {
gsave
newpath
translate
0 0 m
0 4 l
stroke
grestore
} bind def
193.8 28.8 o
grestore
gsave
/o {
gsave
newpath
translate
0 0 m
0 -4 l
stroke
grestore
} bind def
193.8 259.2 o
grestore
gsave
188.042188 18.753125 translate
0.000000 rotate
0.000000 0.109375 m /zero glyphshow
5.089844 0.109375 m /period glyphshow
7.632812 0.109375 m /seven glyphshow
grestore
[1 3] 0 setdash
gsave
223.2 230.4 45 28.8 clipbox
218.6 28.8 m
218.6 259.2 l
stroke
grestore
[] 0 setdash
gsave
/o {
gsave
newpath
translate
0 0 m
0 4 l
stroke
grestore
} bind def
218.6 28.8 o
grestore
gsave
/o {
gsave
newpath
translate
0 0 m
0 -4 l
stroke
grestore
} bind def
218.6 259.2 o
grestore
gsave
212.771875 18.753125 translate
0.000000 rotate
0.000000 0.109375 m /zero glyphshow
5.089844 0.109375 m /period glyphshow
7.632812 0.109375 m /eight glyphshow
grestore
[1 3] 0 setdash
gsave
223.2 230.4 45 28.8 clipbox
243.4 28.8 m
243.4 259.2 l
stroke
grestore
[] 0 setdash
gsave
/o {
gsave
newpath
translate
0 0 m
0 4 l
stroke
grestore
} bind def
243.4 28.8 o
grestore
gsave
/o {
gsave
newpath
translate
0 0 m
0 -4 l
stroke
grestore
} bind def
243.4 259.2 o
grestore
gsave
237.579688 18.753125 translate
0.000000 rotate
0.000000 0.109375 m /zero glyphshow
5.089844 0.109375 m /period glyphshow
7.632812 0.109375 m /nine glyphshow
grestore
[1 3] 0 setdash
gsave
223.2 230.4 45 28.8 clipbox
268.2 28.8 m
268.2 259.2 l
stroke
grestore
[] 0 setdash
gsave
/o {
gsave
newpath
translate
0 0 m
0 4 l
stroke
grestore
} bind def
268.2 28.8 o
grestore
gsave
/o {
gsave
newpath
translate
0 0 m
0 -4 l
stroke
grestore
} bind def
268.2 259.2 o
grestore
gsave
262.535937 18.753125 translate
0.000000 rotate
0.000000 0.109375 m /one glyphshow
5.089844 0.109375 m /period glyphshow
7.632812 0.109375 m /zero glyphshow
grestore
gsave
146.115625 6.003125 translate
0.000000 rotate
0.000000 1.671875 m /a glyphshow
4.902344 1.671875 m /l glyphshow
7.125000 1.671875 m /p glyphshow
12.203125 1.671875 m /h glyphshow
17.273438 1.671875 m /a glyphshow
grestore
[1 3] 0 setdash
gsave
223.2 230.4 45 28.8 clipbox
45 28.8 m
268.2 28.8 l
stroke
grestore
[] 0 setdash
gsave
/o {
gsave
newpath
translate
0 0 m
4 0 l
stroke
grestore
} bind def
45 28.8 o
grestore
gsave
/o {
gsave
newpath
translate
0 0 m
-4 0 l
stroke
grestore
} bind def
268.2 28.8 o
grestore
gsave
24.234375 25.776562 translate
0.000000 rotate
0.000000 0.109375 m /zero glyphshow
5.089844 0.109375 m /period glyphshow
7.632812 0.109375 m /eight glyphshow
12.722656 0.109375 m /zero glyphshow
grestore
[1 3] 0 setdash
gsave
223.2 230.4 45 28.8 clipbox
45 86.4 m
268.2 86.4 l
stroke
grestore
[] 0 setdash
gsave
/o {
gsave
newpath
translate
0 0 m
4 0 l
stroke
grestore
} bind def
45 86.4 o
grestore
gsave
/o {
gsave
newpath
translate
0 0 m
-4 0 l
stroke
grestore
} bind def
268.2 86.4 o
grestore
gsave
24.406250 83.376562 translate
0.000000 rotate
0.000000 0.109375 m /zero glyphshow
5.089844 0.109375 m /period glyphshow
7.632812 0.109375 m /eight glyphshow
12.722656 0.109375 m /five glyphshow
grestore
[1 3] 0 setdash
gsave
223.2 230.4 45 28.8 clipbox
45 144 m
268.2 144 l
stroke
grestore
[] 0 setdash
gsave
/o {
gsave
newpath
translate
0 0 m
4 0 l
stroke
grestore
} bind def
45 144 o
grestore
gsave
/o {
gsave
newpath
translate
0 0 m
-4 0 l
stroke
grestore
} bind def
268.2 144 o
grestore
gsave
24.234375 140.976562 translate
0.000000 rotate
0.000000 0.109375 m /zero glyphshow
5.089844 0.109375 m /period glyphshow
7.632812 0.109375 m /nine glyphshow
12.722656 0.109375 m /zero glyphshow
grestore
[1 3] 0 setdash
gsave
223.2 230.4 45 28.8 clipbox
45 201.6 m
268.2 201.6 l
stroke
grestore
[] 0 setdash
gsave
/o {
gsave
newpath
translate
0 0 m
4 0 l
stroke
grestore
} bind def
45 201.6 o
grestore
gsave
/o {
gsave
newpath
translate
0 0 m
-4 0 l
stroke
grestore
} bind def
268.2 201.6 o
grestore
gsave
24.406250 198.576563 translate
0.000000 rotate
0.000000 0.109375 m /zero glyphshow
5.089844 0.109375 m /period glyphshow
7.632812 0.109375 m /nine glyphshow
12.722656 0.109375 m /five glyphshow
grestore
[1 3] 0 setdash
gsave
223.2 230.4 45 28.8 clipbox
45 259.2 m
268.2 259.2 l
stroke
grestore
[] 0 setdash
gsave
/o {
gsave
newpath
translate
0 0 m
4 0 l
stroke
grestore
} bind def
45 259.2 o
grestore
gsave
/o {
gsave
newpath
translate
0 0 m
-4 0 l
stroke
grestore
} bind def
268.2 259.2 o
grestore
gsave
24.578125 256.176562 translate
0.000000 rotate
0.000000 0.109375 m /one glyphshow
5.089844 0.109375 m /period glyphshow
7.632812 0.109375 m /zero glyphshow
12.722656 0.109375 m /zero glyphshow
grestore
gsave
19.234375 112.156250 translate
90.000000 rotate
0.000000 1.671875 m /percent glyphshow
7.601562 1.671875 m /space glyphshow
10.144531 1.671875 m /m glyphshow
17.937500 1.671875 m /a glyphshow
22.839844 1.671875 m /x glyphshow
27.574219 1.671875 m /hyphen glyphshow
30.460938 1.671875 m /m glyphshow
38.253906 1.671875 m /e glyphshow
43.175781 1.671875 m /m glyphshow
50.968750 1.671875 m /o glyphshow
55.863281 1.671875 m /r glyphshow
59.152344 1.671875 m /y glyphshow
grestore
1.000 setlinewidth
2 setlinecap
gsave
45 259.2 m
268.2 259.2 l
stroke
grestore
gsave
268.2 28.8 m
268.2 259.2 l
stroke
grestore
gsave
45 28.8 m
268.2 28.8 l
stroke
grestore
gsave
45 28.8 m
45 259.2 l
stroke
grestore
0.010 setlinewidth
1.000 setgray
gsave
16.76 184.3 282.1 51.84 clipbox
290.528 51.84 m
282.15 60.2182 l
282.15 227.782 l
290.528 236.16 l
290.528 236.16 l
298.906 227.782 l
298.906 60.2182 l
290.528 51.84 l
290.528 51.84 l
gsave
fill
grestore
stroke
grestore
/p1d_0 {
newpath
translate
290.528 51.84 m
290.528 51.84 l
298.906 60.2182 l
282.15 60.2182 l
290.528 51.84 l
} bind def
/p1d_1 {
newpath
translate
282.15 60.2182 m
298.906 60.2182 l
298.906 73.1077 l
282.15 73.1077 l
282.15 60.2182 l
} bind def
/p1d_2 {
newpath
translate
282.15 73.1077 m
298.906 73.1077 l
298.906 85.9972 l
282.15 85.9972 l
282.15 73.1077 l
} bind def
/p1d_3 {
newpath
translate
282.15 85.9972 m
298.906 85.9972 l
298.906 98.8867 l
282.15 98.8867 l
282.15 85.9972 l
} bind def
/p1d_4 {
newpath
translate
282.15 98.8867 m
298.906 98.8867 l
298.906 111.776 l
282.15 111.776 l
282.15 98.8867 l
} bind def
/p1d_5 {
newpath
translate
282.15 111.776 m
298.906 111.776 l
298.906 124.666 l
282.15 124.666 l
282.15 111.776 l
} bind def
/p1d_6 {
newpath
translate
282.15 124.666 m
298.906 124.666 l
298.906 137.555 l
282.15 137.555 l
282.15 124.666 l
} bind def
/p1d_7 {
newpath
translate
282.15 137.555 m
298.906 137.555 l
298.906 150.445 l
282.15 150.445 l
282.15 137.555 l
} bind def
/p1d_8 {
newpath
translate
282.15 150.445 m
298.906 150.445 l
298.906 163.334 l
282.15 163.334 l
282.15 150.445 l
} bind def
/p1d_9 {
newpath
translate
282.15 163.334 m
298.906 163.334 l
298.906 176.224 l
282.15 176.224 l
282.15 163.334 l
} bind def
/p1d_a {
newpath
translate
282.15 176.224 m
298.906 176.224 l
298.906 189.113 l
282.15 189.113 l
282.15 176.224 l
} bind def
/p1d_b {
newpath
translate
282.15 189.113 m
298.906 189.113 l
298.906 202.003 l
282.15 202.003 l
282.15 189.113 l
} bind def
/p1d_c {
newpath
translate
282.15 202.003 m
298.906 202.003 l
298.906 214.892 l
282.15 214.892 l
282.15 202.003 l
} bind def
/p1d_d {
newpath
translate
282.15 214.892 m
298.906 214.892 l
298.906 227.782 l
282.15 227.782 l
282.15 214.892 l
} bind def
/p1d_e {
newpath
translate
282.15 227.782 m
298.906 227.782 l
290.528 236.16 l
290.528 236.16 l
282.15 227.782 l
} bind def
1.000 setlinewidth
0 setlinecap
0.027 0.027 0.038 setrgbcolor
gsave
16.76 184.3 282.1 51.84 clipbox
0 0 p1d_0
gsave
fill
grestore
stroke
grestore
0.086 0.086 0.119 setrgbcolor
gsave
16.76 184.3 282.1 51.84 clipbox
0 0 p1d_1
gsave
fill
grestore
stroke
grestore
0.144 0.144 0.201 setrgbcolor
gsave
16.76 184.3 282.1 51.84 clipbox
0 0 p1d_2
gsave
fill
grestore
stroke
grestore
0.202 0.202 0.282 setrgbcolor
gsave
16.76 184.3 282.1 51.84 clipbox
0 0 p1d_3
gsave
fill
grestore
stroke
grestore
0.261 0.261 0.363 setrgbcolor
gsave
16.76 184.3 282.1 51.84 clipbox
0 0 p1d_4
gsave
fill
grestore
stroke
grestore
0.319 0.319 0.444 setrgbcolor
gsave
16.76 184.3 282.1 51.84 clipbox
0 0 p1d_5
gsave
fill
grestore
stroke
grestore
0.377 0.399 0.502 setrgbcolor
gsave
16.76 184.3 282.1 51.84 clipbox
0 0 p1d_6
gsave
fill
grestore
stroke
grestore
0.439 0.484 0.564 setrgbcolor
gsave
16.76 184.3 282.1 51.84 clipbox
0 0 p1d_7
gsave
fill
grestore
stroke
grestore
0.498 0.564 0.623 setrgbcolor
gsave
16.76 184.3 282.1 51.84 clipbox
0 0 p1d_8
gsave
fill
grestore
stroke
grestore
0.556 0.645 0.681 setrgbcolor
gsave
16.76 184.3 282.1 51.84 clipbox
0 0 p1d_9
gsave
fill
grestore
stroke
grestore
0.614 0.725 0.739 setrgbcolor
gsave
16.76 184.3 282.1 51.84 clipbox
0 0 p1d_a
gsave
fill
grestore
stroke
grestore
0.684 0.798 0.798 setrgbcolor
gsave
16.76 184.3 282.1 51.84 clipbox
0 0 p1d_b
gsave
fill
grestore
stroke
grestore
0.775 0.856 0.856 setrgbcolor
gsave
16.76 184.3 282.1 51.84 clipbox
0 0 p1d_c
gsave
fill
grestore
stroke
grestore
0.866 0.914 0.914 setrgbcolor
gsave
16.76 184.3 282.1 51.84 clipbox
0 0 p1d_d
gsave
fill
grestore
stroke
grestore
0.957 0.973 0.973 setrgbcolor
gsave
16.76 184.3 282.1 51.84 clipbox
0 0 p1d_e
gsave
fill
grestore
stroke
grestore
/p1e_0 {
newpath
translate
282.15 60.2182 m
298.906 60.2182 l
} bind def
/p1e_1 {
newpath
translate
282.15 73.1077 m
298.906 73.1077 l
} bind def
/p1e_2 {
newpath
translate
282.15 85.9972 m
298.906 85.9972 l
} bind def
/p1e_3 {
newpath
translate
282.15 98.8867 m
298.906 98.8867 l
} bind def
/p1e_4 {
newpath
translate
282.15 111.776 m
298.906 111.776 l
} bind def
/p1e_5 {
newpath
translate
282.15 124.666 m
298.906 124.666 l
} bind def
/p1e_6 {
newpath
translate
282.15 137.555 m
298.906 137.555 l
} bind def
/p1e_7 {
newpath
translate
282.15 150.445 m
298.906 150.445 l
} bind def
/p1e_8 {
newpath
translate
282.15 163.334 m
298.906 163.334 l
} bind def
/p1e_9 {
newpath
translate
282.15 176.224 m
298.906 176.224 l
} bind def
/p1e_a {
newpath
translate
282.15 189.113 m
298.906 189.113 l
} bind def
/p1e_b {
newpath
translate
282.15 202.003 m
298.906 202.003 l
} bind def
/p1e_c {
newpath
translate
282.15 214.892 m
298.906 214.892 l
} bind def
/p1e_d {
newpath
translate
282.15 227.782 m
298.906 227.782 l
} bind def
2.000 setlinewidth
0.000 0.000 0.803 setrgbcolor
gsave
16.76 184.3 282.1 51.84 clipbox
0 0 p1e_0
stroke
grestore
0.000 0.033 1.000 setrgbcolor
gsave
16.76 184.3 282.1 51.84 clipbox
0 0 p1e_1
stroke
grestore
0.000 0.300 1.000 setrgbcolor
gsave
16.76 184.3 282.1 51.84 clipbox
0 0 p1e_2
stroke
grestore
0.000 0.567 1.000 setrgbcolor
gsave
16.76 184.3 282.1 51.84 clipbox
0 0 p1e_3
stroke
grestore
0.000 0.833 1.000 setrgbcolor
gsave
16.76 184.3 282.1 51.84 clipbox
0 0 p1e_4
stroke
grestore
0.161 1.000 0.806 setrgbcolor
gsave
16.76 184.3 282.1 51.84 clipbox
0 0 p1e_5
stroke
grestore
0.376 1.000 0.591 setrgbcolor
gsave
16.76 184.3 282.1 51.84 clipbox
0 0 p1e_6
stroke
grestore
0.591 1.000 0.376 setrgbcolor
gsave
16.76 184.3 282.1 51.84 clipbox
0 0 p1e_7
stroke
grestore
0.806 1.000 0.161 setrgbcolor
gsave
16.76 184.3 282.1 51.84 clipbox
0 0 p1e_8
stroke
grestore
1.000 0.901 0.000 setrgbcolor
gsave
16.76 184.3 282.1 51.84 clipbox
0 0 p1e_9
stroke
grestore
1.000 0.654 0.000 setrgbcolor
gsave
16.76 184.3 282.1 51.84 clipbox
0 0 p1e_a
stroke
grestore
1.000 0.407 0.000 setrgbcolor
gsave
16.76 184.3 282.1 51.84 clipbox
0 0 p1e_b
stroke
grestore
1.000 0.160 0.000 setrgbcolor
gsave
16.76 184.3 282.1 51.84 clipbox
0 0 p1e_c
stroke
grestore
0.803 0.000 0.000 setrgbcolor
gsave
16.76 184.3 282.1 51.84 clipbox
0 0 p1e_d
stroke
grestore
1.000 setlinewidth
2 setlinecap
0.000 setgray
gsave
290.528 51.84 m
282.15 60.2182 l
282.15 227.782 l
290.528 236.16 l
290.528 236.16 l
298.906 227.782 l
298.906 60.2182 l
290.528 51.84 l
290.528 51.84 l
stroke
grestore
0.500 setlinewidth
0 setlinecap
gsave
/o {
gsave
newpath
translate
0 0 m
-4 0 l
stroke
grestore
} bind def
298.906 60.2182 o
grestore
gsave
302.906364 57.194744 translate
0.000000 rotate
0.000000 0.109375 m /zero glyphshow
5.089844 0.109375 m /period glyphshow
7.632812 0.109375 m /zero glyphshow
12.722656 0.109375 m /zero glyphshow
grestore
gsave
/o {
gsave
newpath
translate
0 0 m
-4 0 l
stroke
grestore
} bind def
298.906 73.1077 o
grestore
gsave
302.906364 70.084255 translate
0.000000 rotate
0.000000 0.109375 m /zero glyphshow
5.089844 0.109375 m /period glyphshow
7.632812 0.109375 m /zero glyphshow
12.722656 0.109375 m /five glyphshow
grestore
gsave
/o {
gsave
newpath
translate
0 0 m
-4 0 l
stroke
grestore
} bind def
298.906 85.9972 o
grestore
gsave
302.906364 82.973765 translate
0.000000 rotate
0.000000 0.109375 m /zero glyphshow
5.089844 0.109375 m /period glyphshow
7.632812 0.109375 m /one glyphshow
12.722656 0.109375 m /zero glyphshow
grestore
gsave
/o {
gsave
newpath
translate
0 0 m
-4 0 l
stroke
grestore
} bind def
298.906 98.8867 o
grestore
gsave
302.906364 95.863276 translate
0.000000 rotate
0.000000 0.109375 m /zero glyphshow
5.089844 0.109375 m /period glyphshow
7.632812 0.109375 m /one glyphshow
12.722656 0.109375 m /five glyphshow
grestore
gsave
/o {
gsave
newpath
translate
0 0 m
-4 0 l
stroke
grestore
} bind def
298.906 111.776 o
grestore
gsave
302.906364 108.752786 translate
0.000000 rotate
0.000000 0.109375 m /zero glyphshow
5.089844 0.109375 m /period glyphshow
7.632812 0.109375 m /two glyphshow
12.722656 0.109375 m /zero glyphshow
grestore
gsave
/o {
gsave
newpath
translate
0 0 m
-4 0 l
stroke
grestore
} bind def
298.906 124.666 o
grestore
gsave
302.906364 121.642297 translate
0.000000 rotate
0.000000 0.109375 m /zero glyphshow
5.089844 0.109375 m /period glyphshow
7.632812 0.109375 m /two glyphshow
12.722656 0.109375 m /five glyphshow
grestore
gsave
/o {
gsave
newpath
translate
0 0 m
-4 0 l
stroke
grestore
} bind def
298.906 137.555 o
grestore
gsave
302.906364 134.531807 translate
0.000000 rotate
0.000000 0.109375 m /zero glyphshow
5.089844 0.109375 m /period glyphshow
7.632812 0.109375 m /three glyphshow
12.722656 0.109375 m /zero glyphshow
grestore
gsave
/o {
gsave
newpath
translate
0 0 m
-4 0 l
stroke
grestore
} bind def
298.906 150.445 o
grestore
gsave
302.906364 147.421318 translate
0.000000 rotate
0.000000 0.109375 m /zero glyphshow
5.089844 0.109375 m /period glyphshow
7.632812 0.109375 m /three glyphshow
12.722656 0.109375 m /five glyphshow
grestore
gsave
/o {
gsave
newpath
translate
0 0 m
-4 0 l
stroke
grestore
} bind def
298.906 163.334 o
grestore
gsave
302.906364 160.310828 translate
0.000000 rotate
0.000000 0.109375 m /zero glyphshow
5.089844 0.109375 m /period glyphshow
7.632812 0.109375 m /four glyphshow
12.722656 0.109375 m /zero glyphshow
grestore
gsave
/o {
gsave
newpath
translate
0 0 m
-4 0 l
stroke
grestore
} bind def
298.906 176.224 o
grestore
gsave
302.906364 173.200339 translate
0.000000 rotate
0.000000 0.109375 m /zero glyphshow
5.089844 0.109375 m /period glyphshow
7.632812 0.109375 m /four glyphshow
12.722656 0.109375 m /five glyphshow
grestore
gsave
/o {
gsave
newpath
translate
0 0 m
-4 0 l
stroke
grestore
} bind def
298.906 189.113 o
grestore
gsave
302.906364 186.089849 translate
0.000000 rotate
0.000000 0.109375 m /zero glyphshow
5.089844 0.109375 m /period glyphshow
7.632812 0.109375 m /five glyphshow
12.722656 0.109375 m /zero glyphshow
grestore
gsave
/o {
gsave
newpath
translate
0 0 m
-4 0 l
stroke
grestore
} bind def
298.906 202.003 o
grestore
gsave
302.906364 198.979360 translate
0.000000 rotate
0.000000 0.109375 m /zero glyphshow
5.089844 0.109375 m /period glyphshow
7.632812 0.109375 m /five glyphshow
12.722656 0.109375 m /five glyphshow
grestore
gsave
/o {
gsave
newpath
translate
0 0 m
-4 0 l
stroke
grestore
} bind def
298.906 214.892 o
grestore
gsave
302.906364 211.868870 translate
0.000000 rotate
0.000000 0.109375 m /zero glyphshow
5.089844 0.109375 m /period glyphshow
7.632812 0.109375 m /six glyphshow
12.722656 0.109375 m /zero glyphshow
grestore
gsave
/o {
gsave
newpath
translate
0 0 m
-4 0 l
stroke
grestore
} bind def
298.906 227.782 o
grestore
gsave
302.906364 224.758381 translate
0.000000 rotate
0.000000 0.109375 m /zero glyphshow
5.089844 0.109375 m /period glyphshow
7.632812 0.109375 m /six glyphshow
12.722656 0.109375 m /five glyphshow
grestore
gsave
330.828239 128.484375 translate
90.000000 rotate
0.000000 1.671875 m /p glyphshow
5.078125 1.671875 m /o glyphshow
9.972656 1.671875 m /a glyphshow
14.875000 1.671875 m /hyphen glyphshow
17.761719 1.671875 m /a glyphshow
22.664062 1.671875 m /v glyphshow
27.398438 1.671875 m /g glyphshow
grestore

end
showpage
