%!PS-Adobe-2.0 EPSF-2.0
%%Title: /home/ladypine/phd/candidacy/frombit/moc/paper/ginseng.dia
%%Creator: Dia v0.97.1
%%CreationDate: Wed Apr 18 15:31:47 2012
%%For: ladypine
%%Orientation: Portrait
%%Magnification: 1.0000
%%BoundingBox: 0 0 648 364
%%BeginSetup
%%EndSetup
%%EndComments
%%BeginProlog
[ /.notdef /.notdef /.notdef /.notdef /.notdef /.notdef /.notdef /.notdef /.notdef /.notdef
/.notdef /.notdef /.notdef /.notdef /.notdef /.notdef /.notdef /.notdef /.notdef /.notdef
/.notdef /.notdef /.notdef /.notdef /.notdef /.notdef /.notdef /.notdef /.notdef /.notdef
/.notdef /.notdef /space /exclam /quotedbl /numbersign /dollar /percent /ampersand /quoteright
/parenleft /parenright /asterisk /plus /comma /hyphen /period /slash /zero /one
/two /three /four /five /six /seven /eight /nine /colon /semicolon
/less /equal /greater /question /at /A /B /C /D /E
/F /G /H /I /J /K /L /M /N /O
/P /Q /R /S /T /U /V /W /X /Y
/Z /bracketleft /backslash /bracketright /asciicircum /underscore /quoteleft /a /b /c
/d /e /f /g /h /i /j /k /l /m
/n /o /p /q /r /s /t /u /v /w
/x /y /z /braceleft /bar /braceright /asciitilde /.notdef /.notdef /.notdef
/.notdef /.notdef /.notdef /.notdef /.notdef /.notdef /.notdef /.notdef /.notdef /.notdef
/.notdef /.notdef /.notdef /.notdef /.notdef /.notdef /.notdef /.notdef /.notdef /.notdef
/.notdef /.notdef /.notdef /.notdef /.notdef /.notdef /.notdef /.notdef /.notdef /.notdef
/space /exclamdown /cent /sterling /currency /yen /brokenbar /section /dieresis /copyright
/ordfeminine /guillemotleft /logicalnot /hyphen /registered /macron /degree /plusminus /twosuperior /threesuperior
/acute /mu /paragraph /periodcentered /cedilla /onesuperior /ordmasculine /guillemotright /onequarter /onehalf
/threequarters /questiondown /Agrave /Aacute /Acircumflex /Atilde /Adieresis /Aring /AE /Ccedilla
/Egrave /Eacute /Ecircumflex /Edieresis /Igrave /Iacute /Icircumflex /Idieresis /Eth /Ntilde
/Ograve /Oacute /Ocircumflex /Otilde /Odieresis /multiply /Oslash /Ugrave /Uacute /Ucircumflex
/Udieresis /Yacute /Thorn /germandbls /agrave /aacute /acircumflex /atilde /adieresis /aring
/ae /ccedilla /egrave /eacute /ecircumflex /edieresis /igrave /iacute /icircumflex /idieresis
/eth /ntilde /ograve /oacute /ocircumflex /otilde /odieresis /divide /oslash /ugrave
/uacute /ucircumflex /udieresis /yacute /thorn /ydieresis] /isolatin1encoding exch def
/cp {closepath} bind def
/c {curveto} bind def
/f {fill} bind def
/a {arc} bind def
/ef {eofill} bind def
/ex {exch} bind def
/gr {grestore} bind def
/gs {gsave} bind def
/sa {save} bind def
/rs {restore} bind def
/l {lineto} bind def
/m {moveto} bind def
/rm {rmoveto} bind def
/n {newpath} bind def
/s {stroke} bind def
/sh {show} bind def
/slc {setlinecap} bind def
/slj {setlinejoin} bind def
/slw {setlinewidth} bind def
/srgb {setrgbcolor} bind def
/rot {rotate} bind def
/sc {scale} bind def
/sd {setdash} bind def
/ff {findfont} bind def
/sf {setfont} bind def
/scf {scalefont} bind def
/sw {stringwidth pop} bind def
/tr {translate} bind def

/ellipsedict 8 dict def
ellipsedict /mtrx matrix put
/ellipse
{ ellipsedict begin
   /endangle exch def
   /startangle exch def
   /yrad exch def
   /xrad exch def
   /y exch def
   /x exch def   /savematrix mtrx currentmatrix def
   x y tr xrad yrad sc
   0 0 1 startangle endangle arc
   savematrix setmatrix
   end
} def

/mergeprocs {
dup length
3 -1 roll
dup
length
dup
5 1 roll
3 -1 roll
add
array cvx
dup
3 -1 roll
0 exch
putinterval
dup
4 2 roll
putinterval
} bind def
/dpi_x 300 def
/dpi_y 300 def
/conicto {
    /to_y exch def
    /to_x exch def
    /conic_cntrl_y exch def
    /conic_cntrl_x exch def
    currentpoint
    /p0_y exch def
    /p0_x exch def
    /p1_x p0_x conic_cntrl_x p0_x sub 2 3 div mul add def
    /p1_y p0_y conic_cntrl_y p0_y sub 2 3 div mul add def
    /p2_x p1_x to_x p0_x sub 1 3 div mul add def
    /p2_y p1_y to_y p0_y sub 1 3 div mul add def
    p1_x p1_y p2_x p2_y to_x to_y curveto
} bind def
/start_ol { gsave 1.1 dpi_x div dup scale} bind def
/end_ol { closepath fill grestore } bind def
29.123127 -29.123127 scale
-3.700000 -13.725000 translate
%%EndProlog


0.100000 slw
[] 0 sd
[] 0 sd
0 slj
0.901961 0.901961 0.980392 srgb
n 14.900000 2.700000 m 14.900000 13.675000 l 25.900000 13.675000 l 25.900000 2.700000 l f
0.498039 0.498039 0.498039 srgb
n 14.900000 2.700000 m 14.900000 13.675000 l 25.900000 13.675000 l 25.900000 2.700000 l cp s
0.100000 slw
[] 0 sd
[] 0 sd
0 slj
0.901961 0.901961 0.980392 srgb
n 14.500000 2.350000 m 14.500000 13.225000 l 25.500000 13.225000 l 25.500000 2.350000 l f
0.498039 0.498039 0.498039 srgb
n 14.500000 2.350000 m 14.500000 13.225000 l 25.500000 13.225000 l 25.500000 2.350000 l cp s
0.000000 0.000000 0.000000 srgb
0.100000 slw
[] 0 sd
[] 0 sd
0 slj
1.000000 1.000000 1.000000 srgb
n 14.000000 2.000000 m 14.000000 12.825000 l 25.000000 12.825000 l 25.000000 2.000000 l f
0.000000 0.000000 0.000000 srgb
n 14.000000 2.000000 m 14.000000 12.825000 l 25.000000 12.825000 l 25.000000 2.000000 l cp s
1.000000 1.000000 1.000000 srgb
n 16.710800 2.493930 m 16.710800 3.570041 l 22.544431 3.570041 l 22.544431 2.493930 l f
0.100000 slw
[] 0 sd
[] 0 sd
0 slj
0.000000 0.000000 0.000000 srgb
n 16.710800 2.493930 m 16.710800 3.570041 l 22.544431 3.570041 l 22.544431 2.493930 l cp s
gsave 17.892615 3.221430 translate 0.035278 -0.035278 scale
start_ol
1632 2946 moveto
1004 1280 lineto
2262 1280 lineto
1632 2946 lineto
1371 3392 moveto
1896 3392 lineto
3200 0 lineto
2719 0 lineto
2407 896 lineto
864 896 lineto
552 0 lineto
64 0 lineto
1371 3392 lineto
end_ol grestore 
gsave 18.317214 3.221430 translate 0.035278 -0.035278 scale
start_ol
896 384 moveto
896 -960 lineto
448 -960 lineto
448 2560 lineto
896 2560 lineto
896 2176 lineto
1028 2403 1229 2513 conicto
1430 2624 1709 2624 conicto
2173 2624 2462 2253 conicto
2752 1883 2752 1280 conicto
2752 677 2462 306 conicto
2173 -64 1709 -64 conicto
1430 -64 1229 46 conicto
1028 157 896 384 conicto
2304 1280 moveto
2304 1729 2116 1984 conicto
1928 2240 1600 2240 conicto
1272 2240 1084 1984 conicto
896 1729 896 1280 conicto
896 831 1084 575 conicto
1272 320 1600 320 conicto
1928 320 2116 575 conicto
2304 831 2304 1280 conicto
end_ol grestore 
gsave 18.711840 3.221430 translate 0.035278 -0.035278 scale
start_ol
896 384 moveto
896 -960 lineto
448 -960 lineto
448 2560 lineto
896 2560 lineto
896 2176 lineto
1028 2403 1229 2513 conicto
1430 2624 1709 2624 conicto
2173 2624 2462 2253 conicto
2752 1883 2752 1280 conicto
2752 677 2462 306 conicto
2173 -64 1709 -64 conicto
1430 -64 1229 46 conicto
1028 157 896 384 conicto
2304 1280 moveto
2304 1729 2116 1984 conicto
1928 2240 1600 2240 conicto
1272 2240 1084 1984 conicto
896 1729 896 1280 conicto
896 831 1084 575 conicto
1272 320 1600 320 conicto
1928 320 2116 575 conicto
2304 831 2304 1280 conicto
end_ol grestore 
gsave 19.106466 3.221430 translate 0.035278 -0.035278 scale
start_ol
448 3520 moveto
896 3520 lineto
896 0 lineto
448 0 lineto
448 3520 lineto
end_ol grestore 
gsave 19.278801 3.221430 translate 0.035278 -0.035278 scale
start_ol
448 2560 moveto
896 2560 lineto
896 0 lineto
448 0 lineto
448 2560 lineto
448 3520 moveto
896 3520 lineto
896 3008 lineto
448 3008 lineto
448 3520 lineto
end_ol grestore 
gsave 19.451135 3.221430 translate 0.035278 -0.035278 scale
start_ol
2304 2432 moveto
2304 2048 lineto
2124 2144 1942 2192 conicto
1761 2240 1576 2240 conicto
1162 2240 933 1988 conicto
704 1736 704 1280 conicto
704 824 933 572 conicto
1162 320 1576 320 conicto
1761 320 1942 368 conicto
2124 416 2304 512 conicto
2304 128 lineto
2126 32 1935 -16 conicto
1745 -64 1530 -64 conicto
945 -64 600 299 conicto
256 663 256 1280 conicto
256 1906 604 2265 conicto
952 2624 1557 2624 conicto
1754 2624 1941 2576 conicto
2128 2528 2304 2432 conicto
end_ol grestore 
gsave 19.793308 3.221430 translate 0.035278 -0.035278 scale
start_ol
1579 1280 moveto
1085 1280 894 1168 conicto
704 1056 704 787 conicto
704 572 847 446 conicto
990 320 1235 320 conicto
1574 320 1779 557 conicto
1984 794 1984 1187 conicto
1984 1280 lineto
1579 1280 lineto
2432 1449 moveto
2432 0 lineto
1984 0 lineto
1984 384 lineto
1841 154 1628 45 conicto
1415 -64 1106 -64 conicto
716 -64 486 154 conicto
256 372 256 739 conicto
256 1166 546 1383 conicto
837 1600 1413 1600 conicto
1984 1600 lineto
1984 1642 lineto
1984 1928 1795 2084 conicto
1607 2240 1266 2240 conicto
1049 2240 843 2192 conicto
638 2144 448 2048 conicto
448 2432 lineto
680 2528 898 2576 conicto
1116 2624 1323 2624 conicto
1881 2624 2156 2332 conicto
2432 2041 2432 1449 conicto
end_ol grestore 
gsave 20.172952 3.221430 translate 0.035278 -0.035278 scale
start_ol
896 3264 moveto
896 2560 lineto
1792 2560 lineto
1792 2240 lineto
896 2240 lineto
896 869 lineto
896 560 984 472 conicto
1073 384 1345 384 conicto
1792 384 lineto
1792 0 lineto
1345 0 lineto
836 0 642 187 conicto
448 374 448 869 conicto
448 2240 lineto
128 2240 lineto
128 2560 lineto
448 2560 lineto
448 3264 lineto
896 3264 lineto
end_ol grestore 
gsave 20.415219 3.221430 translate 0.035278 -0.035278 scale
start_ol
448 2560 moveto
896 2560 lineto
896 0 lineto
448 0 lineto
448 2560 lineto
448 3520 moveto
896 3520 lineto
896 3008 lineto
448 3008 lineto
448 3520 lineto
end_ol grestore 
gsave 20.587554 3.221430 translate 0.035278 -0.035278 scale
start_ol
1441 2240 moveto
1100 2240 902 1983 conicto
704 1727 704 1280 conicto
704 833 901 576 conicto
1098 320 1441 320 conicto
1780 320 1978 578 conicto
2176 836 2176 1280 conicto
2176 1722 1978 1981 conicto
1780 2240 1441 2240 conicto
1440 2624 moveto
1993 2624 2308 2267 conicto
2624 1911 2624 1280 conicto
2624 651 2308 293 conicto
1993 -64 1440 -64 conicto
885 -64 570 293 conicto
256 651 256 1280 conicto
256 1911 570 2267 conicto
885 2624 1440 2624 conicto
end_ol grestore 
gsave 20.967198 3.221430 translate 0.035278 -0.035278 scale
start_ol
2560 1555 moveto
2560 0 lineto
2112 0 lineto
2112 1541 lineto
2112 1892 1979 2066 conicto
1847 2240 1582 2240 conicto
1264 2240 1080 2029 conicto
896 1819 896 1456 conicto
896 0 lineto
448 0 lineto
448 2560 lineto
896 2560 lineto
896 2176 lineto
1042 2401 1239 2512 conicto
1437 2624 1696 2624 conicto
2122 2624 2341 2353 conicto
2560 2082 2560 1555 conicto
end_ol grestore 
1.000000 1.000000 1.000000 srgb
n 16.050000 11.320700 m 16.050000 12.420700 l 23.050000 12.420700 l 23.050000 11.320700 l f
0.100000 slw
[] 0 sd
[] 0 sd
0 slj
0.000000 0.000000 0.000000 srgb
n 16.050000 11.320700 m 16.050000 12.420700 l 23.050000 12.420700 l 23.050000 11.320700 l cp s
gsave 17.345000 12.060144 translate 0.035278 -0.035278 scale
start_ol
896 1600 moveto
896 384 lineto
1667 384 lineto
2024 384 2196 534 conicto
2368 684 2368 993 conicto
2368 1304 2196 1452 conicto
2024 1600 1667 1600 conicto
896 1600 lineto
896 3008 moveto
896 1984 lineto
1607 1984 lineto
1959 1984 2131 2110 conicto
2304 2237 2304 2496 conicto
2304 2753 2131 2880 conicto
1959 3008 1607 3008 conicto
896 3008 lineto
448 3392 moveto
1643 3392 lineto
2176 3392 2464 3172 conicto
2752 2952 2752 2546 conicto
2752 2232 2608 2046 conicto
2465 1861 2187 1815 conicto
2516 1743 2698 1514 conicto
2880 1285 2880 942 conicto
2880 492 2570 246 conicto
2261 0 1690 0 conicto
448 0 lineto
448 3392 lineto
end_ol grestore 
gsave 17.769598 12.060144 translate 0.035278 -0.035278 scale
start_ol
1579 1280 moveto
1085 1280 894 1168 conicto
704 1056 704 787 conicto
704 572 847 446 conicto
990 320 1235 320 conicto
1574 320 1779 557 conicto
1984 794 1984 1187 conicto
1984 1280 lineto
1579 1280 lineto
2432 1449 moveto
2432 0 lineto
1984 0 lineto
1984 384 lineto
1841 154 1628 45 conicto
1415 -64 1106 -64 conicto
716 -64 486 154 conicto
256 372 256 739 conicto
256 1166 546 1383 conicto
837 1600 1413 1600 conicto
1984 1600 lineto
1984 1642 lineto
1984 1928 1795 2084 conicto
1607 2240 1266 2240 conicto
1049 2240 843 2192 conicto
638 2144 448 2048 conicto
448 2432 lineto
680 2528 898 2576 conicto
1116 2624 1323 2624 conicto
1881 2624 2156 2332 conicto
2432 2041 2432 1449 conicto
end_ol grestore 
gsave 18.149242 12.060144 translate 0.035278 -0.035278 scale
start_ol
448 3520 moveto
896 3520 lineto
896 0 lineto
448 0 lineto
448 3520 lineto
end_ol grestore 
gsave 18.321577 12.060144 translate 0.035278 -0.035278 scale
start_ol
448 3520 moveto
896 3520 lineto
896 0 lineto
448 0 lineto
448 3520 lineto
end_ol grestore 
gsave 18.493912 12.060144 translate 0.035278 -0.035278 scale
start_ol
1441 2240 moveto
1100 2240 902 1983 conicto
704 1727 704 1280 conicto
704 833 901 576 conicto
1098 320 1441 320 conicto
1780 320 1978 578 conicto
2176 836 2176 1280 conicto
2176 1722 1978 1981 conicto
1780 2240 1441 2240 conicto
1440 2624 moveto
1993 2624 2308 2267 conicto
2624 1911 2624 1280 conicto
2624 651 2308 293 conicto
1993 -64 1440 -64 conicto
885 -64 570 293 conicto
256 651 256 1280 conicto
256 1911 570 2267 conicto
885 2624 1440 2624 conicto
end_ol grestore 
gsave 18.873556 12.060144 translate 0.035278 -0.035278 scale
start_ol
1441 2240 moveto
1100 2240 902 1983 conicto
704 1727 704 1280 conicto
704 833 901 576 conicto
1098 320 1441 320 conicto
1780 320 1978 578 conicto
2176 836 2176 1280 conicto
2176 1722 1978 1981 conicto
1780 2240 1441 2240 conicto
1440 2624 moveto
1993 2624 2308 2267 conicto
2624 1911 2624 1280 conicto
2624 651 2308 293 conicto
1993 -64 1440 -64 conicto
885 -64 570 293 conicto
256 651 256 1280 conicto
256 1911 570 2267 conicto
885 2624 1440 2624 conicto
end_ol grestore 
gsave 19.253200 12.060144 translate 0.035278 -0.035278 scale
start_ol
2560 1555 moveto
2560 0 lineto
2112 0 lineto
2112 1541 lineto
2112 1892 1979 2066 conicto
1847 2240 1582 2240 conicto
1264 2240 1080 2029 conicto
896 1819 896 1456 conicto
896 0 lineto
448 0 lineto
448 2560 lineto
896 2560 lineto
896 2176 lineto
1042 2401 1239 2512 conicto
1437 2624 1696 2624 conicto
2122 2624 2341 2353 conicto
2560 2082 2560 1555 conicto
end_ol grestore 
gsave 19.645329 12.060144 translate 0.035278 -0.035278 scale
start_ol
end_ol grestore 
gsave 19.842642 12.060144 translate 0.035278 -0.035278 scale
start_ol
896 3008 moveto
896 384 lineto
1454 384 lineto
2160 384 2488 700 conicto
2816 1017 2816 1699 conicto
2816 2377 2488 2692 conicto
2160 3008 1454 3008 conicto
896 3008 lineto
448 3392 moveto
1383 3392 lineto
2388 3392 2858 2982 conicto
3328 2572 3328 1699 conicto
3328 822 2855 411 conicto
2383 0 1383 0 conicto
448 0 lineto
448 3392 lineto
end_ol grestore 
gsave 20.319694 12.060144 translate 0.035278 -0.035278 scale
start_ol
1920 2176 moveto
1853 2209 1773 2224 conicto
1694 2240 1598 2240 conicto
1259 2240 1077 2012 conicto
896 1784 896 1357 conicto
896 0 lineto
448 0 lineto
448 2560 lineto
896 2560 lineto
896 2176 lineto
1022 2403 1224 2513 conicto
1426 2624 1716 2624 conicto
1757 2624 1807 2624 conicto
1857 2624 1918 2624 conicto
1920 2176 lineto
end_ol grestore 
gsave 20.574455 12.060144 translate 0.035278 -0.035278 scale
start_ol
448 2560 moveto
896 2560 lineto
896 0 lineto
448 0 lineto
448 2560 lineto
448 3520 moveto
896 3520 lineto
896 3008 lineto
448 3008 lineto
448 3520 lineto
end_ol grestore 
gsave 20.746789 12.060144 translate 0.035278 -0.035278 scale
start_ol
128 2560 moveto
575 2560 lineto
1376 411 lineto
2177 2560 lineto
2624 2560 lineto
1662 0 lineto
1090 0 lineto
128 2560 lineto
end_ol grestore 
gsave 21.113940 12.060144 translate 0.035278 -0.035278 scale
start_ol
2624 1416 moveto
2624 1216 lineto
704 1216 lineto
731 778 959 549 conicto
1188 320 1597 320 conicto
1833 320 2055 384 conicto
2277 448 2496 576 conicto
2496 192 lineto
2273 67 2039 1 conicto
1805 -64 1564 -64 conicto
961 -64 608 292 conicto
256 649 256 1257 conicto
256 1886 595 2255 conicto
934 2624 1508 2624 conicto
2024 2624 2324 2299 conicto
2624 1974 2624 1416 conicto
2176 1536 moveto
2172 1857 1988 2048 conicto
1805 2240 1502 2240 conicto
1160 2240 954 2055 conicto
748 1870 717 1533 conicto
2176 1536 lineto
end_ol grestore 
gsave 21.496081 12.060144 translate 0.035278 -0.035278 scale
start_ol
1920 2176 moveto
1853 2209 1773 2224 conicto
1694 2240 1598 2240 conicto
1259 2240 1077 2012 conicto
896 1784 896 1357 conicto
896 0 lineto
448 0 lineto
448 2560 lineto
896 2560 lineto
896 2176 lineto
1022 2403 1224 2513 conicto
1426 2624 1716 2624 conicto
1757 2624 1807 2624 conicto
1857 2624 1918 2624 conicto
1920 2176 lineto
end_ol grestore 
0.100000 slw
[] 0 sd
[] 0 sd
0 slj
0.847059 0.898039 0.898039 srgb
n 14.750000 4.475000 m 14.750000 10.575000 l 24.250000 10.575000 l 24.250000 4.475000 l f
0.000000 0.000000 0.000000 srgb
n 14.750000 4.475000 m 14.750000 10.575000 l 24.250000 10.575000 l 24.250000 4.475000 l cp s
1.000000 1.000000 1.000000 srgb
n 16.550000 4.728620 m 16.550000 5.828620 l 22.550000 5.828620 l 22.550000 4.728620 l f
0.100000 slw
[] 0 sd
[] 0 sd
0 slj
0.000000 0.000000 0.000000 srgb
n 16.550000 4.728620 m 16.550000 5.828620 l 22.550000 5.828620 l 22.550000 4.728620 l cp s
gsave 17.406250 5.468064 translate 0.035278 -0.035278 scale
start_ol
896 3008 moveto
896 1728 lineto
1459 1728 lineto
1771 1728 1941 1894 conicto
2112 2061 2112 2369 conicto
2112 2675 1941 2841 conicto
1771 3008 1459 3008 conicto
896 3008 lineto
448 3392 moveto
1459 3392 lineto
2035 3392 2329 3131 conicto
2624 2871 2624 2369 conicto
2624 1862 2329 1603 conicto
2035 1344 1459 1344 conicto
896 1344 lineto
896 0 lineto
448 0 lineto
448 3392 lineto
end_ol grestore 
gsave 17.758419 5.468064 translate 0.035278 -0.035278 scale
start_ol
2624 1416 moveto
2624 1216 lineto
704 1216 lineto
731 778 959 549 conicto
1188 320 1597 320 conicto
1833 320 2055 384 conicto
2277 448 2496 576 conicto
2496 192 lineto
2273 67 2039 1 conicto
1805 -64 1564 -64 conicto
961 -64 608 292 conicto
256 649 256 1257 conicto
256 1886 595 2255 conicto
934 2624 1508 2624 conicto
2024 2624 2324 2299 conicto
2624 1974 2624 1416 conicto
2176 1536 moveto
2172 1857 1988 2048 conicto
1805 2240 1502 2240 conicto
1160 2240 954 2055 conicto
748 1870 717 1533 conicto
2176 1536 lineto
end_ol grestore 
gsave 18.140560 5.468064 translate 0.035278 -0.035278 scale
start_ol
1920 2176 moveto
1853 2209 1773 2224 conicto
1694 2240 1598 2240 conicto
1259 2240 1077 2012 conicto
896 1784 896 1357 conicto
896 0 lineto
448 0 lineto
448 2560 lineto
896 2560 lineto
896 2176 lineto
1022 2403 1224 2513 conicto
1426 2624 1716 2624 conicto
1757 2624 1807 2624 conicto
1857 2624 1918 2624 conicto
1920 2176 lineto
end_ol grestore 
gsave 18.395320 5.468064 translate 0.035278 -0.035278 scale
start_ol
1792 3520 moveto
1792 3136 lineto
1369 3136 lineto
1139 3136 1049 3054 conicto
960 2973 960 2761 conicto
960 2560 lineto
1664 2560 lineto
1664 2240 lineto
960 2240 lineto
960 0 lineto
512 0 lineto
512 2240 lineto
128 2240 lineto
128 2560 lineto
512 2560 lineto
512 2719 lineto
512 3137 718 3328 conicto
925 3520 1374 3520 conicto
1792 3520 lineto
end_ol grestore 
gsave 18.612609 5.468064 translate 0.035278 -0.035278 scale
start_ol
1408 3520 moveto
1116 2995 974 2482 conicto
832 1969 832 1442 conicto
832 915 975 398 conicto
1118 -118 1408 -640 conicto
1059 -640 lineto
720 -104 552 413 conicto
384 931 384 1442 conicto
384 1951 551 2466 conicto
718 2982 1059 3520 conicto
1408 3520 lineto
end_ol grestore 
gsave 18.854877 5.468064 translate 0.035278 -0.035278 scale
start_ol
2421 2082 moveto
2574 2360 2786 2492 conicto
2999 2624 3287 2624 conicto
3675 2624 3885 2346 conicto
4096 2068 4096 1555 conicto
4096 0 lineto
3648 0 lineto
3648 1541 lineto
3648 1896 3526 2068 conicto
3405 2240 3155 2240 conicto
2850 2240 2673 2029 conicto
2496 1819 2496 1456 conicto
2496 0 lineto
2048 0 lineto
2048 1541 lineto
2048 1898 1926 2069 conicto
1805 2240 1551 2240 conicto
1250 2240 1073 2028 conicto
896 1817 896 1456 conicto
896 0 lineto
448 0 lineto
448 2560 lineto
896 2560 lineto
896 2176 lineto
1034 2406 1227 2515 conicto
1421 2624 1687 2624 conicto
1955 2624 2143 2485 conicto
2331 2346 2421 2082 conicto
end_ol grestore 
gsave 19.459309 5.468064 translate 0.035278 -0.035278 scale
start_ol
2624 1416 moveto
2624 1216 lineto
704 1216 lineto
731 778 959 549 conicto
1188 320 1597 320 conicto
1833 320 2055 384 conicto
2277 448 2496 576 conicto
2496 192 lineto
2273 67 2039 1 conicto
1805 -64 1564 -64 conicto
961 -64 608 292 conicto
256 649 256 1257 conicto
256 1886 595 2255 conicto
934 2624 1508 2624 conicto
2024 2624 2324 2299 conicto
2624 1974 2624 1416 conicto
2176 1536 moveto
2172 1857 1988 2048 conicto
1805 2240 1502 2240 conicto
1160 2240 954 2055 conicto
748 1870 717 1533 conicto
2176 1536 lineto
end_ol grestore 
gsave 19.841450 5.468064 translate 0.035278 -0.035278 scale
start_ol
2421 2082 moveto
2574 2360 2786 2492 conicto
2999 2624 3287 2624 conicto
3675 2624 3885 2346 conicto
4096 2068 4096 1555 conicto
4096 0 lineto
3648 0 lineto
3648 1541 lineto
3648 1896 3526 2068 conicto
3405 2240 3155 2240 conicto
2850 2240 2673 2029 conicto
2496 1819 2496 1456 conicto
2496 0 lineto
2048 0 lineto
2048 1541 lineto
2048 1898 1926 2069 conicto
1805 2240 1551 2240 conicto
1250 2240 1073 2028 conicto
896 1817 896 1456 conicto
896 0 lineto
448 0 lineto
448 2560 lineto
896 2560 lineto
896 2176 lineto
1034 2406 1227 2515 conicto
1421 2624 1687 2624 conicto
1955 2624 2143 2485 conicto
2331 2346 2421 2082 conicto
end_ol grestore 
gsave 20.445883 5.468064 translate 0.035278 -0.035278 scale
start_ol
1441 2240 moveto
1100 2240 902 1983 conicto
704 1727 704 1280 conicto
704 833 901 576 conicto
1098 320 1441 320 conicto
1780 320 1978 578 conicto
2176 836 2176 1280 conicto
2176 1722 1978 1981 conicto
1780 2240 1441 2240 conicto
1440 2624 moveto
1993 2624 2308 2267 conicto
2624 1911 2624 1280 conicto
2624 651 2308 293 conicto
1993 -64 1440 -64 conicto
885 -64 570 293 conicto
256 651 256 1280 conicto
256 1911 570 2267 conicto
885 2624 1440 2624 conicto
end_ol grestore 
gsave 20.825527 5.468064 translate 0.035278 -0.035278 scale
start_ol
1920 2176 moveto
1853 2209 1773 2224 conicto
1694 2240 1598 2240 conicto
1259 2240 1077 2012 conicto
896 1784 896 1357 conicto
896 0 lineto
448 0 lineto
448 2560 lineto
896 2560 lineto
896 2176 lineto
1022 2403 1224 2513 conicto
1426 2624 1716 2624 conicto
1757 2624 1807 2624 conicto
1857 2624 1918 2624 conicto
1920 2176 lineto
end_ol grestore 
gsave 21.080287 5.468064 translate 0.035278 -0.035278 scale
start_ol
1510 -198 moveto
1333 -671 1165 -815 conicto
998 -960 717 -960 conicto
384 -960 lineto
384 -576 lineto
629 -576 lineto
801 -576 896 -500 conicto
991 -424 1107 -140 conicto
1181 51 lineto
128 2560 lineto
597 2560 lineto
1390 558 lineto
2182 2560 lineto
2624 2560 lineto
1510 -198 lineto
end_ol grestore 
gsave 21.447438 5.468064 translate 0.035278 -0.035278 scale
start_ol
384 3520 moveto
733 3520 lineto
1072 2982 1240 2466 conicto
1408 1951 1408 1442 conicto
1408 931 1240 413 conicto
1072 -104 733 -640 conicto
384 -640 lineto
674 -118 817 398 conicto
960 915 960 1442 conicto
960 1969 817 2482 conicto
674 2995 384 3520 conicto
end_ol grestore 
1.000000 1.000000 1.000000 srgb
n 16.600000 6.143270 m 16.600000 7.243270 l 22.500000 7.243270 l 22.500000 6.143270 l f
0.100000 slw
[] 0 sd
[] 0 sd
0 slj
0.000000 0.000000 0.000000 srgb
n 16.600000 6.143270 m 16.600000 7.243270 l 22.500000 7.243270 l 22.500000 6.143270 l cp s
gsave 18.470000 6.882714 translate 0.035278 -0.035278 scale
start_ol
1371 0 moveto
64 3392 lineto
548 3392 lineto
1632 536 lineto
2719 3392 lineto
3200 3392 lineto
1896 0 lineto
1371 0 lineto
end_ol grestore 
gsave 18.894598 6.882714 translate 0.035278 -0.035278 scale
start_ol
1408 3520 moveto
1116 2995 974 2482 conicto
832 1969 832 1442 conicto
832 915 975 398 conicto
1118 -118 1408 -640 conicto
1059 -640 lineto
720 -104 552 413 conicto
384 931 384 1442 conicto
384 1951 551 2466 conicto
718 2982 1059 3520 conicto
1408 3520 lineto
end_ol grestore 
gsave 19.136866 6.882714 translate 0.035278 -0.035278 scale
start_ol
896 384 moveto
896 -960 lineto
448 -960 lineto
448 2560 lineto
896 2560 lineto
896 2176 lineto
1028 2403 1229 2513 conicto
1430 2624 1709 2624 conicto
2173 2624 2462 2253 conicto
2752 1883 2752 1280 conicto
2752 677 2462 306 conicto
2173 -64 1709 -64 conicto
1430 -64 1229 46 conicto
1028 157 896 384 conicto
2304 1280 moveto
2304 1729 2116 1984 conicto
1928 2240 1600 2240 conicto
1272 2240 1084 1984 conicto
896 1729 896 1280 conicto
896 831 1084 575 conicto
1272 320 1600 320 conicto
1928 320 2116 575 conicto
2304 831 2304 1280 conicto
end_ol grestore 
gsave 19.531492 6.882714 translate 0.035278 -0.035278 scale
start_ol
2624 1416 moveto
2624 1216 lineto
704 1216 lineto
731 778 959 549 conicto
1188 320 1597 320 conicto
1833 320 2055 384 conicto
2277 448 2496 576 conicto
2496 192 lineto
2273 67 2039 1 conicto
1805 -64 1564 -64 conicto
961 -64 608 292 conicto
256 649 256 1257 conicto
256 1886 595 2255 conicto
934 2624 1508 2624 conicto
2024 2624 2324 2299 conicto
2624 1974 2624 1416 conicto
2176 1536 moveto
2172 1857 1988 2048 conicto
1805 2240 1502 2240 conicto
1160 2240 954 2055 conicto
748 1870 717 1533 conicto
2176 1536 lineto
end_ol grestore 
gsave 19.913633 6.882714 translate 0.035278 -0.035278 scale
start_ol
1920 2176 moveto
1853 2209 1773 2224 conicto
1694 2240 1598 2240 conicto
1259 2240 1077 2012 conicto
896 1784 896 1357 conicto
896 0 lineto
448 0 lineto
448 2560 lineto
896 2560 lineto
896 2176 lineto
1022 2403 1224 2513 conicto
1426 2624 1716 2624 conicto
1757 2624 1807 2624 conicto
1857 2624 1918 2624 conicto
1920 2176 lineto
end_ol grestore 
gsave 20.168393 6.882714 translate 0.035278 -0.035278 scale
start_ol
1792 3520 moveto
1792 3136 lineto
1369 3136 lineto
1139 3136 1049 3054 conicto
960 2973 960 2761 conicto
960 2560 lineto
1664 2560 lineto
1664 2240 lineto
960 2240 lineto
960 0 lineto
512 0 lineto
512 2240 lineto
128 2240 lineto
128 2560 lineto
512 2560 lineto
512 2719 lineto
512 3137 718 3328 conicto
925 3520 1374 3520 conicto
1792 3520 lineto
end_ol grestore 
gsave 20.385683 6.882714 translate 0.035278 -0.035278 scale
start_ol
384 3520 moveto
733 3520 lineto
1072 2982 1240 2466 conicto
1408 1951 1408 1442 conicto
1408 931 1240 413 conicto
1072 -104 733 -640 conicto
384 -640 lineto
674 -118 817 398 conicto
960 915 960 1442 conicto
960 1969 817 2482 conicto
674 2995 384 3520 conicto
end_ol grestore 
1.000000 1.000000 1.000000 srgb
n 16.450000 7.522560 m 16.450000 8.622560 l 22.450000 8.622560 l 22.450000 7.522560 l f
0.100000 slw
[] 0 sd
[] 0 sd
0 slj
0.000000 0.000000 0.000000 srgb
n 16.450000 7.522560 m 16.450000 8.622560 l 22.450000 8.622560 l 22.450000 7.522560 l cp s
gsave 16.866250 8.262004 translate 0.035278 -0.035278 scale
start_ol
2496 3264 moveto
2496 2816 lineto
2244 2945 2020 3008 conicto
1796 3072 1587 3072 conicto
1225 3072 1028 2927 conicto
832 2782 832 2516 conicto
832 2292 957 2177 conicto
1083 2063 1433 1993 conicto
1691 1937 lineto
2202 1840 2445 1594 conicto
2688 1348 2688 935 conicto
2688 444 2358 190 conicto
2029 -64 1392 -64 conicto
1152 -64 881 -15 conicto
610 33 320 128 conicto
320 640 lineto
594 481 856 400 conicto
1119 320 1373 320 conicto
1758 320 1967 473 conicto
2176 627 2176 911 conicto
2176 1159 2033 1298 conicto
1891 1438 1566 1508 conicto
1307 1561 lineto
786 1663 553 1881 conicto
320 2100 320 2488 conicto
320 2938 636 3197 conicto
952 3456 1506 3456 conicto
1744 3456 1991 3408 conicto
2238 3360 2496 3264 conicto
end_ol grestore 
gsave 17.260876 8.262004 translate 0.035278 -0.035278 scale
start_ol
896 3264 moveto
896 2560 lineto
1792 2560 lineto
1792 2240 lineto
896 2240 lineto
896 869 lineto
896 560 984 472 conicto
1073 384 1345 384 conicto
1792 384 lineto
1792 0 lineto
1345 0 lineto
836 0 642 187 conicto
448 374 448 869 conicto
448 2240 lineto
128 2240 lineto
128 2560 lineto
448 2560 lineto
448 3264 lineto
896 3264 lineto
end_ol grestore 
gsave 17.503143 8.262004 translate 0.035278 -0.035278 scale
start_ol
1920 2176 moveto
1853 2209 1773 2224 conicto
1694 2240 1598 2240 conicto
1259 2240 1077 2012 conicto
896 1784 896 1357 conicto
896 0 lineto
448 0 lineto
448 2560 lineto
896 2560 lineto
896 2176 lineto
1022 2403 1224 2513 conicto
1426 2624 1716 2624 conicto
1757 2624 1807 2624 conicto
1857 2624 1918 2624 conicto
1920 2176 lineto
end_ol grestore 
gsave 17.757904 8.262004 translate 0.035278 -0.035278 scale
start_ol
1579 1280 moveto
1085 1280 894 1168 conicto
704 1056 704 787 conicto
704 572 847 446 conicto
990 320 1235 320 conicto
1574 320 1779 557 conicto
1984 794 1984 1187 conicto
1984 1280 lineto
1579 1280 lineto
2432 1449 moveto
2432 0 lineto
1984 0 lineto
1984 384 lineto
1841 154 1628 45 conicto
1415 -64 1106 -64 conicto
716 -64 486 154 conicto
256 372 256 739 conicto
256 1166 546 1383 conicto
837 1600 1413 1600 conicto
1984 1600 lineto
1984 1642 lineto
1984 1928 1795 2084 conicto
1607 2240 1266 2240 conicto
1049 2240 843 2192 conicto
638 2144 448 2048 conicto
448 2432 lineto
680 2528 898 2576 conicto
1116 2624 1323 2624 conicto
1881 2624 2156 2332 conicto
2432 2041 2432 1449 conicto
end_ol grestore 
gsave 18.137548 8.262004 translate 0.035278 -0.035278 scale
start_ol
896 3264 moveto
896 2560 lineto
1792 2560 lineto
1792 2240 lineto
896 2240 lineto
896 869 lineto
896 560 984 472 conicto
1073 384 1345 384 conicto
1792 384 lineto
1792 0 lineto
1345 0 lineto
836 0 642 187 conicto
448 374 448 869 conicto
448 2240 lineto
128 2240 lineto
128 2560 lineto
448 2560 lineto
448 3264 lineto
896 3264 lineto
end_ol grestore 
gsave 18.379815 8.262004 translate 0.035278 -0.035278 scale
start_ol
2624 1416 moveto
2624 1216 lineto
704 1216 lineto
731 778 959 549 conicto
1188 320 1597 320 conicto
1833 320 2055 384 conicto
2277 448 2496 576 conicto
2496 192 lineto
2273 67 2039 1 conicto
1805 -64 1564 -64 conicto
961 -64 608 292 conicto
256 649 256 1257 conicto
256 1886 595 2255 conicto
934 2624 1508 2624 conicto
2024 2624 2324 2299 conicto
2624 1974 2624 1416 conicto
2176 1536 moveto
2172 1857 1988 2048 conicto
1805 2240 1502 2240 conicto
1160 2240 954 2055 conicto
748 1870 717 1533 conicto
2176 1536 lineto
end_ol grestore 
gsave 18.761957 8.262004 translate 0.035278 -0.035278 scale
start_ol
2112 1311 moveto
2112 1753 1926 1996 conicto
1741 2240 1407 2240 conicto
1075 2240 889 1996 conicto
704 1753 704 1311 conicto
704 871 889 627 conicto
1075 384 1407 384 conicto
1741 384 1926 627 conicto
2112 871 2112 1311 conicto
2560 347 moveto
2560 -315 2269 -637 conicto
1978 -960 1378 -960 conicto
1156 -960 959 -913 conicto
762 -866 576 -768 conicto
576 -384 lineto
758 -482 936 -529 conicto
1114 -576 1299 -576 conicto
1707 -576 1909 -367 conicto
2112 -158 2112 264 conicto
2112 448 lineto
1983 223 1780 111 conicto
1578 0 1296 0 conicto
828 0 542 359 conicto
256 718 256 1311 conicto
256 1906 542 2265 conicto
828 2624 1296 2624 conicto
1578 2624 1780 2512 conicto
1983 2401 2112 2176 conicto
2112 2560 lineto
2560 2560 lineto
2560 347 lineto
end_ol grestore 
gsave 19.156583 8.262004 translate 0.035278 -0.035278 scale
start_ol
1510 -198 moveto
1333 -671 1165 -815 conicto
998 -960 717 -960 conicto
384 -960 lineto
384 -576 lineto
629 -576 lineto
801 -576 896 -500 conicto
991 -424 1107 -140 conicto
1181 51 lineto
128 2560 lineto
597 2560 lineto
1390 558 lineto
2182 2560 lineto
2624 2560 lineto
1510 -198 lineto
end_ol grestore 
gsave 19.523733 8.262004 translate 0.035278 -0.035278 scale
start_ol
end_ol grestore 
gsave 19.721046 8.262004 translate 0.035278 -0.035278 scale
start_ol
1632 2946 moveto
1004 1280 lineto
2262 1280 lineto
1632 2946 lineto
1371 3392 moveto
1896 3392 lineto
3200 0 lineto
2719 0 lineto
2407 896 lineto
864 896 lineto
552 0 lineto
64 0 lineto
1371 3392 lineto
end_ol grestore 
gsave 20.135657 8.262004 translate 0.035278 -0.035278 scale
start_ol
2112 2176 moveto
2112 3520 lineto
2560 3520 lineto
2560 0 lineto
2112 0 lineto
2112 384 lineto
1980 157 1779 46 conicto
1578 -64 1296 -64 conicto
835 -64 545 306 conicto
256 677 256 1280 conicto
256 1883 545 2253 conicto
835 2624 1296 2624 conicto
1578 2624 1779 2513 conicto
1980 2403 2112 2176 conicto
704 1280 moveto
704 831 891 575 conicto
1079 320 1407 320 conicto
1735 320 1923 575 conicto
2112 831 2112 1280 conicto
2112 1729 1923 1984 conicto
1735 2240 1407 2240 conicto
1079 2240 891 1984 conicto
704 1729 704 1280 conicto
end_ol grestore 
gsave 20.530283 8.262004 translate 0.035278 -0.035278 scale
start_ol
128 2560 moveto
575 2560 lineto
1376 411 lineto
2177 2560 lineto
2624 2560 lineto
1662 0 lineto
1090 0 lineto
128 2560 lineto
end_ol grestore 
gsave 20.897433 8.262004 translate 0.035278 -0.035278 scale
start_ol
448 2560 moveto
896 2560 lineto
896 0 lineto
448 0 lineto
448 2560 lineto
448 3520 moveto
896 3520 lineto
896 3008 lineto
448 3008 lineto
448 3520 lineto
end_ol grestore 
gsave 21.069768 8.262004 translate 0.035278 -0.035278 scale
start_ol
2048 2432 moveto
2048 2048 lineto
1876 2144 1691 2192 conicto
1506 2240 1308 2240 conicto
1006 2240 855 2147 conicto
704 2054 704 1868 conicto
704 1726 808 1645 conicto
913 1564 1228 1491 conicto
1362 1461 lineto
1804 1365 1990 1191 conicto
2176 1017 2176 705 conicto
2176 350 1899 143 conicto
1622 -64 1137 -64 conicto
936 -64 717 -16 conicto
498 32 256 128 conicto
256 576 lineto
481 448 699 384 conicto
918 320 1132 320 conicto
1419 320 1573 419 conicto
1728 519 1728 700 conicto
1728 868 1620 957 conicto
1513 1046 1149 1129 conicto
1013 1161 lineto
612 1243 434 1412 conicto
256 1581 256 1875 conicto
256 2234 510 2429 conicto
765 2624 1234 2624 conicto
1466 2624 1670 2576 conicto
1875 2528 2048 2432 conicto
end_ol grestore 
gsave 21.391964 8.262004 translate 0.035278 -0.035278 scale
start_ol
2624 1416 moveto
2624 1216 lineto
704 1216 lineto
731 778 959 549 conicto
1188 320 1597 320 conicto
1833 320 2055 384 conicto
2277 448 2496 576 conicto
2496 192 lineto
2273 67 2039 1 conicto
1805 -64 1564 -64 conicto
961 -64 608 292 conicto
256 649 256 1257 conicto
256 1886 595 2255 conicto
934 2624 1508 2624 conicto
2024 2624 2324 2299 conicto
2624 1974 2624 1416 conicto
2176 1536 moveto
2172 1857 1988 2048 conicto
1805 2240 1502 2240 conicto
1160 2240 954 2055 conicto
748 1870 717 1533 conicto
2176 1536 lineto
end_ol grestore 
gsave 21.774105 8.262004 translate 0.035278 -0.035278 scale
start_ol
1920 2176 moveto
1853 2209 1773 2224 conicto
1694 2240 1598 2240 conicto
1259 2240 1077 2012 conicto
896 1784 896 1357 conicto
896 0 lineto
448 0 lineto
448 2560 lineto
896 2560 lineto
896 2176 lineto
1022 2403 1224 2513 conicto
1426 2624 1716 2624 conicto
1757 2624 1807 2624 conicto
1857 2624 1918 2624 conicto
1920 2176 lineto
end_ol grestore 
gsave 16.660000 4.285125 translate 0.035278 -0.035278 scale
start_ol
2880 3414 moveto
2880 2688 lineto
2589 2815 2312 2879 conicto
2036 2944 1790 2944 conicto
1464 2944 1308 2854 conicto
1152 2765 1152 2577 conicto
1152 2436 1257 2357 conicto
1363 2278 1641 2222 conicto
2031 2144 lineto
2630 2025 2883 1783 conicto
3136 1541 3136 1095 conicto
3136 508 2782 222 conicto
2428 -64 1700 -64 conicto
1357 -64 1011 -2 conicto
666 60 320 181 conicto
320 960 lineto
666 769 988 672 conicto
1311 576 1611 576 conicto
1916 576 2078 678 conicto
2240 781 2240 971 conicto
2240 1142 2132 1234 conicto
2024 1327 1701 1400 conicto
1347 1478 lineto
813 1590 566 1836 conicto
320 2082 320 2499 conicto
320 3022 661 3303 conicto
1003 3584 1643 3584 conicto
1934 3584 2242 3541 conicto
2551 3499 2880 3414 conicto
end_ol grestore 
gsave 17.119565 4.285125 translate 0.035278 -0.035278 scale
start_ol
1344 3392 moveto
1344 2688 lineto
2240 2688 lineto
2240 2048 lineto
1344 2048 lineto
1344 948 lineto
1344 767 1420 703 conicto
1497 640 1723 640 conicto
2176 640 lineto
2176 0 lineto
1420 0 lineto
925 0 718 215 conicto
512 431 512 948 conicto
512 2048 lineto
64 2048 lineto
64 2688 lineto
512 2688 lineto
512 3392 lineto
1344 3392 lineto
end_ol grestore 
gsave 17.424274 4.285125 translate 0.035278 -0.035278 scale
start_ol
2368 1920 moveto
2254 1985 2141 2016 conicto
2028 2048 1914 2048 conicto
1578 2048 1397 1832 conicto
1216 1617 1216 1216 conicto
1216 0 lineto
384 0 lineto
384 2688 lineto
1216 2688 lineto
1216 2240 lineto
1384 2507 1601 2629 conicto
1819 2752 2123 2752 conicto
2166 2752 2217 2748 conicto
2268 2745 2366 2733 conicto
2368 1920 lineto
end_ol grestore 
gsave 17.738979 4.285125 translate 0.035278 -0.035278 scale
start_ol
1585 1216 moveto
1306 1216 1165 1125 conicto
1024 1035 1024 858 conicto
1024 696 1137 604 conicto
1251 512 1453 512 conicto
1704 512 1876 685 conicto
2048 858 2048 1118 conicto
2048 1216 lineto
1585 1216 lineto
2880 1541 moveto
2880 0 lineto
2048 0 lineto
2048 384 lineto
1875 150 1658 43 conicto
1442 -64 1132 -64 conicto
714 -64 453 180 conicto
192 424 192 813 conicto
192 1286 513 1507 conicto
834 1728 1522 1728 conicto
2048 1728 lineto
2048 1800 lineto
2048 1995 1889 2085 conicto
1730 2176 1393 2176 conicto
1120 2176 885 2128 conicto
650 2080 448 1984 conicto
448 2624 lineto
715 2687 984 2719 conicto
1253 2752 1522 2752 conicto
2241 2752 2560 2467 conicto
2880 2182 2880 1541 conicto
end_ol grestore 
gsave 18.171068 4.285125 translate 0.035278 -0.035278 scale
start_ol
1344 3392 moveto
1344 2688 lineto
2240 2688 lineto
2240 2048 lineto
1344 2048 lineto
1344 948 lineto
1344 767 1420 703 conicto
1497 640 1723 640 conicto
2176 640 lineto
2176 0 lineto
1420 0 lineto
925 0 718 215 conicto
512 431 512 948 conicto
512 2048 lineto
64 2048 lineto
64 2688 lineto
512 2688 lineto
512 3392 lineto
1344 3392 lineto
end_ol grestore 
gsave 18.475778 4.285125 translate 0.035278 -0.035278 scale
start_ol
3072 1388 moveto
3072 1152 lineto
1024 1152 lineto
1056 832 1247 672 conicto
1438 512 1781 512 conicto
2057 512 2347 591 conicto
2638 671 2944 832 conicto
2944 192 lineto
2640 65 2335 0 conicto
2031 -64 1727 -64 conicto
999 -64 595 306 conicto
192 676 192 1344 conicto
192 2000 588 2376 conicto
985 2752 1680 2752 conicto
2312 2752 2692 2380 conicto
3072 2009 3072 1388 conicto
2240 1664 moveto
2240 1894 2085 2035 conicto
1931 2176 1682 2176 conicto
1413 2176 1244 2044 conicto
1075 1912 1034 1664 conicto
2240 1664 lineto
end_ol grestore 
gsave 18.910364 4.285125 translate 0.035278 -0.035278 scale
start_ol
2240 448 moveto
2060 217 1843 108 conicto
1627 0 1342 0 conicto
844 0 518 388 conicto
192 776 192 1377 conicto
192 1980 518 2366 conicto
844 2752 1342 2752 conicto
1627 2752 1843 2644 conicto
2060 2536 2240 2304 conicto
2240 2688 lineto
3072 2688 lineto
3072 266 lineto
3072 -362 2662 -693 conicto
2252 -1024 1474 -1024 conicto
1221 -1024 985 -976 conicto
750 -929 512 -832 conicto
512 -192 lineto
742 -321 963 -384 conicto
1184 -448 1407 -448 conicto
1838 -448 2039 -275 conicto
2240 -102 2240 266 conicto
2240 448 lineto
1663 2112 moveto
1391 2112 1239 1919 conicto
1088 1727 1088 1375 conicto
1088 1013 1235 826 conicto
1382 640 1663 640 conicto
1937 640 2088 832 conicto
2240 1025 2240 1375 conicto
2240 1727 2088 1919 conicto
1937 2112 1663 2112 conicto
end_ol grestore 
gsave 19.367432 4.285125 translate 0.035278 -0.035278 scale
start_ol
384 2688 moveto
1216 2688 lineto
1216 0 lineto
384 0 lineto
384 2688 lineto
384 3712 moveto
1216 3712 lineto
1216 3008 lineto
384 3008 lineto
384 3712 lineto
end_ol grestore 
gsave 19.587226 4.285125 translate 0.035278 -0.035278 scale
start_ol
2560 2560 moveto
2560 1856 lineto
2386 1987 2210 2049 conicto
2034 2112 1846 2112 conicto
1487 2112 1287 1909 conicto
1088 1707 1088 1344 conicto
1088 981 1287 778 conicto
1487 576 1846 576 conicto
2046 576 2226 640 conicto
2407 705 2560 832 conicto
2560 128 lineto
2359 32 2152 -16 conicto
1945 -64 1736 -64 conicto
1011 -64 601 308 conicto
192 681 192 1344 conicto
192 2007 601 2379 conicto
1011 2752 1736 2752 conicto
1947 2752 2151 2704 conicto
2356 2656 2560 2560 conicto
end_ol grestore 
gsave 19.966870 4.285125 translate 0.035278 -0.035278 scale
start_ol
end_ol grestore 
gsave 20.189161 4.285125 translate 0.035278 -0.035278 scale
start_ol
2571 640 moveto
1143 640 lineto
918 0 lineto
0 0 lineto
1312 3520 lineto
2400 3520 lineto
3712 0 lineto
2794 0 lineto
2571 640 lineto
1371 1280 moveto
2341 1280 lineto
1857 2689 lineto
1371 1280 lineto
end_ol grestore 
gsave 20.683692 4.285125 translate 0.035278 -0.035278 scale
start_ol
2240 448 moveto
2060 217 1843 108 conicto
1627 0 1342 0 conicto
844 0 518 388 conicto
192 776 192 1377 conicto
192 1980 518 2366 conicto
844 2752 1342 2752 conicto
1627 2752 1843 2644 conicto
2060 2536 2240 2304 conicto
2240 2688 lineto
3072 2688 lineto
3072 266 lineto
3072 -362 2662 -693 conicto
2252 -1024 1474 -1024 conicto
1221 -1024 985 -976 conicto
750 -929 512 -832 conicto
512 -192 lineto
742 -321 963 -384 conicto
1184 -448 1407 -448 conicto
1838 -448 2039 -275 conicto
2240 -102 2240 266 conicto
2240 448 lineto
1663 2112 moveto
1391 2112 1239 1919 conicto
1088 1727 1088 1375 conicto
1088 1013 1235 826 conicto
1382 640 1663 640 conicto
1937 640 2088 832 conicto
2240 1025 2240 1375 conicto
2240 1727 2088 1919 conicto
1937 2112 1663 2112 conicto
end_ol grestore 
gsave 21.140760 4.285125 translate 0.035278 -0.035278 scale
start_ol
3072 1388 moveto
3072 1152 lineto
1024 1152 lineto
1056 832 1247 672 conicto
1438 512 1781 512 conicto
2057 512 2347 591 conicto
2638 671 2944 832 conicto
2944 192 lineto
2640 65 2335 0 conicto
2031 -64 1727 -64 conicto
999 -64 595 306 conicto
192 676 192 1344 conicto
192 2000 588 2376 conicto
985 2752 1680 2752 conicto
2312 2752 2692 2380 conicto
3072 2009 3072 1388 conicto
2240 1664 moveto
2240 1894 2085 2035 conicto
1931 2176 1682 2176 conicto
1413 2176 1244 2044 conicto
1075 1912 1034 1664 conicto
2240 1664 lineto
end_ol grestore 
gsave 21.575346 4.285125 translate 0.035278 -0.035278 scale
start_ol
3072 1642 moveto
3072 0 lineto
2240 0 lineto
2240 267 lineto
2240 1257 lineto
2240 1606 2223 1738 conicto
2207 1871 2167 1934 conicto
2115 2018 2024 2065 conicto
1934 2112 1818 2112 conicto
1537 2112 1376 1903 conicto
1216 1695 1216 1327 conicto
1216 0 lineto
384 0 lineto
384 2688 lineto
1216 2688 lineto
1216 2304 lineto
1412 2534 1632 2643 conicto
1852 2752 2117 2752 conicto
2586 2752 2829 2468 conicto
3072 2184 3072 1642 conicto
end_ol grestore 
gsave 22.029917 4.285125 translate 0.035278 -0.035278 scale
start_ol
1344 3392 moveto
1344 2688 lineto
2240 2688 lineto
2240 2048 lineto
1344 2048 lineto
1344 948 lineto
1344 767 1420 703 conicto
1497 640 1723 640 conicto
2176 640 lineto
2176 0 lineto
1420 0 lineto
925 0 718 215 conicto
512 431 512 948 conicto
512 2048 lineto
64 2048 lineto
64 2688 lineto
512 2688 lineto
512 3392 lineto
1344 3392 lineto
end_ol grestore 
0.100000 slw
[] 0 sd
[] 0 sd
1 slj
0 slc
n 23.425800 9.521170 0.250000 0.250000 0.000000 90.000000 ellipse s
n 22.768803 9.771170 m 23.425800 9.771170 l s
n 23.425800 8.322560 0.250000 0.250000 270.000000 360.000000 ellipse s
n 23.675800 9.521170 m 23.675800 8.322560 l s
n 23.425800 8.072560 m 22.945614 8.072560 l s
[] 0 sd
0 slj
0 slc
n 22.543803 9.771170 m 22.843803 9.621170 l 22.768803 9.771170 l 22.843803 9.921170 l ef
n 22.543803 9.771170 m 22.843803 9.621170 l 22.768803 9.771170 l 22.843803 9.921170 l cp s
[] 0 sd
0 slj
0 slc
n 22.608114 8.072560 m 23.058114 7.922560 l 22.945614 8.072560 l 23.058114 8.222560 l ef
n 22.608114 8.072560 m 23.058114 7.922560 l 22.945614 8.072560 l 23.058114 8.222560 l cp s
0.100000 slw
[] 0 sd
[] 0 sd
1 slj
0 slc
n 15.700000 5.528620 0.250000 0.250000 180.000000 270.000000 ellipse s
n 16.550000 5.278620 m 15.700000 5.278620 l s
n 15.628327 7.894233 0.178327 0.178327 90.000000 180.000000 ellipse s
n 15.450000 5.528620 m 15.450000 7.894233 l s
n 15.628327 8.072560 m 15.954386 8.072560 l s
[] 0 sd
0 slj
0 slc
n 16.291886 8.072560 m 15.841886 8.222560 l 15.954386 8.072560 l 15.841886 7.922560 l ef
n 16.291886 8.072560 m 15.841886 8.222560 l 15.954386 8.072560 l 15.841886 7.922560 l cp s
0.100000 slw
[] 0 sd
[] 0 sd
1 slj
0 slc
n 23.300000 3.281986 0.250000 0.250000 270.000000 0.000000 ellipse s
n 22.544431 3.031986 m 23.300000 3.031986 l s
n 23.371673 5.100293 0.178327 0.178327 0.000000 90.000000 ellipse s
n 23.550000 3.281986 m 23.550000 5.100293 l s
n 23.371673 5.278620 m 23.045614 5.278620 l s
[] 0 sd
0 slj
0 slc
n 22.708114 5.278620 m 23.158114 5.128620 l 23.045614 5.278620 l 23.158114 5.428620 l ef
n 22.708114 5.278620 m 23.158114 5.128620 l 23.045614 5.278620 l 23.158114 5.428620 l cp s
0.100000 slw
[] 0 sd
[] 0 sd
0 slj
1.000000 1.000000 1.000000 srgb
n 3.750000 2.050000 m 3.750000 12.875000 l 12.220637 12.875000 l 12.220637 2.050000 l f
0.000000 0.000000 0.000000 srgb
n 3.750000 2.050000 m 3.750000 12.875000 l 12.220637 12.875000 l 12.220637 2.050000 l cp s
0.100000 slw
[] 0 sd
[] 0 sd
0 slj
0.847059 0.898039 0.898039 srgb
n 4.518200 4.596190 m 4.518200 10.571242 l 11.518200 10.571242 l 11.518200 4.596190 l f
0.000000 0.000000 0.000000 srgb
n 4.518200 4.596190 m 4.518200 10.571242 l 11.518200 10.571242 l 11.518200 4.596190 l cp s
1.000000 1.000000 1.000000 srgb
n 4.477820 11.320700 m 4.477820 12.420700 l 10.912135 12.420700 l 10.912135 11.320700 l f
0.100000 slw
[] 0 sd
[] 0 sd
0 slj
0.000000 0.000000 0.000000 srgb
n 4.477820 11.320700 m 4.477820 12.420700 l 10.912135 12.420700 l 10.912135 11.320700 l cp s
gsave 4.918727 12.060144 translate 0.035278 -0.035278 scale
start_ol
896 1600 moveto
896 384 lineto
1667 384 lineto
2024 384 2196 534 conicto
2368 684 2368 993 conicto
2368 1304 2196 1452 conicto
2024 1600 1667 1600 conicto
896 1600 lineto
896 3008 moveto
896 1984 lineto
1607 1984 lineto
1959 1984 2131 2110 conicto
2304 2237 2304 2496 conicto
2304 2753 2131 2880 conicto
1959 3008 1607 3008 conicto
896 3008 lineto
448 3392 moveto
1643 3392 lineto
2176 3392 2464 3172 conicto
2752 2952 2752 2546 conicto
2752 2232 2608 2046 conicto
2465 1861 2187 1815 conicto
2516 1743 2698 1514 conicto
2880 1285 2880 942 conicto
2880 492 2570 246 conicto
2261 0 1690 0 conicto
448 0 lineto
448 3392 lineto
end_ol grestore 
gsave 5.343326 12.060144 translate 0.035278 -0.035278 scale
start_ol
1579 1280 moveto
1085 1280 894 1168 conicto
704 1056 704 787 conicto
704 572 847 446 conicto
990 320 1235 320 conicto
1574 320 1779 557 conicto
1984 794 1984 1187 conicto
1984 1280 lineto
1579 1280 lineto
2432 1449 moveto
2432 0 lineto
1984 0 lineto
1984 384 lineto
1841 154 1628 45 conicto
1415 -64 1106 -64 conicto
716 -64 486 154 conicto
256 372 256 739 conicto
256 1166 546 1383 conicto
837 1600 1413 1600 conicto
1984 1600 lineto
1984 1642 lineto
1984 1928 1795 2084 conicto
1607 2240 1266 2240 conicto
1049 2240 843 2192 conicto
638 2144 448 2048 conicto
448 2432 lineto
680 2528 898 2576 conicto
1116 2624 1323 2624 conicto
1881 2624 2156 2332 conicto
2432 2041 2432 1449 conicto
end_ol grestore 
gsave 5.722970 12.060144 translate 0.035278 -0.035278 scale
start_ol
448 3520 moveto
896 3520 lineto
896 0 lineto
448 0 lineto
448 3520 lineto
end_ol grestore 
gsave 5.895304 12.060144 translate 0.035278 -0.035278 scale
start_ol
448 3520 moveto
896 3520 lineto
896 0 lineto
448 0 lineto
448 3520 lineto
end_ol grestore 
gsave 6.067639 12.060144 translate 0.035278 -0.035278 scale
start_ol
1441 2240 moveto
1100 2240 902 1983 conicto
704 1727 704 1280 conicto
704 833 901 576 conicto
1098 320 1441 320 conicto
1780 320 1978 578 conicto
2176 836 2176 1280 conicto
2176 1722 1978 1981 conicto
1780 2240 1441 2240 conicto
1440 2624 moveto
1993 2624 2308 2267 conicto
2624 1911 2624 1280 conicto
2624 651 2308 293 conicto
1993 -64 1440 -64 conicto
885 -64 570 293 conicto
256 651 256 1280 conicto
256 1911 570 2267 conicto
885 2624 1440 2624 conicto
end_ol grestore 
gsave 6.447283 12.060144 translate 0.035278 -0.035278 scale
start_ol
1441 2240 moveto
1100 2240 902 1983 conicto
704 1727 704 1280 conicto
704 833 901 576 conicto
1098 320 1441 320 conicto
1780 320 1978 578 conicto
2176 836 2176 1280 conicto
2176 1722 1978 1981 conicto
1780 2240 1441 2240 conicto
1440 2624 moveto
1993 2624 2308 2267 conicto
2624 1911 2624 1280 conicto
2624 651 2308 293 conicto
1993 -64 1440 -64 conicto
885 -64 570 293 conicto
256 651 256 1280 conicto
256 1911 570 2267 conicto
885 2624 1440 2624 conicto
end_ol grestore 
gsave 6.826927 12.060144 translate 0.035278 -0.035278 scale
start_ol
2560 1555 moveto
2560 0 lineto
2112 0 lineto
2112 1541 lineto
2112 1892 1979 2066 conicto
1847 2240 1582 2240 conicto
1264 2240 1080 2029 conicto
896 1819 896 1456 conicto
896 0 lineto
448 0 lineto
448 2560 lineto
896 2560 lineto
896 2176 lineto
1042 2401 1239 2512 conicto
1437 2624 1696 2624 conicto
2122 2624 2341 2353 conicto
2560 2082 2560 1555 conicto
end_ol grestore 
gsave 7.219056 12.060144 translate 0.035278 -0.035278 scale
start_ol
end_ol grestore 
gsave 7.416369 12.060144 translate 0.035278 -0.035278 scale
start_ol
3008 3136 moveto
3008 2624 lineto
2777 2849 2516 2960 conicto
2255 3072 1961 3072 conicto
1383 3072 1075 2718 conicto
768 2364 768 1695 conicto
768 1028 1075 674 conicto
1383 320 1961 320 conicto
2255 320 2516 431 conicto
2777 543 3008 768 conicto
3008 256 lineto
2766 96 2495 16 conicto
2224 -64 1922 -64 conicto
1147 -64 701 407 conicto
256 879 256 1695 conicto
256 2513 701 2984 conicto
1147 3456 1922 3456 conicto
2229 3456 2499 3376 conicto
2770 3296 3008 3136 conicto
end_ol grestore 
gsave 7.848459 12.060144 translate 0.035278 -0.035278 scale
start_ol
1441 2240 moveto
1100 2240 902 1983 conicto
704 1727 704 1280 conicto
704 833 901 576 conicto
1098 320 1441 320 conicto
1780 320 1978 578 conicto
2176 836 2176 1280 conicto
2176 1722 1978 1981 conicto
1780 2240 1441 2240 conicto
1440 2624 moveto
1993 2624 2308 2267 conicto
2624 1911 2624 1280 conicto
2624 651 2308 293 conicto
1993 -64 1440 -64 conicto
885 -64 570 293 conicto
256 651 256 1280 conicto
256 1911 570 2267 conicto
885 2624 1440 2624 conicto
end_ol grestore 
gsave 8.228103 12.060144 translate 0.035278 -0.035278 scale
start_ol
2560 1555 moveto
2560 0 lineto
2112 0 lineto
2112 1541 lineto
2112 1892 1979 2066 conicto
1847 2240 1582 2240 conicto
1264 2240 1080 2029 conicto
896 1819 896 1456 conicto
896 0 lineto
448 0 lineto
448 2560 lineto
896 2560 lineto
896 2176 lineto
1042 2401 1239 2512 conicto
1437 2624 1696 2624 conicto
2122 2624 2341 2353 conicto
2560 2082 2560 1555 conicto
end_ol grestore 
gsave 8.620232 12.060144 translate 0.035278 -0.035278 scale
start_ol
896 3264 moveto
896 2560 lineto
1792 2560 lineto
1792 2240 lineto
896 2240 lineto
896 869 lineto
896 560 984 472 conicto
1073 384 1345 384 conicto
1792 384 lineto
1792 0 lineto
1345 0 lineto
836 0 642 187 conicto
448 374 448 869 conicto
448 2240 lineto
128 2240 lineto
128 2560 lineto
448 2560 lineto
448 3264 lineto
896 3264 lineto
end_ol grestore 
gsave 8.862499 12.060144 translate 0.035278 -0.035278 scale
start_ol
1920 2176 moveto
1853 2209 1773 2224 conicto
1694 2240 1598 2240 conicto
1259 2240 1077 2012 conicto
896 1784 896 1357 conicto
896 0 lineto
448 0 lineto
448 2560 lineto
896 2560 lineto
896 2176 lineto
1022 2403 1224 2513 conicto
1426 2624 1716 2624 conicto
1757 2624 1807 2624 conicto
1857 2624 1918 2624 conicto
1920 2176 lineto
end_ol grestore 
gsave 9.104766 12.060144 translate 0.035278 -0.035278 scale
start_ol
1441 2240 moveto
1100 2240 902 1983 conicto
704 1727 704 1280 conicto
704 833 901 576 conicto
1098 320 1441 320 conicto
1780 320 1978 578 conicto
2176 836 2176 1280 conicto
2176 1722 1978 1981 conicto
1780 2240 1441 2240 conicto
1440 2624 moveto
1993 2624 2308 2267 conicto
2624 1911 2624 1280 conicto
2624 651 2308 293 conicto
1993 -64 1440 -64 conicto
885 -64 570 293 conicto
256 651 256 1280 conicto
256 1911 570 2267 conicto
885 2624 1440 2624 conicto
end_ol grestore 
gsave 9.484410 12.060144 translate 0.035278 -0.035278 scale
start_ol
448 3520 moveto
896 3520 lineto
896 0 lineto
448 0 lineto
448 3520 lineto
end_ol grestore 
gsave 9.656745 12.060144 translate 0.035278 -0.035278 scale
start_ol
448 3520 moveto
896 3520 lineto
896 0 lineto
448 0 lineto
448 3520 lineto
end_ol grestore 
gsave 9.829080 12.060144 translate 0.035278 -0.035278 scale
start_ol
2624 1416 moveto
2624 1216 lineto
704 1216 lineto
731 778 959 549 conicto
1188 320 1597 320 conicto
1833 320 2055 384 conicto
2277 448 2496 576 conicto
2496 192 lineto
2273 67 2039 1 conicto
1805 -64 1564 -64 conicto
961 -64 608 292 conicto
256 649 256 1257 conicto
256 1886 595 2255 conicto
934 2624 1508 2624 conicto
2024 2624 2324 2299 conicto
2624 1974 2624 1416 conicto
2176 1536 moveto
2172 1857 1988 2048 conicto
1805 2240 1502 2240 conicto
1160 2240 954 2055 conicto
748 1870 717 1533 conicto
2176 1536 lineto
end_ol grestore 
gsave 10.211221 12.060144 translate 0.035278 -0.035278 scale
start_ol
1920 2176 moveto
1853 2209 1773 2224 conicto
1694 2240 1598 2240 conicto
1259 2240 1077 2012 conicto
896 1784 896 1357 conicto
896 0 lineto
448 0 lineto
448 2560 lineto
896 2560 lineto
896 2176 lineto
1022 2403 1224 2513 conicto
1426 2624 1716 2624 conicto
1757 2624 1807 2624 conicto
1857 2624 1918 2624 conicto
1920 2176 lineto
end_ol grestore 
gsave 7.155320 1.897500 translate 0.035278 -0.035278 scale
start_ol
448 3520 moveto
1344 3520 lineto
1344 2176 lineto
2752 2176 lineto
2752 3520 lineto
3648 3520 lineto
3648 0 lineto
2752 0 lineto
2752 1472 lineto
1344 1472 lineto
1344 0 lineto
448 0 lineto
448 3520 lineto
end_ol grestore 
gsave 7.689820 1.897500 translate 0.035278 -0.035278 scale
start_ol
1668 2112 moveto
1385 2112 1236 1914 conicto
1088 1716 1088 1344 conicto
1088 972 1236 774 conicto
1385 576 1668 576 conicto
1945 576 2092 774 conicto
2240 972 2240 1344 conicto
2240 1716 2092 1914 conicto
1945 2112 1668 2112 conicto
1668 2752 moveto
2359 2752 2747 2378 conicto
3136 2005 3136 1344 conicto
3136 683 2747 309 conicto
2359 -64 1668 -64 conicto
974 -64 583 309 conicto
192 683 192 1344 conicto
192 2005 583 2378 conicto
974 2752 1668 2752 conicto
end_ol grestore 
gsave 8.129408 1.897500 translate 0.035278 -0.035278 scale
start_ol
2496 2560 moveto
2496 1920 lineto
2225 2048 1973 2112 conicto
1721 2176 1497 2176 conicto
1257 2176 1140 2113 conicto
1024 2050 1024 1919 conicto
1024 1812 1117 1755 conicto
1211 1698 1452 1671 conicto
1609 1650 lineto
2247 1567 2467 1378 conicto
2688 1189 2688 785 conicto
2688 362 2375 149 conicto
2062 -64 1441 -64 conicto
1178 -64 897 -16 conicto
616 32 320 128 conicto
320 768 lineto
580 640 853 576 conicto
1126 512 1408 512 conicto
1663 512 1791 581 conicto
1920 650 1920 785 conicto
1920 899 1829 955 conicto
1738 1011 1467 1042 conicto
1310 1061 lineto
726 1133 491 1326 conicto
256 1520 256 1915 conicto
256 2341 546 2546 conicto
837 2752 1437 2752 conicto
1672 2752 1931 2705 conicto
2191 2659 2496 2560 conicto
end_ol grestore 
gsave 8.509052 1.897500 translate 0.035278 -0.035278 scale
start_ol
1344 3392 moveto
1344 2688 lineto
2240 2688 lineto
2240 2048 lineto
1344 2048 lineto
1344 948 lineto
1344 767 1420 703 conicto
1497 640 1723 640 conicto
2176 640 lineto
2176 0 lineto
1420 0 lineto
925 0 718 215 conicto
512 431 512 948 conicto
512 2048 lineto
64 2048 lineto
64 2688 lineto
512 2688 lineto
512 3392 lineto
1344 3392 lineto
end_ol grestore 
0.100000 slw
[] 0 sd
[] 0 sd
1 slj
0 slc
n 0.000000 3.000000 0.000000 0.000000 360.000000 360.000000 ellipse s
n 10.912135 11.870700 m 10.912135 11.870700 l s
n 10.912135 11.870700 m 15.554386 11.870700 l s
[] 0 sd
0 slj
0 slc
n 15.891886 11.870700 m 15.441886 12.020700 l 15.554386 11.870700 l 15.441886 11.720700 l ef
n 15.891886 11.870700 m 15.441886 12.020700 l 15.554386 11.870700 l 15.441886 11.720700 l cp s
0.100000 slw
[] 0 sd
[] 0 sd
1 slj
0 slc
n 15.936386 9.771170 m 10.948486 9.771170 l s
[] 0 sd
0 slj
0 slc
n 16.273886 9.771170 m 15.823886 9.921170 l 15.936386 9.771170 l 15.823886 9.621170 l ef
n 16.273886 9.771170 m 15.823886 9.921170 l 15.936386 9.771170 l 15.823886 9.621170 l cp s
[] 0 sd
0 slj
0 slc
n 10.610986 9.771170 m 11.060986 9.621170 l 10.948486 9.771170 l 11.060986 9.921170 l ef
n 10.610986 9.771170 m 11.060986 9.621170 l 10.948486 9.771170 l 11.060986 9.921170 l cp s
gsave 18.450000 1.847500 translate 0.035278 -0.035278 scale
start_ol
3648 257 moveto
3306 97 2938 16 conicto
2570 -64 2178 -64 conicto
1292 -64 774 427 conicto
256 918 256 1759 conicto
256 2609 784 3096 conicto
1312 3584 2229 3584 conicto
2583 3584 2907 3519 conicto
3232 3455 3520 3329 conicto
3520 2624 lineto
3225 2785 2933 2864 conicto
2641 2944 2348 2944 conicto
1804 2944 1510 2637 conicto
1216 2330 1216 1759 conicto
1216 1192 1504 884 conicto
1793 576 2325 576 conicto
2470 576 2593 594 conicto
2717 612 2816 650 conicto
2816 1344 lineto
2240 1344 lineto
2240 1984 lineto
3648 1984 lineto
3648 257 lineto
end_ol grestore 
gsave 18.974503 1.847500 translate 0.035278 -0.035278 scale
start_ol
384 1043 moveto
384 2688 lineto
1216 2688 lineto
1216 2419 lineto
1216 2200 1213 1869 conicto
1211 1538 1211 1428 conicto
1211 1103 1228 960 conicto
1246 817 1289 752 conicto
1344 667 1433 621 conicto
1522 576 1638 576 conicto
1919 576 2079 783 conicto
2240 990 2240 1358 conicto
2240 2688 lineto
3072 2688 lineto
3072 0 lineto
2240 0 lineto
2240 384 lineto
2044 154 1825 45 conicto
1607 -64 1343 -64 conicto
875 -64 629 219 conicto
384 503 384 1043 conicto
end_ol grestore 
gsave 19.429074 1.847500 translate 0.035278 -0.035278 scale
start_ol
3072 1388 moveto
3072 1152 lineto
1024 1152 lineto
1056 832 1247 672 conicto
1438 512 1781 512 conicto
2057 512 2347 591 conicto
2638 671 2944 832 conicto
2944 192 lineto
2640 65 2335 0 conicto
2031 -64 1727 -64 conicto
999 -64 595 306 conicto
192 676 192 1344 conicto
192 2000 588 2376 conicto
985 2752 1680 2752 conicto
2312 2752 2692 2380 conicto
3072 2009 3072 1388 conicto
2240 1664 moveto
2240 1894 2085 2035 conicto
1931 2176 1682 2176 conicto
1413 2176 1244 2044 conicto
1075 1912 1034 1664 conicto
2240 1664 lineto
end_ol grestore 
gsave 19.863660 1.847500 translate 0.035278 -0.035278 scale
start_ol
2496 2560 moveto
2496 1920 lineto
2225 2048 1973 2112 conicto
1721 2176 1497 2176 conicto
1257 2176 1140 2113 conicto
1024 2050 1024 1919 conicto
1024 1812 1117 1755 conicto
1211 1698 1452 1671 conicto
1609 1650 lineto
2247 1567 2467 1378 conicto
2688 1189 2688 785 conicto
2688 362 2375 149 conicto
2062 -64 1441 -64 conicto
1178 -64 897 -16 conicto
616 32 320 128 conicto
320 768 lineto
580 640 853 576 conicto
1126 512 1408 512 conicto
1663 512 1791 581 conicto
1920 650 1920 785 conicto
1920 899 1829 955 conicto
1738 1011 1467 1042 conicto
1310 1061 lineto
726 1133 491 1326 conicto
256 1520 256 1915 conicto
256 2341 546 2546 conicto
837 2752 1437 2752 conicto
1672 2752 1931 2705 conicto
2191 2659 2496 2560 conicto
end_ol grestore 
gsave 20.243304 1.847500 translate 0.035278 -0.035278 scale
start_ol
1344 3392 moveto
1344 2688 lineto
2240 2688 lineto
2240 2048 lineto
1344 2048 lineto
1344 948 lineto
1344 767 1420 703 conicto
1497 640 1723 640 conicto
2176 640 lineto
2176 0 lineto
1420 0 lineto
925 0 718 215 conicto
512 431 512 948 conicto
512 2048 lineto
64 2048 lineto
64 2688 lineto
512 2688 lineto
512 3392 lineto
1344 3392 lineto
end_ol grestore 
gsave 6.443200 4.406315 translate 0.035278 -0.035278 scale
start_ol
3648 257 moveto
3306 97 2938 16 conicto
2570 -64 2178 -64 conicto
1292 -64 774 427 conicto
256 918 256 1759 conicto
256 2609 784 3096 conicto
1312 3584 2229 3584 conicto
2583 3584 2907 3519 conicto
3232 3455 3520 3329 conicto
3520 2624 lineto
3225 2785 2933 2864 conicto
2641 2944 2348 2944 conicto
1804 2944 1510 2637 conicto
1216 2330 1216 1759 conicto
1216 1192 1504 884 conicto
1793 576 2325 576 conicto
2470 576 2593 594 conicto
2717 612 2816 650 conicto
2816 1344 lineto
2240 1344 lineto
2240 1984 lineto
3648 1984 lineto
3648 257 lineto
end_ol grestore 
gsave 6.967703 4.406315 translate 0.035278 -0.035278 scale
start_ol
384 2688 moveto
1216 2688 lineto
1216 0 lineto
384 0 lineto
384 2688 lineto
384 3712 moveto
1216 3712 lineto
1216 3008 lineto
384 3008 lineto
384 3712 lineto
end_ol grestore 
gsave 7.187498 4.406315 translate 0.035278 -0.035278 scale
start_ol
3072 1642 moveto
3072 0 lineto
2240 0 lineto
2240 267 lineto
2240 1257 lineto
2240 1606 2223 1738 conicto
2207 1871 2167 1934 conicto
2115 2018 2024 2065 conicto
1934 2112 1818 2112 conicto
1537 2112 1376 1903 conicto
1216 1695 1216 1327 conicto
1216 0 lineto
384 0 lineto
384 2688 lineto
1216 2688 lineto
1216 2304 lineto
1412 2534 1632 2643 conicto
1852 2752 2117 2752 conicto
2586 2752 2829 2468 conicto
3072 2184 3072 1642 conicto
end_ol grestore 
gsave 7.642068 4.406315 translate 0.035278 -0.035278 scale
start_ol
2496 2560 moveto
2496 1920 lineto
2225 2048 1973 2112 conicto
1721 2176 1497 2176 conicto
1257 2176 1140 2113 conicto
1024 2050 1024 1919 conicto
1024 1812 1117 1755 conicto
1211 1698 1452 1671 conicto
1609 1650 lineto
2247 1567 2467 1378 conicto
2688 1189 2688 785 conicto
2688 362 2375 149 conicto
2062 -64 1441 -64 conicto
1178 -64 897 -16 conicto
616 32 320 128 conicto
320 768 lineto
580 640 853 576 conicto
1126 512 1408 512 conicto
1663 512 1791 581 conicto
1920 650 1920 785 conicto
1920 899 1829 955 conicto
1738 1011 1467 1042 conicto
1310 1061 lineto
726 1133 491 1326 conicto
256 1520 256 1915 conicto
256 2341 546 2546 conicto
837 2752 1437 2752 conicto
1672 2752 1931 2705 conicto
2191 2659 2496 2560 conicto
end_ol grestore 
gsave 8.021712 4.406315 translate 0.035278 -0.035278 scale
start_ol
3072 1388 moveto
3072 1152 lineto
1024 1152 lineto
1056 832 1247 672 conicto
1438 512 1781 512 conicto
2057 512 2347 591 conicto
2638 671 2944 832 conicto
2944 192 lineto
2640 65 2335 0 conicto
2031 -64 1727 -64 conicto
999 -64 595 306 conicto
192 676 192 1344 conicto
192 2000 588 2376 conicto
985 2752 1680 2752 conicto
2312 2752 2692 2380 conicto
3072 2009 3072 1388 conicto
2240 1664 moveto
2240 1894 2085 2035 conicto
1931 2176 1682 2176 conicto
1413 2176 1244 2044 conicto
1075 1912 1034 1664 conicto
2240 1664 lineto
end_ol grestore 
gsave 8.456299 4.406315 translate 0.035278 -0.035278 scale
start_ol
3072 1642 moveto
3072 0 lineto
2240 0 lineto
2240 267 lineto
2240 1257 lineto
2240 1606 2223 1738 conicto
2207 1871 2167 1934 conicto
2115 2018 2024 2065 conicto
1934 2112 1818 2112 conicto
1537 2112 1376 1903 conicto
1216 1695 1216 1327 conicto
1216 0 lineto
384 0 lineto
384 2688 lineto
1216 2688 lineto
1216 2304 lineto
1412 2534 1632 2643 conicto
1852 2752 2117 2752 conicto
2586 2752 2829 2468 conicto
3072 2184 3072 1642 conicto
end_ol grestore 
gsave 8.910870 4.406315 translate 0.035278 -0.035278 scale
start_ol
2240 448 moveto
2060 217 1843 108 conicto
1627 0 1342 0 conicto
844 0 518 388 conicto
192 776 192 1377 conicto
192 1980 518 2366 conicto
844 2752 1342 2752 conicto
1627 2752 1843 2644 conicto
2060 2536 2240 2304 conicto
2240 2688 lineto
3072 2688 lineto
3072 266 lineto
3072 -362 2662 -693 conicto
2252 -1024 1474 -1024 conicto
1221 -1024 985 -976 conicto
750 -929 512 -832 conicto
512 -192 lineto
742 -321 963 -384 conicto
1184 -448 1407 -448 conicto
1838 -448 2039 -275 conicto
2240 -102 2240 266 conicto
2240 448 lineto
1663 2112 moveto
1391 2112 1239 1919 conicto
1088 1727 1088 1375 conicto
1088 1013 1235 826 conicto
1382 640 1663 640 conicto
1937 640 2088 832 conicto
2240 1025 2240 1375 conicto
2240 1727 2088 1919 conicto
1937 2112 1663 2112 conicto
end_ol grestore 
gsave 9.367937 4.406315 translate 0.035278 -0.035278 scale
start_ol
end_ol grestore 
1.000000 1.000000 1.000000 srgb
n 5.008150 9.221170 m 5.008150 10.321170 l 10.452872 10.321170 l 10.452872 9.221170 l f
0.100000 slw
[] 0 sd
[] 0 sd
0 slj
0.000000 0.000000 0.000000 srgb
n 5.008150 9.221170 m 5.008150 10.321170 l 10.452872 10.321170 l 10.452872 9.221170 l cp s
gsave 5.440511 9.960614 translate 0.035278 -0.035278 scale
start_ol
3008 3136 moveto
3008 2624 lineto
2777 2849 2516 2960 conicto
2255 3072 1961 3072 conicto
1383 3072 1075 2718 conicto
768 2364 768 1695 conicto
768 1028 1075 674 conicto
1383 320 1961 320 conicto
2255 320 2516 431 conicto
2777 543 3008 768 conicto
3008 256 lineto
2766 96 2495 16 conicto
2224 -64 1922 -64 conicto
1147 -64 701 407 conicto
256 879 256 1695 conicto
256 2513 701 2984 conicto
1147 3456 1922 3456 conicto
2229 3456 2499 3376 conicto
2770 3296 3008 3136 conicto
end_ol grestore 
gsave 5.872600 9.960614 translate 0.035278 -0.035278 scale
start_ol
1441 2240 moveto
1100 2240 902 1983 conicto
704 1727 704 1280 conicto
704 833 901 576 conicto
1098 320 1441 320 conicto
1780 320 1978 578 conicto
2176 836 2176 1280 conicto
2176 1722 1978 1981 conicto
1780 2240 1441 2240 conicto
1440 2624 moveto
1993 2624 2308 2267 conicto
2624 1911 2624 1280 conicto
2624 651 2308 293 conicto
1993 -64 1440 -64 conicto
885 -64 570 293 conicto
256 651 256 1280 conicto
256 1911 570 2267 conicto
885 2624 1440 2624 conicto
end_ol grestore 
gsave 6.252245 9.960614 translate 0.035278 -0.035278 scale
start_ol
2421 2082 moveto
2574 2360 2786 2492 conicto
2999 2624 3287 2624 conicto
3675 2624 3885 2346 conicto
4096 2068 4096 1555 conicto
4096 0 lineto
3648 0 lineto
3648 1541 lineto
3648 1896 3526 2068 conicto
3405 2240 3155 2240 conicto
2850 2240 2673 2029 conicto
2496 1819 2496 1456 conicto
2496 0 lineto
2048 0 lineto
2048 1541 lineto
2048 1898 1926 2069 conicto
1805 2240 1551 2240 conicto
1250 2240 1073 2028 conicto
896 1817 896 1456 conicto
896 0 lineto
448 0 lineto
448 2560 lineto
896 2560 lineto
896 2176 lineto
1034 2406 1227 2515 conicto
1421 2624 1687 2624 conicto
1955 2624 2143 2485 conicto
2331 2346 2421 2082 conicto
end_ol grestore 
gsave 6.856677 9.960614 translate 0.035278 -0.035278 scale
start_ol
2421 2082 moveto
2574 2360 2786 2492 conicto
2999 2624 3287 2624 conicto
3675 2624 3885 2346 conicto
4096 2068 4096 1555 conicto
4096 0 lineto
3648 0 lineto
3648 1541 lineto
3648 1896 3526 2068 conicto
3405 2240 3155 2240 conicto
2850 2240 2673 2029 conicto
2496 1819 2496 1456 conicto
2496 0 lineto
2048 0 lineto
2048 1541 lineto
2048 1898 1926 2069 conicto
1805 2240 1551 2240 conicto
1250 2240 1073 2028 conicto
896 1817 896 1456 conicto
896 0 lineto
448 0 lineto
448 2560 lineto
896 2560 lineto
896 2176 lineto
1034 2406 1227 2515 conicto
1421 2624 1687 2624 conicto
1955 2624 2143 2485 conicto
2331 2346 2421 2082 conicto
end_ol grestore 
gsave 7.461109 9.960614 translate 0.035278 -0.035278 scale
start_ol
448 1004 moveto
448 2560 lineto
896 2560 lineto
896 1020 lineto
896 670 1028 495 conicto
1161 320 1425 320 conicto
1743 320 1927 530 conicto
2112 740 2112 1102 conicto
2112 2560 lineto
2560 2560 lineto
2560 0 lineto
2112 0 lineto
2112 384 lineto
1964 157 1769 46 conicto
1574 -64 1315 -64 conicto
889 -64 668 208 conicto
448 480 448 1004 conicto
1490 2624 moveto
1490 2624 lineto
end_ol grestore 
gsave 7.853238 9.960614 translate 0.035278 -0.035278 scale
start_ol
2560 1555 moveto
2560 0 lineto
2112 0 lineto
2112 1541 lineto
2112 1892 1979 2066 conicto
1847 2240 1582 2240 conicto
1264 2240 1080 2029 conicto
896 1819 896 1456 conicto
896 0 lineto
448 0 lineto
448 2560 lineto
896 2560 lineto
896 2176 lineto
1042 2401 1239 2512 conicto
1437 2624 1696 2624 conicto
2122 2624 2341 2353 conicto
2560 2082 2560 1555 conicto
end_ol grestore 
gsave 8.245367 9.960614 translate 0.035278 -0.035278 scale
start_ol
448 2560 moveto
896 2560 lineto
896 0 lineto
448 0 lineto
448 2560 lineto
448 3520 moveto
896 3520 lineto
896 3008 lineto
448 3008 lineto
448 3520 lineto
end_ol grestore 
gsave 8.417702 9.960614 translate 0.035278 -0.035278 scale
start_ol
2304 2432 moveto
2304 2048 lineto
2124 2144 1942 2192 conicto
1761 2240 1576 2240 conicto
1162 2240 933 1988 conicto
704 1736 704 1280 conicto
704 824 933 572 conicto
1162 320 1576 320 conicto
1761 320 1942 368 conicto
2124 416 2304 512 conicto
2304 128 lineto
2126 32 1935 -16 conicto
1745 -64 1530 -64 conicto
945 -64 600 299 conicto
256 663 256 1280 conicto
256 1906 604 2265 conicto
952 2624 1557 2624 conicto
1754 2624 1941 2576 conicto
2128 2528 2304 2432 conicto
end_ol grestore 
gsave 8.759874 9.960614 translate 0.035278 -0.035278 scale
start_ol
1579 1280 moveto
1085 1280 894 1168 conicto
704 1056 704 787 conicto
704 572 847 446 conicto
990 320 1235 320 conicto
1574 320 1779 557 conicto
1984 794 1984 1187 conicto
1984 1280 lineto
1579 1280 lineto
2432 1449 moveto
2432 0 lineto
1984 0 lineto
1984 384 lineto
1841 154 1628 45 conicto
1415 -64 1106 -64 conicto
716 -64 486 154 conicto
256 372 256 739 conicto
256 1166 546 1383 conicto
837 1600 1413 1600 conicto
1984 1600 lineto
1984 1642 lineto
1984 1928 1795 2084 conicto
1607 2240 1266 2240 conicto
1049 2240 843 2192 conicto
638 2144 448 2048 conicto
448 2432 lineto
680 2528 898 2576 conicto
1116 2624 1323 2624 conicto
1881 2624 2156 2332 conicto
2432 2041 2432 1449 conicto
end_ol grestore 
gsave 9.139518 9.960614 translate 0.035278 -0.035278 scale
start_ol
896 3264 moveto
896 2560 lineto
1792 2560 lineto
1792 2240 lineto
896 2240 lineto
896 869 lineto
896 560 984 472 conicto
1073 384 1345 384 conicto
1792 384 lineto
1792 0 lineto
1345 0 lineto
836 0 642 187 conicto
448 374 448 869 conicto
448 2240 lineto
128 2240 lineto
128 2560 lineto
448 2560 lineto
448 3264 lineto
896 3264 lineto
end_ol grestore 
gsave 9.381786 9.960614 translate 0.035278 -0.035278 scale
start_ol
1441 2240 moveto
1100 2240 902 1983 conicto
704 1727 704 1280 conicto
704 833 901 576 conicto
1098 320 1441 320 conicto
1780 320 1978 578 conicto
2176 836 2176 1280 conicto
2176 1722 1978 1981 conicto
1780 2240 1441 2240 conicto
1440 2624 moveto
1993 2624 2308 2267 conicto
2624 1911 2624 1280 conicto
2624 651 2308 293 conicto
1993 -64 1440 -64 conicto
885 -64 570 293 conicto
256 651 256 1280 conicto
256 1911 570 2267 conicto
885 2624 1440 2624 conicto
end_ol grestore 
gsave 9.761430 9.960614 translate 0.035278 -0.035278 scale
start_ol
1920 2176 moveto
1853 2209 1773 2224 conicto
1694 2240 1598 2240 conicto
1259 2240 1077 2012 conicto
896 1784 896 1357 conicto
896 0 lineto
448 0 lineto
448 2560 lineto
896 2560 lineto
896 2176 lineto
1022 2403 1224 2513 conicto
1426 2624 1716 2624 conicto
1757 2624 1807 2624 conicto
1857 2624 1918 2624 conicto
1920 2176 lineto
end_ol grestore 
1.000000 1.000000 1.000000 srgb
n 5.153610 5.062040 m 5.153610 6.914262 l 10.598332 6.914262 l 10.598332 5.062040 l f
0.100000 slw
[] 0 sd
[] 0 sd
0 slj
0.000000 0.000000 0.000000 srgb
n 5.153610 5.062040 m 5.153610 6.914262 l 10.598332 6.914262 l 10.598332 5.062040 l cp s
gsave 6.192221 6.177596 translate 0.035278 -0.035278 scale
start_ol
1632 2946 moveto
1004 1280 lineto
2262 1280 lineto
1632 2946 lineto
1371 3392 moveto
1896 3392 lineto
3200 0 lineto
2719 0 lineto
2407 896 lineto
864 896 lineto
552 0 lineto
64 0 lineto
1371 3392 lineto
end_ol grestore 
gsave 6.616819 6.177596 translate 0.035278 -0.035278 scale
start_ol
448 1004 moveto
448 2560 lineto
896 2560 lineto
896 1020 lineto
896 670 1028 495 conicto
1161 320 1425 320 conicto
1743 320 1927 530 conicto
2112 740 2112 1102 conicto
2112 2560 lineto
2560 2560 lineto
2560 0 lineto
2112 0 lineto
2112 384 lineto
1964 157 1769 46 conicto
1574 -64 1315 -64 conicto
889 -64 668 208 conicto
448 480 448 1004 conicto
1490 2624 moveto
1490 2624 lineto
end_ol grestore 
gsave 7.008949 6.177596 translate 0.035278 -0.035278 scale
start_ol
2304 2432 moveto
2304 2048 lineto
2124 2144 1942 2192 conicto
1761 2240 1576 2240 conicto
1162 2240 933 1988 conicto
704 1736 704 1280 conicto
704 824 933 572 conicto
1162 320 1576 320 conicto
1761 320 1942 368 conicto
2124 416 2304 512 conicto
2304 128 lineto
2126 32 1935 -16 conicto
1745 -64 1530 -64 conicto
945 -64 600 299 conicto
256 663 256 1280 conicto
256 1906 604 2265 conicto
952 2624 1557 2624 conicto
1754 2624 1941 2576 conicto
2128 2528 2304 2432 conicto
end_ol grestore 
gsave 7.351121 6.177596 translate 0.035278 -0.035278 scale
start_ol
896 3264 moveto
896 2560 lineto
1792 2560 lineto
1792 2240 lineto
896 2240 lineto
896 869 lineto
896 560 984 472 conicto
1073 384 1345 384 conicto
1792 384 lineto
1792 0 lineto
1345 0 lineto
836 0 642 187 conicto
448 374 448 869 conicto
448 2240 lineto
128 2240 lineto
128 2560 lineto
448 2560 lineto
448 3264 lineto
896 3264 lineto
end_ol grestore 
gsave 7.593388 6.177596 translate 0.035278 -0.035278 scale
start_ol
448 2560 moveto
896 2560 lineto
896 0 lineto
448 0 lineto
448 2560 lineto
448 3520 moveto
896 3520 lineto
896 3008 lineto
448 3008 lineto
448 3520 lineto
end_ol grestore 
gsave 7.765723 6.177596 translate 0.035278 -0.035278 scale
start_ol
1441 2240 moveto
1100 2240 902 1983 conicto
704 1727 704 1280 conicto
704 833 901 576 conicto
1098 320 1441 320 conicto
1780 320 1978 578 conicto
2176 836 2176 1280 conicto
2176 1722 1978 1981 conicto
1780 2240 1441 2240 conicto
1440 2624 moveto
1993 2624 2308 2267 conicto
2624 1911 2624 1280 conicto
2624 651 2308 293 conicto
1993 -64 1440 -64 conicto
885 -64 570 293 conicto
256 651 256 1280 conicto
256 1911 570 2267 conicto
885 2624 1440 2624 conicto
end_ol grestore 
gsave 8.145367 6.177596 translate 0.035278 -0.035278 scale
start_ol
2560 1555 moveto
2560 0 lineto
2112 0 lineto
2112 1541 lineto
2112 1892 1979 2066 conicto
1847 2240 1582 2240 conicto
1264 2240 1080 2029 conicto
896 1819 896 1456 conicto
896 0 lineto
448 0 lineto
448 2560 lineto
896 2560 lineto
896 2176 lineto
1042 2401 1239 2512 conicto
1437 2624 1696 2624 conicto
2122 2624 2341 2353 conicto
2560 2082 2560 1555 conicto
end_ol grestore 
gsave 8.537496 6.177596 translate 0.035278 -0.035278 scale
start_ol
2624 1416 moveto
2624 1216 lineto
704 1216 lineto
731 778 959 549 conicto
1188 320 1597 320 conicto
1833 320 2055 384 conicto
2277 448 2496 576 conicto
2496 192 lineto
2273 67 2039 1 conicto
1805 -64 1564 -64 conicto
961 -64 608 292 conicto
256 649 256 1257 conicto
256 1886 595 2255 conicto
934 2624 1508 2624 conicto
2024 2624 2324 2299 conicto
2624 1974 2624 1416 conicto
2176 1536 moveto
2172 1857 1988 2048 conicto
1805 2240 1502 2240 conicto
1160 2240 954 2055 conicto
748 1870 717 1533 conicto
2176 1536 lineto
end_ol grestore 
gsave 8.919637 6.177596 translate 0.035278 -0.035278 scale
start_ol
2624 1416 moveto
2624 1216 lineto
704 1216 lineto
731 778 959 549 conicto
1188 320 1597 320 conicto
1833 320 2055 384 conicto
2277 448 2496 576 conicto
2496 192 lineto
2273 67 2039 1 conicto
1805 -64 1564 -64 conicto
961 -64 608 292 conicto
256 649 256 1257 conicto
256 1886 595 2255 conicto
934 2624 1508 2624 conicto
2024 2624 2324 2299 conicto
2624 1974 2624 1416 conicto
2176 1536 moveto
2172 1857 1988 2048 conicto
1805 2240 1502 2240 conicto
1160 2240 954 2055 conicto
748 1870 717 1533 conicto
2176 1536 lineto
end_ol grestore 
gsave 9.301778 6.177596 translate 0.035278 -0.035278 scale
start_ol
1920 2176 moveto
1853 2209 1773 2224 conicto
1694 2240 1598 2240 conicto
1259 2240 1077 2012 conicto
896 1784 896 1357 conicto
896 0 lineto
448 0 lineto
448 2560 lineto
896 2560 lineto
896 2176 lineto
1022 2403 1224 2513 conicto
1426 2624 1716 2624 conicto
1757 2624 1807 2624 conicto
1857 2624 1918 2624 conicto
1920 2176 lineto
end_ol grestore 
1.000000 1.000000 1.000000 srgb
n 16.432000 9.221170 m 16.432000 10.321170 l 22.432000 10.321170 l 22.432000 9.221170 l f
0.100000 slw
[] 0 sd
[] 0 sd
0 slj
0.000000 0.000000 0.000000 srgb
n 16.432000 9.221170 m 16.432000 10.321170 l 22.432000 10.321170 l 22.432000 9.221170 l cp s
gsave 17.142000 9.960614 translate 0.035278 -0.035278 scale
start_ol
3008 3136 moveto
3008 2624 lineto
2777 2849 2516 2960 conicto
2255 3072 1961 3072 conicto
1383 3072 1075 2718 conicto
768 2364 768 1695 conicto
768 1028 1075 674 conicto
1383 320 1961 320 conicto
2255 320 2516 431 conicto
2777 543 3008 768 conicto
3008 256 lineto
2766 96 2495 16 conicto
2224 -64 1922 -64 conicto
1147 -64 701 407 conicto
256 879 256 1695 conicto
256 2513 701 2984 conicto
1147 3456 1922 3456 conicto
2229 3456 2499 3376 conicto
2770 3296 3008 3136 conicto
end_ol grestore 
gsave 17.574089 9.960614 translate 0.035278 -0.035278 scale
start_ol
1441 2240 moveto
1100 2240 902 1983 conicto
704 1727 704 1280 conicto
704 833 901 576 conicto
1098 320 1441 320 conicto
1780 320 1978 578 conicto
2176 836 2176 1280 conicto
2176 1722 1978 1981 conicto
1780 2240 1441 2240 conicto
1440 2624 moveto
1993 2624 2308 2267 conicto
2624 1911 2624 1280 conicto
2624 651 2308 293 conicto
1993 -64 1440 -64 conicto
885 -64 570 293 conicto
256 651 256 1280 conicto
256 1911 570 2267 conicto
885 2624 1440 2624 conicto
end_ol grestore 
gsave 17.953733 9.960614 translate 0.035278 -0.035278 scale
start_ol
2421 2082 moveto
2574 2360 2786 2492 conicto
2999 2624 3287 2624 conicto
3675 2624 3885 2346 conicto
4096 2068 4096 1555 conicto
4096 0 lineto
3648 0 lineto
3648 1541 lineto
3648 1896 3526 2068 conicto
3405 2240 3155 2240 conicto
2850 2240 2673 2029 conicto
2496 1819 2496 1456 conicto
2496 0 lineto
2048 0 lineto
2048 1541 lineto
2048 1898 1926 2069 conicto
1805 2240 1551 2240 conicto
1250 2240 1073 2028 conicto
896 1817 896 1456 conicto
896 0 lineto
448 0 lineto
448 2560 lineto
896 2560 lineto
896 2176 lineto
1034 2406 1227 2515 conicto
1421 2624 1687 2624 conicto
1955 2624 2143 2485 conicto
2331 2346 2421 2082 conicto
end_ol grestore 
gsave 18.558166 9.960614 translate 0.035278 -0.035278 scale
start_ol
2421 2082 moveto
2574 2360 2786 2492 conicto
2999 2624 3287 2624 conicto
3675 2624 3885 2346 conicto
4096 2068 4096 1555 conicto
4096 0 lineto
3648 0 lineto
3648 1541 lineto
3648 1896 3526 2068 conicto
3405 2240 3155 2240 conicto
2850 2240 2673 2029 conicto
2496 1819 2496 1456 conicto
2496 0 lineto
2048 0 lineto
2048 1541 lineto
2048 1898 1926 2069 conicto
1805 2240 1551 2240 conicto
1250 2240 1073 2028 conicto
896 1817 896 1456 conicto
896 0 lineto
448 0 lineto
448 2560 lineto
896 2560 lineto
896 2176 lineto
1034 2406 1227 2515 conicto
1421 2624 1687 2624 conicto
1955 2624 2143 2485 conicto
2331 2346 2421 2082 conicto
end_ol grestore 
gsave 19.162598 9.960614 translate 0.035278 -0.035278 scale
start_ol
448 1004 moveto
448 2560 lineto
896 2560 lineto
896 1020 lineto
896 670 1028 495 conicto
1161 320 1425 320 conicto
1743 320 1927 530 conicto
2112 740 2112 1102 conicto
2112 2560 lineto
2560 2560 lineto
2560 0 lineto
2112 0 lineto
2112 384 lineto
1964 157 1769 46 conicto
1574 -64 1315 -64 conicto
889 -64 668 208 conicto
448 480 448 1004 conicto
1490 2624 moveto
1490 2624 lineto
end_ol grestore 
gsave 19.554727 9.960614 translate 0.035278 -0.035278 scale
start_ol
2560 1555 moveto
2560 0 lineto
2112 0 lineto
2112 1541 lineto
2112 1892 1979 2066 conicto
1847 2240 1582 2240 conicto
1264 2240 1080 2029 conicto
896 1819 896 1456 conicto
896 0 lineto
448 0 lineto
448 2560 lineto
896 2560 lineto
896 2176 lineto
1042 2401 1239 2512 conicto
1437 2624 1696 2624 conicto
2122 2624 2341 2353 conicto
2560 2082 2560 1555 conicto
end_ol grestore 
gsave 19.946856 9.960614 translate 0.035278 -0.035278 scale
start_ol
448 2560 moveto
896 2560 lineto
896 0 lineto
448 0 lineto
448 2560 lineto
448 3520 moveto
896 3520 lineto
896 3008 lineto
448 3008 lineto
448 3520 lineto
end_ol grestore 
gsave 20.119191 9.960614 translate 0.035278 -0.035278 scale
start_ol
2304 2432 moveto
2304 2048 lineto
2124 2144 1942 2192 conicto
1761 2240 1576 2240 conicto
1162 2240 933 1988 conicto
704 1736 704 1280 conicto
704 824 933 572 conicto
1162 320 1576 320 conicto
1761 320 1942 368 conicto
2124 416 2304 512 conicto
2304 128 lineto
2126 32 1935 -16 conicto
1745 -64 1530 -64 conicto
945 -64 600 299 conicto
256 663 256 1280 conicto
256 1906 604 2265 conicto
952 2624 1557 2624 conicto
1754 2624 1941 2576 conicto
2128 2528 2304 2432 conicto
end_ol grestore 
gsave 20.461363 9.960614 translate 0.035278 -0.035278 scale
start_ol
1579 1280 moveto
1085 1280 894 1168 conicto
704 1056 704 787 conicto
704 572 847 446 conicto
990 320 1235 320 conicto
1574 320 1779 557 conicto
1984 794 1984 1187 conicto
1984 1280 lineto
1579 1280 lineto
2432 1449 moveto
2432 0 lineto
1984 0 lineto
1984 384 lineto
1841 154 1628 45 conicto
1415 -64 1106 -64 conicto
716 -64 486 154 conicto
256 372 256 739 conicto
256 1166 546 1383 conicto
837 1600 1413 1600 conicto
1984 1600 lineto
1984 1642 lineto
1984 1928 1795 2084 conicto
1607 2240 1266 2240 conicto
1049 2240 843 2192 conicto
638 2144 448 2048 conicto
448 2432 lineto
680 2528 898 2576 conicto
1116 2624 1323 2624 conicto
1881 2624 2156 2332 conicto
2432 2041 2432 1449 conicto
end_ol grestore 
gsave 20.841007 9.960614 translate 0.035278 -0.035278 scale
start_ol
896 3264 moveto
896 2560 lineto
1792 2560 lineto
1792 2240 lineto
896 2240 lineto
896 869 lineto
896 560 984 472 conicto
1073 384 1345 384 conicto
1792 384 lineto
1792 0 lineto
1345 0 lineto
836 0 642 187 conicto
448 374 448 869 conicto
448 2240 lineto
128 2240 lineto
128 2560 lineto
448 2560 lineto
448 3264 lineto
896 3264 lineto
end_ol grestore 
gsave 21.083275 9.960614 translate 0.035278 -0.035278 scale
start_ol
1441 2240 moveto
1100 2240 902 1983 conicto
704 1727 704 1280 conicto
704 833 901 576 conicto
1098 320 1441 320 conicto
1780 320 1978 578 conicto
2176 836 2176 1280 conicto
2176 1722 1978 1981 conicto
1780 2240 1441 2240 conicto
1440 2624 moveto
1993 2624 2308 2267 conicto
2624 1911 2624 1280 conicto
2624 651 2308 293 conicto
1993 -64 1440 -64 conicto
885 -64 570 293 conicto
256 651 256 1280 conicto
256 1911 570 2267 conicto
885 2624 1440 2624 conicto
end_ol grestore 
gsave 21.462919 9.960614 translate 0.035278 -0.035278 scale
start_ol
1920 2176 moveto
1853 2209 1773 2224 conicto
1694 2240 1598 2240 conicto
1259 2240 1077 2012 conicto
896 1784 896 1357 conicto
896 0 lineto
448 0 lineto
448 2560 lineto
896 2560 lineto
896 2176 lineto
1022 2403 1224 2513 conicto
1426 2624 1716 2624 conicto
1757 2624 1807 2624 conicto
1857 2624 1918 2624 conicto
1920 2176 lineto
end_ol grestore 
0.100000 slw
[] 0 sd
[] 0 sd
1 slj
0 slc
n 15.700000 6.943270 0.250000 0.250000 180.000000 270.000000 ellipse s
n 16.600000 6.693270 m 15.700000 6.693270 l s
n 15.628327 7.894233 0.178327 0.178327 90.000000 180.000000 ellipse s
n 15.450000 6.943270 m 15.450000 7.894233 l s
n 15.628327 8.072560 m 15.954386 8.072560 l s
[] 0 sd
0 slj
0 slc
n 16.291886 8.072560 m 15.841886 8.222560 l 15.954386 8.072560 l 15.841886 7.922560 l ef
n 16.291886 8.072560 m 15.841886 8.222560 l 15.954386 8.072560 l 15.841886 7.922560 l cp s
0.100000 slw
[] 0 sd
[] 0 sd
1 slj
0 slc
n 4.258150 6.238151 0.250000 0.250000 180.000000 270.000000 ellipse s
n 4.816807 5.988151 m 4.258150 5.988151 l s
n 4.186477 9.592843 0.178327 0.178327 90.000000 180.000000 ellipse s
n 4.008150 6.238151 m 4.008150 9.592843 l s
n 4.186477 9.771170 m 4.512536 9.771170 l s
[] 0 sd
0 slj
0 slc
n 5.041807 5.988151 m 4.741807 6.138151 l 4.816807 5.988151 l 4.741807 5.838151 l ef
n 5.041807 5.988151 m 4.741807 6.138151 l 4.816807 5.988151 l 4.741807 5.838151 l cp s
[] 0 sd
0 slj
0 slc
n 4.850036 9.771170 m 4.400036 9.921170 l 4.512536 9.771170 l 4.400036 9.621170 l ef
n 4.850036 9.771170 m 4.400036 9.921170 l 4.512536 9.771170 l 4.400036 9.621170 l cp s
0.100000 slw
[] 0 sd
[] 0 sd
1 slj
0 slc
n 7.717945 10.808335 0.012565 0.012565 360.000000 90.000000 ellipse s
n 7.730510 10.321200 m 7.730510 10.808335 l s
n 7.696450 10.822380 0.001480 0.001480 180.000000 270.000000 ellipse s
n 7.717945 10.820900 m 7.696450 10.820900 l s
n 7.694970 10.822380 m 7.694970 10.825086 l s
[] 0 sd
0 slj
0 slc
n 7.694970 11.162586 m 7.544970 10.712586 l 7.694970 10.825086 l 7.844970 10.712586 l ef
n 7.694970 11.162586 m 7.544970 10.712586 l 7.694970 10.825086 l 7.844970 10.712586 l cp s
showpage
