%!PS-Adobe-3.0 EPSF-3.0
%%Title: /home/eyal/workspace/moc-output/profiler-smooth-kernel-1.eps
%%Creator: matplotlib version 1.0.1, http://matplotlib.sourceforge.net/
%%CreationDate: Sun Mar 25 19:02:26 2012
%%Orientation: portrait
%%BoundingBox: 121 247 490 544
%%EndComments
%%BeginProlog
/mpldict 8 dict def
mpldict begin
/m { moveto } bind def
/l { lineto } bind def
/r { rlineto } bind def
/c { curveto } bind def
/cl { closepath } bind def
/box {
m
1 index 0 r
0 exch r
neg 0 r
cl
} bind def
/clipbox {
box
clip
newpath
} bind def
%!PS-Adobe-3.0 Resource-Font
%%Title: DejaVu Sans
%%Copyright: Copyright (c) 2003 by Bitstream, Inc. All Rights Reserved. Copyright (c) 2006 by Tavmjong Bah. All Rights Reserved. DejaVu changes are in public domain 
%%Creator: Converted from TrueType to type 3 by PPR
25 dict begin
/_d{bind def}bind def
/_m{moveto}_d
/_l{lineto}_d
/_cl{closepath eofill}_d
/_c{curveto}_d
/_sc{7 -1 roll{setcachedevice}{pop pop pop pop pop pop}ifelse}_d
/_e{exec}_d
/FontName /DejaVuSans def
/PaintType 0 def
/FontMatrix[.001 0 0 .001 0 0]def
/FontBBox[-1020 -414 1681 1167]def
/FontType 3 def
/Encoding [ /space /slash /zero /one /two /three /four /five /six /seven /eight /nine /colon /B /G /M /P /T /bracketleft /bracketright /a /c /d /e /f /g /h /l /m /n /o /p /q /r /s /t /u /y ] def
/FontInfo 10 dict dup begin
/FamilyName (DejaVu Sans) def
/FullName (DejaVu Sans) def
/Notice (Copyright (c) 2003 by Bitstream, Inc. All Rights Reserved. Copyright (c) 2006 by Tavmjong Bah. All Rights Reserved. DejaVu changes are in public domain ) def
/Weight (Book) def
/Version (Version 2.33) def
/ItalicAngle 0.0 def
/isFixedPitch false def
/UnderlinePosition -130 def
/UnderlineThickness 90 def
end readonly def
/CharStrings 38 dict dup begin
/space{318 0 0 0 0 0 _sc
}_d
/slash{337 0 0 -92 337 729 _sc
254 729 _m
337 729 _l
83 -92 _l
0 -92 _l
254 729 _l
_cl}_d
/zero{636 0 66 -13 570 742 _sc
318 664 _m
267 664 229 639 203 589 _c
177 539 165 464 165 364 _c
165 264 177 189 203 139 _c
229 89 267 64 318 64 _c
369 64 407 89 433 139 _c
458 189 471 264 471 364 _c
471 464 458 539 433 589 _c
407 639 369 664 318 664 _c
318 742 _m
399 742 461 709 505 645 _c
548 580 570 486 570 364 _c
570 241 548 147 505 83 _c
461 19 399 -13 318 -13 _c
236 -13 173 19 130 83 _c
87 147 66 241 66 364 _c
66 486 87 580 130 645 _c
173 709 236 742 318 742 _c
_cl}_d
/one{636 0 110 0 544 729 _sc
124 83 _m
285 83 _l
285 639 _l
110 604 _l
110 694 _l
284 729 _l
383 729 _l
383 83 _l
544 83 _l
544 0 _l
124 0 _l
124 83 _l
_cl}_d
/two{{636 0 73 0 536 742 _sc
192 83 _m
536 83 _l
536 0 _l
73 0 _l
73 83 _l
110 121 161 173 226 239 _c
290 304 331 346 348 365 _c
380 400 402 430 414 455 _c
426 479 433 504 433 528 _c
433 566 419 598 392 622 _c
365 646 330 659 286 659 _c
255 659 222 653 188 643 _c
154 632 117 616 78 594 _c
78 694 _l
118 710 155 722 189 730 _c
223 738 255 742 284 742 _c
359 742 419 723 464 685 _c
509 647 532 597 532 534 _c
532 504 526 475 515 449 _c
504 422 484 390 454 354 _c
446 344 420 317 376 272 _c
332 227 271 164 192 83 _c
_cl}_e}_d
/three{{636 0 76 -13 556 742 _sc
406 393 _m
453 383 490 362 516 330 _c
542 298 556 258 556 212 _c
556 140 531 84 482 45 _c
432 6 362 -13 271 -13 _c
240 -13 208 -10 176 -4 _c
144 1 110 10 76 22 _c
76 117 _l
103 101 133 89 166 81 _c
198 73 232 69 268 69 _c
330 69 377 81 409 105 _c
441 129 458 165 458 212 _c
458 254 443 288 413 312 _c
383 336 341 349 287 349 _c
202 349 _l
202 430 _l
291 430 _l
339 430 376 439 402 459 _c
428 478 441 506 441 543 _c
441 580 427 609 401 629 _c
374 649 336 659 287 659 _c
260 659 231 656 200 650 _c
169 644 135 635 98 623 _c
98 711 _l
135 721 170 729 203 734 _c
235 739 266 742 296 742 _c
}_e{370 742 429 725 473 691 _c
517 657 539 611 539 553 _c
539 513 527 479 504 451 _c
481 423 448 403 406 393 _c
_cl}_e}_d
/four{636 0 49 0 580 729 _sc
378 643 _m
129 254 _l
378 254 _l
378 643 _l
352 729 _m
476 729 _l
476 254 _l
580 254 _l
580 172 _l
476 172 _l
476 0 _l
378 0 _l
378 172 _l
49 172 _l
49 267 _l
352 729 _l
_cl}_d
/five{{636 0 77 -13 549 729 _sc
108 729 _m
495 729 _l
495 646 _l
198 646 _l
198 467 _l
212 472 227 476 241 478 _c
255 480 270 482 284 482 _c
365 482 429 459 477 415 _c
525 370 549 310 549 234 _c
549 155 524 94 475 51 _c
426 8 357 -13 269 -13 _c
238 -13 207 -10 175 -6 _c
143 -1 111 6 77 17 _c
77 116 _l
106 100 136 88 168 80 _c
199 72 232 69 267 69 _c
323 69 368 83 401 113 _c
433 143 450 183 450 234 _c
450 284 433 324 401 354 _c
368 384 323 399 267 399 _c
241 399 214 396 188 390 _c
162 384 135 375 108 363 _c
108 729 _l
_cl}_e}_d
/six{{636 0 70 -13 573 742 _sc
330 404 _m
286 404 251 388 225 358 _c
199 328 186 286 186 234 _c
186 181 199 139 225 109 _c
251 79 286 64 330 64 _c
374 64 409 79 435 109 _c
461 139 474 181 474 234 _c
474 286 461 328 435 358 _c
409 388 374 404 330 404 _c
526 713 _m
526 623 _l
501 635 476 644 451 650 _c
425 656 400 659 376 659 _c
310 659 260 637 226 593 _c
192 549 172 482 168 394 _c
187 422 211 444 240 459 _c
269 474 301 482 336 482 _c
409 482 467 459 509 415 _c
551 371 573 310 573 234 _c
573 159 550 99 506 54 _c
462 9 403 -13 330 -13 _c
246 -13 181 19 137 83 _c
92 147 70 241 70 364 _c
70 479 97 571 152 639 _c
206 707 280 742 372 742 _c
}_e{396 742 421 739 447 735 _c
472 730 498 723 526 713 _c
_cl}_e}_d
/seven{636 0 82 0 551 729 _sc
82 729 _m
551 729 _l
551 687 _l
286 0 _l
183 0 _l
432 646 _l
82 646 _l
82 729 _l
_cl}_d
/eight{{636 0 68 -13 568 742 _sc
318 346 _m
271 346 234 333 207 308 _c
180 283 167 249 167 205 _c
167 161 180 126 207 101 _c
234 76 271 64 318 64 _c
364 64 401 76 428 102 _c
455 127 469 161 469 205 _c
469 249 455 283 429 308 _c
402 333 365 346 318 346 _c
219 388 _m
177 398 144 418 120 447 _c
96 476 85 511 85 553 _c
85 611 105 657 147 691 _c
188 725 245 742 318 742 _c
390 742 447 725 489 691 _c
530 657 551 611 551 553 _c
551 511 539 476 515 447 _c
491 418 459 398 417 388 _c
464 377 501 355 528 323 _c
554 291 568 251 568 205 _c
568 134 546 80 503 43 _c
459 5 398 -13 318 -13 _c
237 -13 175 5 132 43 _c
89 80 68 134 68 205 _c
68 251 81 291 108 323 _c
134 355 171 377 219 388 _c
}_e{183 544 _m
183 506 194 476 218 455 _c
242 434 275 424 318 424 _c
360 424 393 434 417 455 _c
441 476 453 506 453 544 _c
453 582 441 611 417 632 _c
393 653 360 664 318 664 _c
275 664 242 653 218 632 _c
194 611 183 582 183 544 _c
_cl}_e}_d
/nine{{636 0 63 -13 566 742 _sc
110 15 _m
110 105 _l
134 93 159 84 185 78 _c
210 72 235 69 260 69 _c
324 69 374 90 408 134 _c
442 178 462 244 468 334 _c
448 306 424 284 396 269 _c
367 254 335 247 300 247 _c
226 247 168 269 126 313 _c
84 357 63 417 63 494 _c
63 568 85 628 129 674 _c
173 719 232 742 306 742 _c
390 742 455 709 499 645 _c
543 580 566 486 566 364 _c
566 248 538 157 484 89 _c
429 21 356 -13 264 -13 _c
239 -13 214 -10 189 -6 _c
163 -2 137 5 110 15 _c
306 324 _m
350 324 385 339 411 369 _c
437 399 450 441 450 494 _c
450 546 437 588 411 618 _c
385 648 350 664 306 664 _c
262 664 227 648 201 618 _c
175 588 162 546 162 494 _c
}_e{162 441 175 399 201 369 _c
227 339 262 324 306 324 _c
_cl}_e}_d
/colon{337 0 117 0 220 517 _sc
117 124 _m
220 124 _l
220 0 _l
117 0 _l
117 124 _l
117 517 _m
220 517 _l
220 393 _l
117 393 _l
117 517 _l
_cl}_d
/B{{686 0 98 0 615 729 _sc
197 348 _m
197 81 _l
355 81 _l
408 81 447 92 473 114 _c
498 136 511 169 511 215 _c
511 260 498 293 473 315 _c
447 337 408 348 355 348 _c
197 348 _l
197 648 _m
197 428 _l
343 428 _l
391 428 426 437 450 455 _c
474 473 486 500 486 538 _c
486 574 474 602 450 620 _c
426 638 391 648 343 648 _c
197 648 _l
98 729 _m
350 729 _l
425 729 483 713 524 682 _c
564 650 585 606 585 549 _c
585 504 574 468 553 442 _c
532 416 502 399 462 393 _c
510 382 548 360 575 327 _c
601 294 615 253 615 204 _c
615 138 592 88 548 53 _c
504 17 441 0 360 0 _c
98 0 _l
98 729 _l
}_e{_cl}_e}_d
/G{{775 0 56 -13 693 742 _sc
595 104 _m
595 300 _l
434 300 _l
434 381 _l
693 381 _l
693 68 _l
655 40 613 20 567 7 _c
521 -6 472 -13 420 -13 _c
306 -13 216 20 152 86 _c
88 152 56 245 56 364 _c
56 482 88 575 152 642 _c
216 708 306 742 420 742 _c
467 742 512 736 555 724 _c
598 712 638 695 674 673 _c
674 568 _l
637 598 598 621 557 637 _c
516 653 473 661 428 661 _c
338 661 271 636 227 586 _c
182 536 160 462 160 364 _c
160 265 182 191 227 141 _c
271 91 338 67 428 67 _c
462 67 493 70 521 76 _c
549 82 573 91 595 104 _c
_cl}_e}_d
/M{863 0 98 0 765 729 _sc
98 729 _m
245 729 _l
431 233 _l
618 729 _l
765 729 _l
765 0 _l
669 0 _l
669 640 _l
481 140 _l
382 140 _l
194 640 _l
194 0 _l
98 0 _l
98 729 _l
_cl}_d
/P{603 0 98 0 569 729 _sc
197 648 _m
197 374 _l
321 374 _l
367 374 402 385 427 409 _c
452 433 465 467 465 511 _c
465 555 452 588 427 612 _c
402 636 367 648 321 648 _c
197 648 _l
98 729 _m
321 729 _l
402 729 464 710 506 673 _c
548 636 569 582 569 511 _c
569 439 548 384 506 348 _c
464 311 402 293 321 293 _c
197 293 _l
197 0 _l
98 0 _l
98 729 _l
_cl}_d
/T{611 0 -2 0 614 729 _sc
-2 729 _m
614 729 _l
614 646 _l
355 646 _l
355 0 _l
256 0 _l
256 646 _l
-2 646 _l
-2 729 _l
_cl}_d
/bracketleft{390 0 86 -131 293 760 _sc
86 760 _m
293 760 _l
293 690 _l
176 690 _l
176 -61 _l
293 -61 _l
293 -131 _l
86 -131 _l
86 760 _l
_cl}_d
/bracketright{390 0 97 -131 304 760 _sc
304 760 _m
304 -131 _l
97 -131 _l
97 -61 _l
214 -61 _l
214 690 _l
97 690 _l
97 760 _l
304 760 _l
_cl}_d
/a{{613 0 60 -13 522 560 _sc
343 275 _m
270 275 220 266 192 250 _c
164 233 150 205 150 165 _c
150 133 160 107 181 89 _c
202 70 231 61 267 61 _c
317 61 357 78 387 114 _c
417 149 432 196 432 255 _c
432 275 _l
343 275 _l
522 312 _m
522 0 _l
432 0 _l
432 83 _l
411 49 385 25 355 10 _c
325 -5 287 -13 243 -13 _c
187 -13 142 2 109 33 _c
76 64 60 106 60 159 _c
60 220 80 266 122 298 _c
163 329 224 345 306 345 _c
432 345 _l
432 354 _l
432 395 418 427 391 450 _c
364 472 326 484 277 484 _c
245 484 215 480 185 472 _c
155 464 127 453 100 439 _c
100 522 _l
}_e{132 534 164 544 195 550 _c
226 556 256 560 286 560 _c
365 560 424 539 463 498 _c
502 457 522 395 522 312 _c
_cl}_e}_d
/c{{550 0 55 -13 488 560 _sc
488 526 _m
488 442 _l
462 456 437 466 411 473 _c
385 480 360 484 334 484 _c
276 484 230 465 198 428 _c
166 391 150 339 150 273 _c
150 206 166 154 198 117 _c
230 80 276 62 334 62 _c
360 62 385 65 411 72 _c
437 79 462 90 488 104 _c
488 21 _l
462 9 436 0 410 -5 _c
383 -10 354 -13 324 -13 _c
242 -13 176 12 128 64 _c
79 115 55 185 55 273 _c
55 362 79 432 128 483 _c
177 534 244 560 330 560 _c
358 560 385 557 411 551 _c
437 545 463 537 488 526 _c
_cl}_e}_d
/d{{635 0 55 -13 544 760 _sc
454 464 _m
454 760 _l
544 760 _l
544 0 _l
454 0 _l
454 82 _l
435 49 411 25 382 10 _c
353 -5 319 -13 279 -13 _c
213 -13 159 13 117 65 _c
75 117 55 187 55 273 _c
55 359 75 428 117 481 _c
159 533 213 560 279 560 _c
319 560 353 552 382 536 _c
411 520 435 496 454 464 _c
148 273 _m
148 207 161 155 188 117 _c
215 79 253 61 301 61 _c
348 61 385 79 413 117 _c
440 155 454 207 454 273 _c
454 339 440 390 413 428 _c
385 466 348 485 301 485 _c
253 485 215 466 188 428 _c
161 390 148 339 148 273 _c
_cl}_e}_d
/e{{615 0 55 -13 562 560 _sc
562 296 _m
562 252 _l
149 252 _l
153 190 171 142 205 110 _c
238 78 284 62 344 62 _c
378 62 412 66 444 74 _c
476 82 509 95 541 113 _c
541 28 _l
509 14 476 3 442 -3 _c
408 -9 373 -13 339 -13 _c
251 -13 182 12 131 62 _c
80 112 55 181 55 268 _c
55 357 79 428 127 481 _c
175 533 241 560 323 560 _c
397 560 455 536 498 489 _c
540 441 562 377 562 296 _c
472 322 _m
471 371 457 410 431 440 _c
404 469 368 484 324 484 _c
274 484 234 469 204 441 _c
174 413 156 373 152 322 _c
472 322 _l
_cl}_e}_d
/f{352 0 23 0 371 760 _sc
371 760 _m
371 685 _l
285 685 _l
253 685 230 678 218 665 _c
205 652 199 629 199 595 _c
199 547 _l
347 547 _l
347 477 _l
199 477 _l
199 0 _l
109 0 _l
109 477 _l
23 477 _l
23 547 _l
109 547 _l
109 585 _l
109 645 123 690 151 718 _c
179 746 224 760 286 760 _c
371 760 _l
_cl}_d
/g{{635 0 55 -207 544 560 _sc
454 280 _m
454 344 440 395 414 431 _c
387 467 349 485 301 485 _c
253 485 215 467 188 431 _c
161 395 148 344 148 280 _c
148 215 161 165 188 129 _c
215 93 253 75 301 75 _c
349 75 387 93 414 129 _c
440 165 454 215 454 280 _c
544 68 _m
544 -24 523 -93 482 -139 _c
440 -184 377 -207 292 -207 _c
260 -207 231 -204 203 -200 _c
175 -195 147 -188 121 -178 _c
121 -91 _l
147 -105 173 -115 199 -122 _c
225 -129 251 -133 278 -133 _c
336 -133 380 -117 410 -87 _c
439 -56 454 -10 454 52 _c
454 96 _l
435 64 411 40 382 24 _c
353 8 319 0 279 0 _c
211 0 157 25 116 76 _c
75 127 55 195 55 280 _c
55 364 75 432 116 483 _c
157 534 211 560 279 560 _c
}_e{319 560 353 552 382 536 _c
411 520 435 496 454 464 _c
454 547 _l
544 547 _l
544 68 _l
_cl}_e}_d
/h{634 0 91 0 549 760 _sc
549 330 _m
549 0 _l
459 0 _l
459 327 _l
459 379 448 417 428 443 _c
408 469 378 482 338 482 _c
289 482 251 466 223 435 _c
195 404 181 362 181 309 _c
181 0 _l
91 0 _l
91 760 _l
181 760 _l
181 462 _l
202 494 227 519 257 535 _c
286 551 320 560 358 560 _c
420 560 468 540 500 501 _c
532 462 549 405 549 330 _c
_cl}_d
/l{278 0 94 0 184 760 _sc
94 760 _m
184 760 _l
184 0 _l
94 0 _l
94 760 _l
_cl}_d
/m{{974 0 91 0 889 560 _sc
520 442 _m
542 482 569 511 600 531 _c
631 550 668 560 711 560 _c
767 560 811 540 842 500 _c
873 460 889 403 889 330 _c
889 0 _l
799 0 _l
799 327 _l
799 379 789 418 771 444 _c
752 469 724 482 686 482 _c
639 482 602 466 575 435 _c
548 404 535 362 535 309 _c
535 0 _l
445 0 _l
445 327 _l
445 379 435 418 417 444 _c
398 469 369 482 331 482 _c
285 482 248 466 221 435 _c
194 404 181 362 181 309 _c
181 0 _l
91 0 _l
91 547 _l
181 547 _l
181 462 _l
201 495 226 520 255 536 _c
283 552 317 560 357 560 _c
397 560 430 550 458 530 _c
486 510 506 480 520 442 _c
}_e{_cl}_e}_d
/n{634 0 91 0 549 560 _sc
549 330 _m
549 0 _l
459 0 _l
459 327 _l
459 379 448 417 428 443 _c
408 469 378 482 338 482 _c
289 482 251 466 223 435 _c
195 404 181 362 181 309 _c
181 0 _l
91 0 _l
91 547 _l
181 547 _l
181 462 _l
202 494 227 519 257 535 _c
286 551 320 560 358 560 _c
420 560 468 540 500 501 _c
532 462 549 405 549 330 _c
_cl}_d
/o{612 0 55 -13 557 560 _sc
306 484 _m
258 484 220 465 192 427 _c
164 389 150 338 150 273 _c
150 207 163 156 191 118 _c
219 80 257 62 306 62 _c
354 62 392 80 420 118 _c
448 156 462 207 462 273 _c
462 337 448 389 420 427 _c
392 465 354 484 306 484 _c
306 560 _m
384 560 445 534 490 484 _c
534 433 557 363 557 273 _c
557 183 534 113 490 63 _c
445 12 384 -13 306 -13 _c
227 -13 165 12 121 63 _c
77 113 55 183 55 273 _c
55 363 77 433 121 484 _c
165 534 227 560 306 560 _c
_cl}_d
/p{{635 0 91 -207 580 560 _sc
181 82 _m
181 -207 _l
91 -207 _l
91 547 _l
181 547 _l
181 464 _l
199 496 223 520 252 536 _c
281 552 316 560 356 560 _c
422 560 476 533 518 481 _c
559 428 580 359 580 273 _c
580 187 559 117 518 65 _c
476 13 422 -13 356 -13 _c
316 -13 281 -5 252 10 _c
223 25 199 49 181 82 _c
487 273 _m
487 339 473 390 446 428 _c
418 466 381 485 334 485 _c
286 485 249 466 222 428 _c
194 390 181 339 181 273 _c
181 207 194 155 222 117 _c
249 79 286 61 334 61 _c
381 61 418 79 446 117 _c
473 155 487 207 487 273 _c
_cl}_e}_d
/q{{635 0 55 -207 544 560 _sc
148 273 _m
148 207 161 155 188 117 _c
215 79 253 61 301 61 _c
348 61 385 79 413 117 _c
440 155 454 207 454 273 _c
454 339 440 390 413 428 _c
385 466 348 485 301 485 _c
253 485 215 466 188 428 _c
161 390 148 339 148 273 _c
454 82 _m
435 49 411 25 382 10 _c
353 -5 319 -13 279 -13 _c
213 -13 159 13 117 65 _c
75 117 55 187 55 273 _c
55 359 75 428 117 481 _c
159 533 213 560 279 560 _c
319 560 353 552 382 536 _c
411 520 435 496 454 464 _c
454 547 _l
544 547 _l
544 -207 _l
454 -207 _l
454 82 _l
_cl}_e}_d
/r{411 0 91 0 411 560 _sc
411 463 _m
401 469 390 473 378 476 _c
366 478 353 480 339 480 _c
288 480 249 463 222 430 _c
194 397 181 350 181 288 _c
181 0 _l
91 0 _l
91 547 _l
181 547 _l
181 462 _l
199 495 224 520 254 536 _c
284 552 321 560 365 560 _c
371 560 378 559 386 559 _c
393 558 401 557 411 555 _c
411 463 _l
_cl}_d
/s{{521 0 54 -13 472 560 _sc
443 531 _m
443 446 _l
417 458 391 468 364 475 _c
336 481 308 485 279 485 _c
234 485 200 478 178 464 _c
156 450 145 430 145 403 _c
145 382 153 366 169 354 _c
185 342 217 330 265 320 _c
296 313 _l
360 299 405 279 432 255 _c
458 230 472 195 472 151 _c
472 100 452 60 412 31 _c
372 1 316 -13 246 -13 _c
216 -13 186 -10 154 -5 _c
122 0 89 8 54 20 _c
54 113 _l
87 95 120 82 152 74 _c
184 65 216 61 248 61 _c
290 61 323 68 346 82 _c
368 96 380 117 380 144 _c
380 168 371 187 355 200 _c
339 213 303 226 247 238 _c
216 245 _l
160 257 119 275 95 299 _c
70 323 58 356 58 399 _c
58 450 76 490 112 518 _c
148 546 200 560 268 560 _c
}_e{301 560 332 557 362 552 _c
391 547 418 540 443 531 _c
_cl}_e}_d
/t{392 0 27 0 368 702 _sc
183 702 _m
183 547 _l
368 547 _l
368 477 _l
183 477 _l
183 180 _l
183 135 189 106 201 94 _c
213 81 238 75 276 75 _c
368 75 _l
368 0 _l
276 0 _l
206 0 158 13 132 39 _c
106 65 93 112 93 180 _c
93 477 _l
27 477 _l
27 547 _l
93 547 _l
93 702 _l
183 702 _l
_cl}_d
/u{634 0 85 -13 543 560 _sc
85 216 _m
85 547 _l
175 547 _l
175 219 _l
175 167 185 129 205 103 _c
225 77 255 64 296 64 _c
344 64 383 79 411 110 _c
439 141 453 183 453 237 _c
453 547 _l
543 547 _l
543 0 _l
453 0 _l
453 84 _l
431 50 405 26 377 10 _c
348 -5 315 -13 277 -13 _c
214 -13 166 6 134 45 _c
101 83 85 140 85 216 _c
_cl}_d
/y{592 0 30 -207 562 547 _sc
322 -50 _m
296 -114 271 -157 247 -177 _c
223 -197 191 -207 151 -207 _c
79 -207 _l
79 -132 _l
132 -132 _l
156 -132 175 -126 189 -114 _c
203 -102 218 -75 235 -31 _c
251 9 _l
30 547 _l
125 547 _l
296 119 _l
467 547 _l
562 547 _l
322 -50 _l
_cl}_d
end readonly def

/BuildGlyph
 {exch begin
 CharStrings exch
 2 copy known not{pop /.notdef}if
 true 3 1 roll get exec
 end}_d

/BuildChar {
 1 index /Encoding get exch get
 1 index /BuildGlyph get exec
}_d

FontName currentdict end definefont pop
end
%%EndProlog
mpldict begin
121.5 247.5 translate
369 297 0 0 clipbox
1.000 setlinewidth
1 setlinejoin
2 setlinecap
[] 0 setdash
1.000 setgray
gsave
0 0 m
369 0 l
369 297 l
0 297 l
cl
gsave
fill
grestore
stroke
grestore
gsave
46.125 29.7 m
332.1 29.7 l
332.1 267.3 l
46.125 267.3 l
cl
fill
grestore
/p0_0 {
newpath
translate
2.52313 2.52313 m
-2.52313 2.52313 l
-2.52313 -2.52313 l
2.52313 -2.52313 l
cl
} bind def
0 setlinecap
0.000 setgray
gsave
286 237.6 46.12 29.7 clipbox
81.8719 33.42 p0_0
gsave
0.500 0.000 0.000 setrgbcolor
fill
grestore
stroke
grestore
gsave
286 237.6 46.12 29.7 clipbox
99.7453 34.257 p0_0
gsave
0.500 0.000 0.000 setrgbcolor
fill
grestore
stroke
grestore
gsave
286 237.6 46.12 29.7 clipbox
117.619 35.5114 p0_0
gsave
0.500 0.000 0.000 setrgbcolor
fill
grestore
stroke
grestore
gsave
286 237.6 46.12 29.7 clipbox
135.492 36.4927 p0_0
gsave
0.500 0.000 0.000 setrgbcolor
fill
grestore
stroke
grestore
gsave
286 237.6 46.12 29.7 clipbox
153.366 39.2518 p0_0
gsave
0.500 0.000 0.000 setrgbcolor
fill
grestore
stroke
grestore
gsave
286 237.6 46.12 29.7 clipbox
171.239 41.3018 p0_0
gsave
0.500 0.000 0.000 setrgbcolor
fill
grestore
stroke
grestore
gsave
286 237.6 46.12 29.7 clipbox
180.176 42.5515 p0_0
gsave
0.500 0.000 0.000 setrgbcolor
fill
grestore
stroke
grestore
gsave
286 237.6 46.12 29.7 clipbox
189.113 45.2761 p0_0
gsave
0.500 0.000 0.000 setrgbcolor
fill
grestore
stroke
grestore
gsave
286 237.6 46.12 29.7 clipbox
198.049 52.8774 p0_0
gsave
0.500 0.000 0.000 setrgbcolor
fill
grestore
stroke
grestore
gsave
286 237.6 46.12 29.7 clipbox
206.986 66.6099 p0_0
gsave
0.500 0.000 0.000 setrgbcolor
fill
grestore
stroke
grestore
gsave
286 237.6 46.12 29.7 clipbox
215.923 93.0326 p0_0
gsave
0.500 0.000 0.000 setrgbcolor
fill
grestore
stroke
grestore
gsave
286 237.6 46.12 29.7 clipbox
224.859 202.997 p0_0
gsave
0.500 0.000 0.000 setrgbcolor
fill
grestore
stroke
grestore
gsave
286 237.6 46.12 29.7 clipbox
233.796 208.101 p0_0
gsave
0.500 0.000 0.000 setrgbcolor
fill
grestore
stroke
grestore
gsave
286 237.6 46.12 29.7 clipbox
242.733 227.284 p0_0
gsave
0.500 0.000 0.000 setrgbcolor
fill
grestore
stroke
grestore
gsave
286 237.6 46.12 29.7 clipbox
260.606 221.477 p0_0
gsave
0.500 0.000 0.000 setrgbcolor
fill
grestore
stroke
grestore
gsave
286 237.6 46.12 29.7 clipbox
278.48 230.221 p0_0
gsave
0.500 0.000 0.000 setrgbcolor
fill
grestore
stroke
grestore
gsave
286 237.6 46.12 29.7 clipbox
296.353 232.097 p0_0
gsave
0.500 0.000 0.000 setrgbcolor
fill
grestore
stroke
grestore
gsave
286 237.6 46.12 29.7 clipbox
314.227 230.328 p0_0
gsave
0.500 0.000 0.000 setrgbcolor
fill
grestore
stroke
grestore
/p1_0 {
newpath
translate
3.56825 0 m
-1.78412 3.09019 l
-1.78412 -3.09019 l
cl
} bind def
gsave
286 237.6 46.12 29.7 clipbox
81.8719 34.9757 p1_0
gsave
1.000 0.407 0.000 setrgbcolor
fill
grestore
stroke
grestore
gsave
286 237.6 46.12 29.7 clipbox
99.7453 35.0981 p1_0
gsave
1.000 0.407 0.000 setrgbcolor
fill
grestore
stroke
grestore
gsave
286 237.6 46.12 29.7 clipbox
117.619 35.8835 p1_0
gsave
1.000 0.407 0.000 setrgbcolor
fill
grestore
stroke
grestore
gsave
286 237.6 46.12 29.7 clipbox
135.492 37.6712 p1_0
gsave
1.000 0.407 0.000 setrgbcolor
fill
grestore
stroke
grestore
gsave
286 237.6 46.12 29.7 clipbox
153.366 40.6684 p1_0
gsave
1.000 0.407 0.000 setrgbcolor
fill
grestore
stroke
grestore
gsave
286 237.6 46.12 29.7 clipbox
171.239 41.8258 p1_0
gsave
1.000 0.407 0.000 setrgbcolor
fill
grestore
stroke
grestore
gsave
286 237.6 46.12 29.7 clipbox
180.176 44.0202 p1_0
gsave
1.000 0.407 0.000 setrgbcolor
fill
grestore
stroke
grestore
gsave
286 237.6 46.12 29.7 clipbox
189.113 48.6282 p1_0
gsave
1.000 0.407 0.000 setrgbcolor
fill
grestore
stroke
grestore
gsave
286 237.6 46.12 29.7 clipbox
198.049 55.2203 p1_0
gsave
1.000 0.407 0.000 setrgbcolor
fill
grestore
stroke
grestore
gsave
286 237.6 46.12 29.7 clipbox
206.986 76.7844 p1_0
gsave
1.000 0.407 0.000 setrgbcolor
fill
grestore
stroke
grestore
gsave
286 237.6 46.12 29.7 clipbox
215.923 100.948 p1_0
gsave
1.000 0.407 0.000 setrgbcolor
fill
grestore
stroke
grestore
gsave
286 237.6 46.12 29.7 clipbox
224.859 204.857 p1_0
gsave
1.000 0.407 0.000 setrgbcolor
fill
grestore
stroke
grestore
gsave
286 237.6 46.12 29.7 clipbox
233.796 223.475 p1_0
gsave
1.000 0.407 0.000 setrgbcolor
fill
grestore
stroke
grestore
gsave
286 237.6 46.12 29.7 clipbox
242.733 235.898 p1_0
gsave
1.000 0.407 0.000 setrgbcolor
fill
grestore
stroke
grestore
gsave
286 237.6 46.12 29.7 clipbox
260.606 226.646 p1_0
gsave
1.000 0.407 0.000 setrgbcolor
fill
grestore
stroke
grestore
gsave
286 237.6 46.12 29.7 clipbox
278.48 230.77 p1_0
gsave
1.000 0.407 0.000 setrgbcolor
fill
grestore
stroke
grestore
gsave
286 237.6 46.12 29.7 clipbox
296.353 226.381 p1_0
gsave
1.000 0.407 0.000 setrgbcolor
fill
grestore
stroke
grestore
gsave
286 237.6 46.12 29.7 clipbox
314.227 229.434 p1_0
gsave
1.000 0.407 0.000 setrgbcolor
fill
grestore
stroke
grestore
/p2_0 {
newpath
translate
-3.56825 -4.36984e-16 m
1.78412 -3.09019 l
1.78412 3.09019 l
cl
} bind def
gsave
286 237.6 46.12 29.7 clipbox
81.8719 37.1747 p2_0
gsave
0.806 1.000 0.161 setrgbcolor
fill
grestore
stroke
grestore
gsave
286 237.6 46.12 29.7 clipbox
99.7453 35.7317 p2_0
gsave
0.806 1.000 0.161 setrgbcolor
fill
grestore
stroke
grestore
gsave
286 237.6 46.12 29.7 clipbox
117.619 36.6382 p2_0
gsave
0.806 1.000 0.161 setrgbcolor
fill
grestore
stroke
grestore
gsave
286 237.6 46.12 29.7 clipbox
135.492 38.1525 p2_0
gsave
0.806 1.000 0.161 setrgbcolor
fill
grestore
stroke
grestore
gsave
286 237.6 46.12 29.7 clipbox
153.366 41.9671 p2_0
gsave
0.806 1.000 0.161 setrgbcolor
fill
grestore
stroke
grestore
gsave
286 237.6 46.12 29.7 clipbox
171.239 42.4271 p2_0
gsave
0.806 1.000 0.161 setrgbcolor
fill
grestore
stroke
grestore
gsave
286 237.6 46.12 29.7 clipbox
180.176 44.5681 p2_0
gsave
0.806 1.000 0.161 setrgbcolor
fill
grestore
stroke
grestore
gsave
286 237.6 46.12 29.7 clipbox
189.113 50.2136 p2_0
gsave
0.806 1.000 0.161 setrgbcolor
fill
grestore
stroke
grestore
gsave
286 237.6 46.12 29.7 clipbox
198.049 60.0951 p2_0
gsave
0.806 1.000 0.161 setrgbcolor
fill
grestore
stroke
grestore
gsave
286 237.6 46.12 29.7 clipbox
206.986 78.4764 p2_0
gsave
0.806 1.000 0.161 setrgbcolor
fill
grestore
stroke
grestore
gsave
286 237.6 46.12 29.7 clipbox
215.923 102.992 p2_0
gsave
0.806 1.000 0.161 setrgbcolor
fill
grestore
stroke
grestore
gsave
286 237.6 46.12 29.7 clipbox
224.859 221.199 p2_0
gsave
0.806 1.000 0.161 setrgbcolor
fill
grestore
stroke
grestore
gsave
286 237.6 46.12 29.7 clipbox
233.796 221.408 p2_0
gsave
0.806 1.000 0.161 setrgbcolor
fill
grestore
stroke
grestore
gsave
286 237.6 46.12 29.7 clipbox
242.733 231.174 p2_0
gsave
0.806 1.000 0.161 setrgbcolor
fill
grestore
stroke
grestore
gsave
286 237.6 46.12 29.7 clipbox
260.606 232.332 p2_0
gsave
0.806 1.000 0.161 setrgbcolor
fill
grestore
stroke
grestore
gsave
286 237.6 46.12 29.7 clipbox
278.48 229.696 p2_0
gsave
0.806 1.000 0.161 setrgbcolor
fill
grestore
stroke
grestore
gsave
286 237.6 46.12 29.7 clipbox
296.353 231.249 p2_0
gsave
0.806 1.000 0.161 setrgbcolor
fill
grestore
stroke
grestore
gsave
286 237.6 46.12 29.7 clipbox
314.227 229.882 p2_0
gsave
0.806 1.000 0.161 setrgbcolor
fill
grestore
stroke
grestore
/p3_0 {
newpath
translate
2.18492e-16 -3.56825 m
3.09019 1.78412 l
-3.09019 1.78412 l
cl
} bind def
gsave
286 237.6 46.12 29.7 clipbox
81.8719 37.4459 p3_0
gsave
0.161 1.000 0.806 setrgbcolor
fill
grestore
stroke
grestore
gsave
286 237.6 46.12 29.7 clipbox
99.7453 36.559 p3_0
gsave
0.161 1.000 0.806 setrgbcolor
fill
grestore
stroke
grestore
gsave
286 237.6 46.12 29.7 clipbox
117.619 37.2606 p3_0
gsave
0.161 1.000 0.806 setrgbcolor
fill
grestore
stroke
grestore
gsave
286 237.6 46.12 29.7 clipbox
135.492 39.6146 p3_0
gsave
0.161 1.000 0.806 setrgbcolor
fill
grestore
stroke
grestore
gsave
286 237.6 46.12 29.7 clipbox
153.366 43.3439 p3_0
gsave
0.161 1.000 0.806 setrgbcolor
fill
grestore
stroke
grestore
gsave
286 237.6 46.12 29.7 clipbox
171.239 43.5549 p3_0
gsave
0.161 1.000 0.806 setrgbcolor
fill
grestore
stroke
grestore
gsave
286 237.6 46.12 29.7 clipbox
180.176 45.8546 p3_0
gsave
0.161 1.000 0.806 setrgbcolor
fill
grestore
stroke
grestore
gsave
286 237.6 46.12 29.7 clipbox
189.113 51.7979 p3_0
gsave
0.161 1.000 0.806 setrgbcolor
fill
grestore
stroke
grestore
gsave
286 237.6 46.12 29.7 clipbox
198.049 62.1546 p3_0
gsave
0.161 1.000 0.806 setrgbcolor
fill
grestore
stroke
grestore
gsave
286 237.6 46.12 29.7 clipbox
206.986 78.114 p3_0
gsave
0.161 1.000 0.806 setrgbcolor
fill
grestore
stroke
grestore
gsave
286 237.6 46.12 29.7 clipbox
215.923 101.659 p3_0
gsave
0.161 1.000 0.806 setrgbcolor
fill
grestore
stroke
grestore
gsave
286 237.6 46.12 29.7 clipbox
224.859 204.534 p3_0
gsave
0.161 1.000 0.806 setrgbcolor
fill
grestore
stroke
grestore
gsave
286 237.6 46.12 29.7 clipbox
233.796 209.053 p3_0
gsave
0.161 1.000 0.806 setrgbcolor
fill
grestore
stroke
grestore
gsave
286 237.6 46.12 29.7 clipbox
242.733 216.931 p3_0
gsave
0.161 1.000 0.806 setrgbcolor
fill
grestore
stroke
grestore
gsave
286 237.6 46.12 29.7 clipbox
260.606 217.871 p3_0
gsave
0.161 1.000 0.806 setrgbcolor
fill
grestore
stroke
grestore
gsave
286 237.6 46.12 29.7 clipbox
278.48 216.014 p3_0
gsave
0.161 1.000 0.806 setrgbcolor
fill
grestore
stroke
grestore
gsave
286 237.6 46.12 29.7 clipbox
296.353 216.68 p3_0
gsave
0.161 1.000 0.806 setrgbcolor
fill
grestore
stroke
grestore
gsave
286 237.6 46.12 29.7 clipbox
314.227 216.683 p3_0
gsave
0.161 1.000 0.806 setrgbcolor
fill
grestore
stroke
grestore
/p4_0 {
newpath
translate
2.18492e-16 3.56825 m
-3.09019 -1.78412 l
3.09019 -1.78412 l
cl
} bind def
gsave
286 237.6 46.12 29.7 clipbox
81.8719 39.1115 p4_0
gsave
0.000 0.300 1.000 setrgbcolor
fill
grestore
stroke
grestore
gsave
286 237.6 46.12 29.7 clipbox
99.7453 37.0498 p4_0
gsave
0.000 0.300 1.000 setrgbcolor
fill
grestore
stroke
grestore
gsave
286 237.6 46.12 29.7 clipbox
117.619 37.6409 p4_0
gsave
0.000 0.300 1.000 setrgbcolor
fill
grestore
stroke
grestore
gsave
286 237.6 46.12 29.7 clipbox
135.492 40.514 p4_0
gsave
0.000 0.300 1.000 setrgbcolor
fill
grestore
stroke
grestore
gsave
286 237.6 46.12 29.7 clipbox
153.366 43.589 p4_0
gsave
0.000 0.300 1.000 setrgbcolor
fill
grestore
stroke
grestore
gsave
286 237.6 46.12 29.7 clipbox
171.239 45.0437 p4_0
gsave
0.000 0.300 1.000 setrgbcolor
fill
grestore
stroke
grestore
gsave
286 237.6 46.12 29.7 clipbox
180.176 47.4145 p4_0
gsave
0.000 0.300 1.000 setrgbcolor
fill
grestore
stroke
grestore
gsave
286 237.6 46.12 29.7 clipbox
189.113 52.6263 p4_0
gsave
0.000 0.300 1.000 setrgbcolor
fill
grestore
stroke
grestore
gsave
286 237.6 46.12 29.7 clipbox
198.049 64.089 p4_0
gsave
0.000 0.300 1.000 setrgbcolor
fill
grestore
stroke
grestore
gsave
286 237.6 46.12 29.7 clipbox
206.986 75.4172 p4_0
gsave
0.000 0.300 1.000 setrgbcolor
fill
grestore
stroke
grestore
gsave
286 237.6 46.12 29.7 clipbox
215.923 98.2265 p4_0
gsave
0.000 0.300 1.000 setrgbcolor
fill
grestore
stroke
grestore
gsave
286 237.6 46.12 29.7 clipbox
224.859 191.748 p4_0
gsave
0.000 0.300 1.000 setrgbcolor
fill
grestore
stroke
grestore
gsave
286 237.6 46.12 29.7 clipbox
233.796 192.573 p4_0
gsave
0.000 0.300 1.000 setrgbcolor
fill
grestore
stroke
grestore
gsave
286 237.6 46.12 29.7 clipbox
242.733 195.934 p4_0
gsave
0.000 0.300 1.000 setrgbcolor
fill
grestore
stroke
grestore
gsave
286 237.6 46.12 29.7 clipbox
260.606 195.975 p4_0
gsave
0.000 0.300 1.000 setrgbcolor
fill
grestore
stroke
grestore
gsave
286 237.6 46.12 29.7 clipbox
278.48 195.143 p4_0
gsave
0.000 0.300 1.000 setrgbcolor
fill
grestore
stroke
grestore
gsave
286 237.6 46.12 29.7 clipbox
296.353 194.722 p4_0
gsave
0.000 0.300 1.000 setrgbcolor
fill
grestore
stroke
grestore
gsave
286 237.6 46.12 29.7 clipbox
314.227 194.583 p4_0
gsave
0.000 0.300 1.000 setrgbcolor
fill
grestore
stroke
grestore
/p5_0 {
newpath
translate
0 -3.56825 m
0.94631 -3.56825 1.85399 -3.19228 2.52313 -2.52313 c
3.19228 -1.85399 3.56825 -0.94631 3.56825 0 c
3.56825 0.94631 3.19228 1.85399 2.52313 2.52313 c
1.85399 3.19228 0.94631 3.56825 0 3.56825 c
-0.94631 3.56825 -1.85399 3.19228 -2.52313 2.52313 c
-3.19228 1.85399 -3.56825 0.94631 -3.56825 0 c
-3.56825 -0.94631 -3.19228 -1.85399 -2.52313 -2.52313 c
-1.85399 -3.19228 -0.94631 -3.56825 0 -3.56825 c
cl
} bind def
gsave
286 237.6 46.12 29.7 clipbox
81.8719 43.0354 p5_0
gsave
0.000 0.000 0.500 setrgbcolor
fill
grestore
stroke
grestore
gsave
286 237.6 46.12 29.7 clipbox
99.7453 35.3775 p5_0
gsave
0.000 0.000 0.500 setrgbcolor
fill
grestore
stroke
grestore
gsave
286 237.6 46.12 29.7 clipbox
117.619 35.8081 p5_0
gsave
0.000 0.000 0.500 setrgbcolor
fill
grestore
stroke
grestore
gsave
286 237.6 46.12 29.7 clipbox
135.492 38.6243 p5_0
gsave
0.000 0.000 0.500 setrgbcolor
fill
grestore
stroke
grestore
gsave
286 237.6 46.12 29.7 clipbox
153.366 39.1533 p5_0
gsave
0.000 0.000 0.500 setrgbcolor
fill
grestore
stroke
grestore
gsave
286 237.6 46.12 29.7 clipbox
171.239 39.6893 p5_0
gsave
0.000 0.000 0.500 setrgbcolor
fill
grestore
stroke
grestore
gsave
286 237.6 46.12 29.7 clipbox
180.176 42.2081 p5_0
gsave
0.000 0.000 0.500 setrgbcolor
fill
grestore
stroke
grestore
gsave
286 237.6 46.12 29.7 clipbox
189.113 49.5661 p5_0
gsave
0.000 0.000 0.500 setrgbcolor
fill
grestore
stroke
grestore
gsave
286 237.6 46.12 29.7 clipbox
198.049 59.8445 p5_0
gsave
0.000 0.000 0.500 setrgbcolor
fill
grestore
stroke
grestore
gsave
286 237.6 46.12 29.7 clipbox
206.986 71.854 p5_0
gsave
0.000 0.000 0.500 setrgbcolor
fill
grestore
stroke
grestore
gsave
286 237.6 46.12 29.7 clipbox
215.923 95.2131 p5_0
gsave
0.000 0.000 0.500 setrgbcolor
fill
grestore
stroke
grestore
gsave
286 237.6 46.12 29.7 clipbox
224.859 161.512 p5_0
gsave
0.000 0.000 0.500 setrgbcolor
fill
grestore
stroke
grestore
gsave
286 237.6 46.12 29.7 clipbox
233.796 163.922 p5_0
gsave
0.000 0.000 0.500 setrgbcolor
fill
grestore
stroke
grestore
gsave
286 237.6 46.12 29.7 clipbox
242.733 166.494 p5_0
gsave
0.000 0.000 0.500 setrgbcolor
fill
grestore
stroke
grestore
gsave
286 237.6 46.12 29.7 clipbox
260.606 166.232 p5_0
gsave
0.000 0.000 0.500 setrgbcolor
fill
grestore
stroke
grestore
gsave
286 237.6 46.12 29.7 clipbox
278.48 168.084 p5_0
gsave
0.000 0.000 0.500 setrgbcolor
fill
grestore
stroke
grestore
gsave
286 237.6 46.12 29.7 clipbox
296.353 166.864 p5_0
gsave
0.000 0.000 0.500 setrgbcolor
fill
grestore
stroke
grestore
gsave
286 237.6 46.12 29.7 clipbox
314.227 166.851 p5_0
gsave
0.000 0.000 0.500 setrgbcolor
fill
grestore
stroke
grestore
2 setlinecap
0.000 0.000 0.500 setrgbcolor
gsave
286 237.6 46.12 29.7 clipbox
63.9984 41.5179 m
82.2293 41.4159 l
99.7453 36.467 l
109.397 36.0029 l
119.049 36.6332 l
138.709 39.0978 l
148.719 39.7984 l
168.022 40.9805 l
171.597 41.3928 l
180.176 44.2474 l
189.47 51.385 l
198.407 61.5869 l
206.986 75.0206 l
215.923 106.2 l
224.859 153.086 l
233.796 170.135 l
243.09 172.152 l
253.814 172.648 l
262.751 172.809 l
278.48 173.572 l
294.208 172.976 l
299.57 172.83 l
313.869 172.733 l
331.743 172.733 l
331.743 172.733 l
stroke
grestore
0.000 0.300 1.000 setrgbcolor
gsave
286 237.6 46.12 29.7 clipbox
63.9984 39.4356 m
82.5868 39.3372 l
100.103 37.0303 l
110.112 37.0112 l
119.049 37.6358 l
130.845 39.2784 l
146.216 41.5497 l
155.51 42.6394 l
166.592 43.644 l
171.597 44.2478 l
180.176 46.8557 l
189.113 53.0239 l
198.407 63.7333 l
206.986 77.2877 l
215.923 111.885 l
224.859 168.215 l
233.796 188.696 l
243.09 191.181 l
252.742 191.954 l
268.113 191.828 l
283.842 191.473 l
301.358 191.135 l
320.304 191.058 l
331.743 191.058 l
331.743 191.058 l
stroke
grestore
0.161 1.000 0.806 setrgbcolor
gsave
286 237.6 46.12 29.7 clipbox
63.9984 37.4803 m
84.0167 37.379 l
100.103 36.7189 l
111.184 37.0265 l
119.764 37.6429 l
129.415 38.8119 l
137.994 40.1715 l
149.076 42.1616 l
154.081 42.9171 l
171.239 44.0395 l
180.176 46.6347 l
189.113 52.6905 l
198.049 63.265 l
206.986 79.5292 l
215.923 118.379 l
224.859 183.785 l
233.796 209.449 l
242.733 214.697 l
252.027 216.655 l
261.679 216.721 l
279.91 215.524 l
292.778 215.717 l
300.643 215.815 l
331.743 215.756 l
331.743 215.756 l
stroke
grestore
0.806 1.000 0.161 setrgbcolor
gsave
286 237.6 46.12 29.7 clipbox
63.9984 36.8413 m
83.6592 36.7453 l
99.7453 35.9737 l
111.899 36.3742 l
121.908 37.0578 l
129.773 37.8137 l
136.922 38.7397 l
152.651 41.5136 l
154.438 41.7064 l
171.239 42.8877 l
180.176 45.3677 l
189.113 51.0647 l
198.049 61.6785 l
206.986 79.512 l
215.923 121.855 l
224.859 193.868 l
233.796 221.85 l
242.733 228.081 l
252.027 230.174 l
262.394 229.855 l
278.48 228.642 l
295.996 229.012 l
298.498 228.972 l
322.448 228.516 l
331.743 228.516 l
331.743 228.516 l
stroke
grestore
1.000 0.407 0.000 setrgbcolor
gsave
286 237.6 46.12 29.7 clipbox
63.9984 35.0473 m
99.0304 35.1544 l
103.677 35.3111 l
114.044 35.8069 l
121.551 36.3411 l
130.488 37.1934 l
137.994 38.1312 l
154.081 40.5197 l
170.524 42.0793 l
171.954 42.3347 l
180.533 44.6191 l
189.113 48.977 l
198.049 58.3179 l
206.986 76.7424 l
215.923 117.625 l
224.859 187.14 l
233.796 221.123 l
242.733 230.934 l
252.027 230.486 l
260.606 227.939 l
271.33 228.891 l
278.837 229.825 l
292.421 228.49 l
296.711 228.07 l
308.15 228.801 l
315.299 229.356 l
331.743 229.356 l
331.743 229.356 l
stroke
grestore
0.500 0.000 0.000 setrgbcolor
gsave
286 237.6 46.12 29.7 clipbox
63.9984 33.6655 m
85.0891 33.7735 l
98.3154 34.3247 l
107.252 34.8596 l
131.203 36.4562 l
137.28 37.0416 l
165.877 40.8023 l
173.026 41.7571 l
180.533 43.1832 l
189.113 46.5999 l
198.049 54.6237 l
206.986 70.151 l
215.923 111.492 l
224.859 181.409 l
233.796 212.259 l
242.733 223.629 l
251.67 225.11 l
260.606 223.553 l
270.615 226.558 l
278.837 229.587 l
288.131 230.913 l
297.426 231.185 l
312.797 230.446 l
316.014 230.367 l
331.743 230.367 l
331.743 230.367 l
stroke
grestore
0.500 setlinewidth
0 setlinecap
[1 3] 0 setdash
0.000 setgray
gsave
286 237.6 46.12 29.7 clipbox
46.125 29.7 m
46.125 267.3 l
stroke
grestore
[] 0 setdash
gsave
/o {
gsave
newpath
translate
0 0 m
0 4 l
stroke
grestore
} bind def
46.125 29.7 o
grestore
gsave
/o {
gsave
newpath
translate
0 0 m
0 -4 l
stroke
grestore
} bind def
46.125 267.3 o
grestore
/DejaVuSans findfont
8.000 scalefont
setfont
gsave
39.078125 19.653125 translate
0.000000 rotate
0.000000 0.109375 m /seven glyphshow
5.089844 0.109375 m /zero glyphshow
10.179688 0.109375 m /zero glyphshow
grestore
[1 3] 0 setdash
gsave
286 237.6 46.12 29.7 clipbox
81.8719 29.7 m
81.8719 267.3 l
stroke
grestore
[] 0 setdash
gsave
/o {
gsave
newpath
translate
0 0 m
0 4 l
stroke
grestore
} bind def
81.8719 29.7 o
grestore
gsave
/o {
gsave
newpath
translate
0 0 m
0 -4 l
stroke
grestore
} bind def
81.8719 267.3 o
grestore
gsave
74.770312 19.653125 translate
0.000000 rotate
0.000000 0.109375 m /eight glyphshow
5.089844 0.109375 m /zero glyphshow
10.179688 0.109375 m /zero glyphshow
grestore
[1 3] 0 setdash
gsave
286 237.6 46.12 29.7 clipbox
117.619 29.7 m
117.619 267.3 l
stroke
grestore
[] 0 setdash
gsave
/o {
gsave
newpath
translate
0 0 m
0 4 l
stroke
grestore
} bind def
117.619 29.7 o
grestore
gsave
/o {
gsave
newpath
translate
0 0 m
0 -4 l
stroke
grestore
} bind def
117.619 267.3 o
grestore
gsave
110.493750 19.653125 translate
0.000000 rotate
0.000000 0.109375 m /nine glyphshow
5.089844 0.109375 m /zero glyphshow
10.179688 0.109375 m /zero glyphshow
grestore
[1 3] 0 setdash
gsave
286 237.6 46.12 29.7 clipbox
153.366 29.7 m
153.366 267.3 l
stroke
grestore
[] 0 setdash
gsave
/o {
gsave
newpath
translate
0 0 m
0 4 l
stroke
grestore
} bind def
153.366 29.7 o
grestore
gsave
/o {
gsave
newpath
translate
0 0 m
0 -4 l
stroke
grestore
} bind def
153.366 267.3 o
grestore
gsave
143.881250 19.653125 translate
0.000000 rotate
0.000000 0.109375 m /one glyphshow
5.089844 0.109375 m /zero glyphshow
10.179688 0.109375 m /zero glyphshow
15.269531 0.109375 m /zero glyphshow
grestore
[1 3] 0 setdash
gsave
286 237.6 46.12 29.7 clipbox
189.113 29.7 m
189.113 267.3 l
stroke
grestore
[] 0 setdash
gsave
/o {
gsave
newpath
translate
0 0 m
0 4 l
stroke
grestore
} bind def
189.113 29.7 o
grestore
gsave
/o {
gsave
newpath
translate
0 0 m
0 -4 l
stroke
grestore
} bind def
189.113 267.3 o
grestore
gsave
179.628125 19.653125 translate
0.000000 rotate
0.000000 0.109375 m /one glyphshow
5.089844 0.109375 m /one glyphshow
10.179688 0.109375 m /zero glyphshow
15.269531 0.109375 m /zero glyphshow
grestore
[1 3] 0 setdash
gsave
286 237.6 46.12 29.7 clipbox
224.859 29.7 m
224.859 267.3 l
stroke
grestore
[] 0 setdash
gsave
/o {
gsave
newpath
translate
0 0 m
0 4 l
stroke
grestore
} bind def
224.859 29.7 o
grestore
gsave
/o {
gsave
newpath
translate
0 0 m
0 -4 l
stroke
grestore
} bind def
224.859 267.3 o
grestore
gsave
215.375000 19.653125 translate
0.000000 rotate
0.000000 0.109375 m /one glyphshow
5.089844 0.109375 m /two glyphshow
10.179688 0.109375 m /zero glyphshow
15.269531 0.109375 m /zero glyphshow
grestore
[1 3] 0 setdash
gsave
286 237.6 46.12 29.7 clipbox
260.606 29.7 m
260.606 267.3 l
stroke
grestore
[] 0 setdash
gsave
/o {
gsave
newpath
translate
0 0 m
0 4 l
stroke
grestore
} bind def
260.606 29.7 o
grestore
gsave
/o {
gsave
newpath
translate
0 0 m
0 -4 l
stroke
grestore
} bind def
260.606 267.3 o
grestore
gsave
251.121875 19.653125 translate
0.000000 rotate
0.000000 0.109375 m /one glyphshow
5.089844 0.109375 m /three glyphshow
10.179688 0.109375 m /zero glyphshow
15.269531 0.109375 m /zero glyphshow
grestore
[1 3] 0 setdash
gsave
286 237.6 46.12 29.7 clipbox
296.353 29.7 m
296.353 267.3 l
stroke
grestore
[] 0 setdash
gsave
/o {
gsave
newpath
translate
0 0 m
0 4 l
stroke
grestore
} bind def
296.353 29.7 o
grestore
gsave
/o {
gsave
newpath
translate
0 0 m
0 -4 l
stroke
grestore
} bind def
296.353 267.3 o
grestore
gsave
286.868750 19.653125 translate
0.000000 rotate
0.000000 0.109375 m /one glyphshow
5.089844 0.109375 m /four glyphshow
10.179688 0.109375 m /zero glyphshow
15.269531 0.109375 m /zero glyphshow
grestore
[1 3] 0 setdash
gsave
286 237.6 46.12 29.7 clipbox
332.1 29.7 m
332.1 267.3 l
stroke
grestore
[] 0 setdash
gsave
/o {
gsave
newpath
translate
0 0 m
0 4 l
stroke
grestore
} bind def
332.1 29.7 o
grestore
gsave
/o {
gsave
newpath
translate
0 0 m
0 -4 l
stroke
grestore
} bind def
332.1 267.3 o
grestore
gsave
322.615625 19.653125 translate
0.000000 rotate
0.000000 0.109375 m /one glyphshow
5.089844 0.109375 m /five glyphshow
10.179688 0.109375 m /zero glyphshow
15.269531 0.109375 m /zero glyphshow
grestore
gsave
162.589063 6.903125 translate
0.000000 rotate
0.000000 1.671875 m /M glyphshow
6.902344 1.671875 m /e glyphshow
11.824219 1.671875 m /m glyphshow
19.617188 1.671875 m /o glyphshow
24.511719 1.671875 m /r glyphshow
27.800781 1.671875 m /y glyphshow
32.535156 1.671875 m /space glyphshow
35.078125 1.671875 m /bracketleft glyphshow
38.199219 1.671875 m /M glyphshow
45.101562 1.671875 m /B glyphshow
50.589844 1.671875 m /bracketright glyphshow
grestore
[1 3] 0 setdash
gsave
286 237.6 46.12 29.7 clipbox
46.125 29.7 m
332.1 29.7 l
stroke
grestore
[] 0 setdash
gsave
/o {
gsave
newpath
translate
0 0 m
4 0 l
stroke
grestore
} bind def
46.125 29.7 o
grestore
gsave
/o {
gsave
newpath
translate
0 0 m
-4 0 l
stroke
grestore
} bind def
332.1 29.7 o
grestore
gsave
38.093750 26.676562 translate
0.000000 rotate
0.000000 0.109375 m /zero glyphshow
grestore
[1 3] 0 setdash
gsave
286 237.6 46.12 29.7 clipbox
46.125 77.22 m
332.1 77.22 l
stroke
grestore
[] 0 setdash
gsave
/o {
gsave
newpath
translate
0 0 m
4 0 l
stroke
grestore
} bind def
46.125 77.22 o
grestore
gsave
/o {
gsave
newpath
translate
0 0 m
-4 0 l
stroke
grestore
} bind def
332.1 77.22 o
grestore
gsave
22.906250 74.196562 translate
0.000000 rotate
0.000000 0.109375 m /five glyphshow
5.089844 0.109375 m /zero glyphshow
10.179688 0.109375 m /zero glyphshow
15.269531 0.109375 m /zero glyphshow
grestore
[1 3] 0 setdash
gsave
286 237.6 46.12 29.7 clipbox
46.125 124.74 m
332.1 124.74 l
stroke
grestore
[] 0 setdash
gsave
/o {
gsave
newpath
translate
0 0 m
4 0 l
stroke
grestore
} bind def
46.125 124.74 o
grestore
gsave
/o {
gsave
newpath
translate
0 0 m
-4 0 l
stroke
grestore
} bind def
332.1 124.74 o
grestore
gsave
18.062500 121.716563 translate
0.000000 rotate
0.000000 0.109375 m /one glyphshow
5.089844 0.109375 m /zero glyphshow
10.179688 0.109375 m /zero glyphshow
15.269531 0.109375 m /zero glyphshow
20.359375 0.109375 m /zero glyphshow
grestore
[1 3] 0 setdash
gsave
286 237.6 46.12 29.7 clipbox
46.125 172.26 m
332.1 172.26 l
stroke
grestore
[] 0 setdash
gsave
/o {
gsave
newpath
translate
0 0 m
4 0 l
stroke
grestore
} bind def
46.125 172.26 o
grestore
gsave
/o {
gsave
newpath
translate
0 0 m
-4 0 l
stroke
grestore
} bind def
332.1 172.26 o
grestore
gsave
18.062500 169.236563 translate
0.000000 rotate
0.000000 0.109375 m /one glyphshow
5.089844 0.109375 m /five glyphshow
10.179688 0.109375 m /zero glyphshow
15.269531 0.109375 m /zero glyphshow
20.359375 0.109375 m /zero glyphshow
grestore
[1 3] 0 setdash
gsave
286 237.6 46.12 29.7 clipbox
46.125 219.78 m
332.1 219.78 l
stroke
grestore
[] 0 setdash
gsave
/o {
gsave
newpath
translate
0 0 m
4 0 l
stroke
grestore
} bind def
46.125 219.78 o
grestore
gsave
/o {
gsave
newpath
translate
0 0 m
-4 0 l
stroke
grestore
} bind def
332.1 219.78 o
grestore
gsave
17.781250 216.756563 translate
0.000000 rotate
0.000000 0.109375 m /two glyphshow
5.089844 0.109375 m /zero glyphshow
10.179688 0.109375 m /zero glyphshow
15.269531 0.109375 m /zero glyphshow
20.359375 0.109375 m /zero glyphshow
grestore
[1 3] 0 setdash
gsave
286 237.6 46.12 29.7 clipbox
46.125 267.3 m
332.1 267.3 l
stroke
grestore
[] 0 setdash
gsave
/o {
gsave
newpath
translate
0 0 m
4 0 l
stroke
grestore
} bind def
46.125 267.3 o
grestore
gsave
/o {
gsave
newpath
translate
0 0 m
-4 0 l
stroke
grestore
} bind def
332.1 267.3 o
grestore
gsave
17.781250 264.276563 translate
0.000000 rotate
0.000000 0.109375 m /two glyphshow
5.089844 0.109375 m /five glyphshow
10.179688 0.109375 m /zero glyphshow
15.269531 0.109375 m /zero glyphshow
20.359375 0.109375 m /zero glyphshow
grestore
gsave
12.781250 106.460938 translate
90.000000 rotate
0.000000 1.671875 m /T glyphshow
4.886719 1.671875 m /h glyphshow
9.957031 1.671875 m /r glyphshow
13.121094 1.671875 m /o glyphshow
18.015625 1.671875 m /u glyphshow
23.085938 1.671875 m /g glyphshow
28.164062 1.671875 m /h glyphshow
33.234375 1.671875 m /p glyphshow
38.312500 1.671875 m /u glyphshow
43.382812 1.671875 m /t glyphshow
46.519531 1.671875 m /space glyphshow
49.062500 1.671875 m /bracketleft glyphshow
52.183594 1.671875 m /r glyphshow
55.347656 1.671875 m /e glyphshow
60.269531 1.671875 m /q glyphshow
65.347656 1.671875 m /slash glyphshow
68.042969 1.671875 m /s glyphshow
72.210938 1.671875 m /e glyphshow
77.132812 1.671875 m /c glyphshow
81.531250 1.671875 m /bracketright glyphshow
grestore
1.000 setlinewidth
2 setlinecap
gsave
46.125 267.3 m
332.1 267.3 l
stroke
grestore
gsave
332.1 29.7 m
332.1 267.3 l
stroke
grestore
gsave
46.125 29.7 m
332.1 29.7 l
stroke
grestore
gsave
46.125 29.7 m
46.125 267.3 l
stroke
grestore
/DejaVuSans findfont
12.000 scalefont
setfont
gsave
93.050000 269.800000 translate
0.000000 rotate
0.000000 2.500000 m /M glyphshow
10.353516 2.500000 m /e glyphshow
17.736328 2.500000 m /m glyphshow
29.425781 2.500000 m /c glyphshow
36.023438 2.500000 m /a glyphshow
43.376953 2.500000 m /c glyphshow
49.974609 2.500000 m /h glyphshow
57.580078 2.500000 m /e glyphshow
64.962891 2.500000 m /d glyphshow
72.580078 2.500000 m /space glyphshow
76.394531 2.500000 m /P glyphshow
83.255859 2.500000 m /e glyphshow
90.638672 2.500000 m /r glyphshow
95.572266 2.500000 m /f glyphshow
99.796875 2.500000 m /o glyphshow
107.138672 2.500000 m /r glyphshow
111.822266 2.500000 m /m glyphshow
123.511719 2.500000 m /a glyphshow
130.865234 2.500000 m /n glyphshow
138.470703 2.500000 m /c glyphshow
145.068359 2.500000 m /e glyphshow
152.451172 2.500000 m /space glyphshow
156.265625 2.500000 m /G glyphshow
165.564453 2.500000 m /r glyphshow
170.498047 2.500000 m /a glyphshow
177.851562 2.500000 m /p glyphshow
185.468750 2.500000 m /h glyphshow
grestore
gsave
50.125 191.963 m
116.019 191.963 l
116.019 263.3 l
50.125 263.3 l
50.125 191.963 l
cl
gsave
1.000 setgray
fill
grestore
stroke
grestore
/p6_0 {
newpath
translate
2.52313 2.52313 m
-2.52313 2.52313 l
-2.52313 -2.52313 l
2.52313 -2.52313 l
cl
} bind def
/p6_1 {
newpath
translate
2.52313 2.52313 m
-2.52313 2.52313 l
-2.52313 -2.52313 l
2.52313 -2.52313 l
cl
} bind def
/p6_2 {
newpath
translate
2.52313 2.52313 m
-2.52313 2.52313 l
-2.52313 -2.52313 l
2.52313 -2.52313 l
cl
} bind def
0 setlinecap
gsave
55.725 256.122 p6_0
gsave
0.500 0.000 0.000 setrgbcolor
fill
grestore
stroke
grestore
gsave
61.325 256.822 p6_1
gsave
0.500 0.000 0.000 setrgbcolor
fill
grestore
stroke
grestore
gsave
66.925 255.772 p6_2
gsave
0.500 0.000 0.000 setrgbcolor
fill
grestore
stroke
grestore
/DejaVuSans findfont
8.000 scalefont
setfont
gsave
75.725000 253.912500 translate
0.000000 rotate
0.000000 0.109375 m /l glyphshow
2.222656 0.109375 m /o glyphshow
7.117188 0.109375 m /a glyphshow
12.019531 0.109375 m /d glyphshow
17.097656 0.109375 m /colon glyphshow
19.792969 0.109375 m /space glyphshow
22.335938 0.109375 m /one glyphshow
27.425781 0.109375 m /zero glyphshow
32.515625 0.109375 m /zero glyphshow
grestore
/p7_0 {
newpath
translate
3.56825 0 m
-1.78412 3.09019 l
-1.78412 -3.09019 l
cl
} bind def
/p7_1 {
newpath
translate
3.56825 0 m
-1.78412 3.09019 l
-1.78412 -3.09019 l
cl
} bind def
/p7_2 {
newpath
translate
3.56825 0 m
-1.78412 3.09019 l
-1.78412 -3.09019 l
cl
} bind def
gsave
55.725 244.372 p7_0
gsave
1.000 0.407 0.000 setrgbcolor
fill
grestore
stroke
grestore
gsave
61.325 245.072 p7_1
gsave
1.000 0.407 0.000 setrgbcolor
fill
grestore
stroke
grestore
gsave
66.925 244.022 p7_2
gsave
1.000 0.407 0.000 setrgbcolor
fill
grestore
stroke
grestore
gsave
75.725000 242.162500 translate
0.000000 rotate
0.000000 0.109375 m /l glyphshow
2.222656 0.109375 m /o glyphshow
7.117188 0.109375 m /a glyphshow
12.019531 0.109375 m /d glyphshow
17.097656 0.109375 m /colon glyphshow
19.792969 0.109375 m /space glyphshow
22.335938 0.109375 m /eight glyphshow
27.425781 0.109375 m /zero glyphshow
grestore
/p8_0 {
newpath
translate
-3.56825 -4.36984e-16 m
1.78412 -3.09019 l
1.78412 3.09019 l
cl
} bind def
/p8_1 {
newpath
translate
-3.56825 -4.36984e-16 m
1.78412 -3.09019 l
1.78412 3.09019 l
cl
} bind def
/p8_2 {
newpath
translate
-3.56825 -4.36984e-16 m
1.78412 -3.09019 l
1.78412 3.09019 l
cl
} bind def
gsave
55.725 232.622 p8_0
gsave
0.806 1.000 0.161 setrgbcolor
fill
grestore
stroke
grestore
gsave
61.325 233.322 p8_1
gsave
0.806 1.000 0.161 setrgbcolor
fill
grestore
stroke
grestore
gsave
66.925 232.272 p8_2
gsave
0.806 1.000 0.161 setrgbcolor
fill
grestore
stroke
grestore
gsave
75.725000 230.412500 translate
0.000000 rotate
0.000000 0.109375 m /l glyphshow
2.222656 0.109375 m /o glyphshow
7.117188 0.109375 m /a glyphshow
12.019531 0.109375 m /d glyphshow
17.097656 0.109375 m /colon glyphshow
19.792969 0.109375 m /space glyphshow
22.335938 0.109375 m /six glyphshow
27.425781 0.109375 m /zero glyphshow
grestore
/p9_0 {
newpath
translate
2.18492e-16 -3.56825 m
3.09019 1.78412 l
-3.09019 1.78412 l
cl
} bind def
/p9_1 {
newpath
translate
2.18492e-16 -3.56825 m
3.09019 1.78412 l
-3.09019 1.78412 l
cl
} bind def
/p9_2 {
newpath
translate
2.18492e-16 -3.56825 m
3.09019 1.78412 l
-3.09019 1.78412 l
cl
} bind def
gsave
55.725 220.872 p9_0
gsave
0.161 1.000 0.806 setrgbcolor
fill
grestore
stroke
grestore
gsave
61.325 221.572 p9_1
gsave
0.161 1.000 0.806 setrgbcolor
fill
grestore
stroke
grestore
gsave
66.925 220.522 p9_2
gsave
0.161 1.000 0.806 setrgbcolor
fill
grestore
stroke
grestore
gsave
75.725000 218.662500 translate
0.000000 rotate
0.000000 0.109375 m /l glyphshow
2.222656 0.109375 m /o glyphshow
7.117188 0.109375 m /a glyphshow
12.019531 0.109375 m /d glyphshow
17.097656 0.109375 m /colon glyphshow
19.792969 0.109375 m /space glyphshow
22.335938 0.109375 m /four glyphshow
27.425781 0.109375 m /zero glyphshow
grestore
/pa_0 {
newpath
translate
2.18492e-16 3.56825 m
-3.09019 -1.78412 l
3.09019 -1.78412 l
cl
} bind def
/pa_1 {
newpath
translate
2.18492e-16 3.56825 m
-3.09019 -1.78412 l
3.09019 -1.78412 l
cl
} bind def
/pa_2 {
newpath
translate
2.18492e-16 3.56825 m
-3.09019 -1.78412 l
3.09019 -1.78412 l
cl
} bind def
gsave
55.725 209.122 pa_0
gsave
0.000 0.300 1.000 setrgbcolor
fill
grestore
stroke
grestore
gsave
61.325 209.822 pa_1
gsave
0.000 0.300 1.000 setrgbcolor
fill
grestore
stroke
grestore
gsave
66.925 208.772 pa_2
gsave
0.000 0.300 1.000 setrgbcolor
fill
grestore
stroke
grestore
gsave
75.725000 206.912500 translate
0.000000 rotate
0.000000 0.109375 m /l glyphshow
2.222656 0.109375 m /o glyphshow
7.117188 0.109375 m /a glyphshow
12.019531 0.109375 m /d glyphshow
17.097656 0.109375 m /colon glyphshow
19.792969 0.109375 m /space glyphshow
22.335938 0.109375 m /two glyphshow
27.425781 0.109375 m /zero glyphshow
grestore
/pb_0 {
newpath
translate
0 -3.56825 m
0.94631 -3.56825 1.85399 -3.19228 2.52313 -2.52313 c
3.19228 -1.85399 3.56825 -0.94631 3.56825 0 c
3.56825 0.94631 3.19228 1.85399 2.52313 2.52313 c
1.85399 3.19228 0.94631 3.56825 0 3.56825 c
-0.94631 3.56825 -1.85399 3.19228 -2.52313 2.52313 c
-3.19228 1.85399 -3.56825 0.94631 -3.56825 0 c
-3.56825 -0.94631 -3.19228 -1.85399 -2.52313 -2.52313 c
-1.85399 -3.19228 -0.94631 -3.56825 0 -3.56825 c
cl
} bind def
/pb_1 {
newpath
translate
0 -3.56825 m
0.94631 -3.56825 1.85399 -3.19228 2.52313 -2.52313 c
3.19228 -1.85399 3.56825 -0.94631 3.56825 0 c
3.56825 0.94631 3.19228 1.85399 2.52313 2.52313 c
1.85399 3.19228 0.94631 3.56825 0 3.56825 c
-0.94631 3.56825 -1.85399 3.19228 -2.52313 2.52313 c
-3.19228 1.85399 -3.56825 0.94631 -3.56825 0 c
-3.56825 -0.94631 -3.19228 -1.85399 -2.52313 -2.52313 c
-1.85399 -3.19228 -0.94631 -3.56825 0 -3.56825 c
cl
} bind def
/pb_2 {
newpath
translate
0 -3.56825 m
0.94631 -3.56825 1.85399 -3.19228 2.52313 -2.52313 c
3.19228 -1.85399 3.56825 -0.94631 3.56825 0 c
3.56825 0.94631 3.19228 1.85399 2.52313 2.52313 c
1.85399 3.19228 0.94631 3.56825 0 3.56825 c
-0.94631 3.56825 -1.85399 3.19228 -2.52313 2.52313 c
-3.19228 1.85399 -3.56825 0.94631 -3.56825 0 c
-3.56825 -0.94631 -3.19228 -1.85399 -2.52313 -2.52313 c
-1.85399 -3.19228 -0.94631 -3.56825 0 -3.56825 c
cl
} bind def
gsave
55.725 197.372 pb_0
gsave
0.000 0.000 0.500 setrgbcolor
fill
grestore
stroke
grestore
gsave
61.325 198.072 pb_1
gsave
0.000 0.000 0.500 setrgbcolor
fill
grestore
stroke
grestore
gsave
66.925 197.022 pb_2
gsave
0.000 0.000 0.500 setrgbcolor
fill
grestore
stroke
grestore
gsave
75.725000 195.162500 translate
0.000000 rotate
0.000000 0.109375 m /l glyphshow
2.222656 0.109375 m /o glyphshow
7.117188 0.109375 m /a glyphshow
12.019531 0.109375 m /d glyphshow
17.097656 0.109375 m /colon glyphshow
19.792969 0.109375 m /space glyphshow
22.335938 0.109375 m /one glyphshow
27.425781 0.109375 m /zero glyphshow
grestore

end
showpage
